country_region_code,country_region,sub_region_1,sub_region_2,metro_area,iso_3166_2_code,census_fips_code,date,retail_and_recreation_percent_change_from_baseline,grocery_and_pharmacy_percent_change_from_baseline,parks_percent_change_from_baseline,transit_stations_percent_change_from_baseline,workplaces_percent_change_from_baseline,residential_percent_change_from_baseline
NA,Namibia,,,,,,2020-02-15,-5,-8,2,-8,2,3
NA,Namibia,,,,,,2020-02-16,-12,-10,4,-9,-1,2
NA,Namibia,,,,,,2020-02-17,-13,-14,-3,-17,6,1
NA,Namibia,,,,,,2020-02-18,-15,-14,-6,-11,6,2
NA,Namibia,,,,,,2020-02-19,-13,-14,-5,-15,6,0
NA,Namibia,,,,,,2020-02-20,-4,-4,1,-7,6,-1
NA,Namibia,,,,,,2020-02-21,-2,-4,-7,-3,11,-2
NA,Namibia,,,,,,2020-02-22,-1,-3,0,-7,4,2
NA,Namibia,,,,,,2020-02-23,-6,-5,1,-12,3,1
NA,Namibia,,,,,,2020-02-24,-9,-11,-3,-12,10,0
NA,Namibia,,,,,,2020-02-25,-1,0,-1,-4,11,-1
NA,Namibia,,,,,,2020-02-26,0,-2,-2,-7,11,-2
NA,Namibia,,,,,,2020-02-27,2,3,7,-4,9,-1
NA,Namibia,,,,,,2020-02-28,13,13,9,4,11,-5
NA,Namibia,,,,,,2020-02-29,20,18,16,-1,6,-4
NA,Namibia,,,,,,2020-03-01,23,24,19,4,8,-4
NA,Namibia,,,,,,2020-03-02,7,10,10,-7,12,-2
NA,Namibia,,,,,,2020-03-03,2,5,9,-2,10,-1
NA,Namibia,,,,,,2020-03-04,4,4,11,-3,10,-1
NA,Namibia,,,,,,2020-03-05,2,4,8,7,10,-1
NA,Namibia,,,,,,2020-03-06,5,4,9,5,13,-3
NA,Namibia,,,,,,2020-03-07,8,3,7,-2,10,0
NA,Namibia,,,,,,2020-03-08,2,1,7,-10,8,-1
NA,Namibia,,,,,,2020-03-09,-7,-8,0,-3,8,0
NA,Namibia,,,,,,2020-03-10,-9,-7,0,-3,8,0
NA,Namibia,,,,,,2020-03-11,-7,-8,2,-6,8,-1
NA,Namibia,,,,,,2020-03-12,-7,-7,-3,0,9,0
NA,Namibia,,,,,,2020-03-13,-4,-4,-5,-2,11,-1
NA,Namibia,,,,,,2020-03-14,-1,-2,1,-9,6,2
NA,Namibia,,,,,,2020-03-15,-8,-5,-2,-14,3,2
NA,Namibia,,,,,,2020-03-16,-8,0,-5,-22,-6,5
NA,Namibia,,,,,,2020-03-17,-19,-11,-12,-15,-12,8
NA,Namibia,,,,,,2020-03-18,-19,-12,-12,-20,-13,8
NA,Namibia,,,,,,2020-03-19,-20,-13,-15,-12,-14,8
NA,Namibia,,,,,,2020-03-20,-9,2,-9,-23,-10,6
NA,Namibia,,,,,,2020-03-21,-24,-15,-12,-31,-20,8
NA,Namibia,,,,,,2020-03-22,-21,-15,-7,-40,-7,5
NA,Namibia,,,,,,2020-03-23,-17,-10,-14,-31,-13,8
NA,Namibia,,,,,,2020-03-24,-16,-4,-16,-27,-14,9
NA,Namibia,,,,,,2020-03-25,-1,13,-17,-25,-15,6
NA,Namibia,,,,,,2020-03-26,1,18,-12,-23,-19,5
NA,Namibia,,,,,,2020-03-27,-9,13,-21,-49,-22,10
NA,Namibia,,,,,,2020-03-28,-51,-32,-42,-68,-28,18
NA,Namibia,,,,,,2020-03-29,-56,-42,-39,-74,-28,16
NA,Namibia,,,,,,2020-03-30,-50,-31,-41,-71,-53,26
NA,Namibia,,,,,,2020-03-31,-46,-23,-37,-65,-54,24
NA,Namibia,,,,,,2020-04-01,-46,-25,-36,-70,-54,24
NA,Namibia,,,,,,2020-04-02,-50,-27,-38,-66,-56,25
NA,Namibia,,,,,,2020-04-03,-51,-30,-40,-73,-54,27
NA,Namibia,,,,,,2020-04-04,-54,-34,-42,-69,-35,18
NA,Namibia,,,,,,2020-04-05,-56,-42,-36,-75,-30,15
NA,Namibia,,,,,,2020-04-06,-51,-33,-37,-71,-56,25
NA,Namibia,,,,,,2020-04-07,-52,-31,-40,-73,-56,24
NA,Namibia,,,,,,2020-04-08,-52,-34,-39,-76,-57,24
NA,Namibia,,,,,,2020-04-09,-48,-25,-39,-70,-57,23
NA,Namibia,,,,,,2020-04-10,-71,-61,-51,-79,-78,35
NA,Namibia,,,,,,2020-04-11,-55,-32,-41,-71,-38,18
NA,Namibia,,,,,,2020-04-12,-59,-43,-37,-76,-33,14
NA,Namibia,,,,,,2020-04-13,-69,-57,-50,-80,-79,32
NA,Namibia,,,,,,2020-04-14,-50,-28,-37,-71,-53,23
NA,Namibia,,,,,,2020-04-15,-50,-30,-38,-75,-53,24
NA,Namibia,,,,,,2020-04-16,-50,-27,-39,-67,-53,24
NA,Namibia,,,,,,2020-04-17,-49,-25,-42,-70,-49,26
NA,Namibia,,,,,,2020-04-18,-59,-41,-46,-72,-35,19
NA,Namibia,,,,,,2020-04-19,-59,-44,-41,-77,-27,15
NA,Namibia,,,,,,2020-04-20,-45,-27,-40,-70,-49,23
NA,Namibia,,,,,,2020-04-21,-47,-27,-39,-68,-50,23
NA,Namibia,,,,,,2020-04-22,-48,-30,-40,-73,-49,23
NA,Namibia,,,,,,2020-04-23,-49,-31,-42,-66,-49,23
NA,Namibia,,,,,,2020-04-24,-44,-25,-43,-69,-45,24
NA,Namibia,,,,,,2020-04-25,-43,-21,-38,-67,-25,15
NA,Namibia,,,,,,2020-04-26,-49,-31,-36,-72,-22,13
NA,Namibia,,,,,,2020-04-27,-38,-23,-34,-68,-45,22
NA,Namibia,,,,,,2020-04-28,-40,-22,-34,-64,-45,20
NA,Namibia,,,,,,2020-04-29,-37,-19,-37,-71,-44,21
NA,Namibia,,,,,,2020-04-30,-25,-2,-29,-55,-43,18
NA,Namibia,,,,,,2020-05-01,-53,-36,-44,-75,-69,29
NA,Namibia,,,,,,2020-05-02,-32,-9,-31,-64,-19,13
NA,Namibia,,,,,,2020-05-03,-41,-24,-32,-72,-16,11
NA,Namibia,,,,,,2020-05-04,-55,-41,-44,-75,-72,29
NA,Namibia,,,,,,2020-05-05,-14,3,-23,-44,-21,10
NA,Namibia,,,,,,2020-05-06,-13,2,-21,-50,-17,11
NA,Namibia,,,,,,2020-05-07,-14,2,-18,-41,-17,11
NA,Namibia,,,,,,2020-05-08,-18,0,-22,-45,-13,11
NA,Namibia,,,,,,2020-05-09,-18,0,-20,-50,-5,9
NA,Namibia,,,,,,2020-05-10,-26,-6,-14,-60,-7,6
NA,Namibia,,,,,,2020-05-11,-20,-7,-16,-49,-12,10
NA,Namibia,,,,,,2020-05-12,-21,-6,-18,-41,-12,11
NA,Namibia,,,,,,2020-05-13,-23,-9,-22,-50,-12,10
NA,Namibia,,,,,,2020-05-14,-22,-8,-17,-40,-13,10
NA,Namibia,,,,,,2020-05-15,-22,-6,-20,-47,-8,11
NA,Namibia,,,,,,2020-05-16,-22,-7,-18,-48,-2,10
NA,Namibia,,,,,,2020-05-17,-30,-14,-21,-62,-5,8
NA,Namibia,,,,,,2020-05-18,-22,-11,-16,-48,-10,10
NA,Namibia,,,,,,2020-05-19,-24,-12,-19,-42,-11,10
NA,Namibia,,,,,,2020-05-20,-8,10,-14,-41,-13,7
NA,Namibia,,,,,,2020-05-21,-36,-19,-22,-61,-67,20
NA,Namibia,,,,,,2020-05-22,-14,3,-9,-50,-30,12
NA,Namibia,,,,,,2020-05-23,-16,1,-1,-50,-7,7
NA,Namibia,,,,,,2020-05-24,-23,-8,8,-63,-8,6
NA,Namibia,,,,,,2020-05-25,-41,-29,-27,-62,-69,21
NA,Namibia,,,,,,2020-05-26,-16,1,-21,-42,-16,9
NA,Namibia,,,,,,2020-05-27,-15,0,-23,-50,-15,10
NA,Namibia,,,,,,2020-05-28,-13,2,-15,-38,-15,10
NA,Namibia,,,,,,2020-05-29,-7,12,-10,-37,-12,10
NA,Namibia,,,,,,2020-05-30,-6,15,-11,-44,6,7
NA,Namibia,,,,,,2020-05-31,-9,10,-15,-55,6,5
NA,Namibia,,,,,,2020-06-01,-7,7,-9,-40,-8,9
NA,Namibia,,,,,,2020-06-02,-8,12,-10,-40,-8,8
NA,Namibia,,,,,,2020-06-03,-12,2,-19,-46,-8,9
NA,Namibia,,,,,,2020-06-04,-13,1,-15,-41,-9,9
NA,Namibia,,,,,,2020-06-05,-11,3,-18,-45,-6,8
NA,Namibia,,,,,,2020-06-06,-14,0,-11,-48,2,7
NA,Namibia,,,,,,2020-06-07,-21,-8,-17,-64,2,6
NA,Namibia,,,,,,2020-06-08,-16,-5,-18,-48,-8,9
NA,Namibia,,,,,,2020-06-09,-24,-10,-23,-46,-10,10
NA,Namibia,,,,,,2020-06-10,-21,-9,-21,-48,-11,10
NA,Namibia,,,,,,2020-06-11,-22,-9,-22,-45,-11,11
NA,Namibia,,,,,,2020-06-12,-22,-7,-28,-49,-7,11
NA,Namibia,,,,,,2020-06-13,-24,-11,-25,-55,0,10
NA,Namibia,,,,,,2020-06-14,-27,-15,-24,-60,3,8
NA,Namibia,,,,,,2020-06-15,-19,-10,-20,-51,-8,10
NA,Namibia,,,,,,2020-06-16,-22,-10,-22,-43,-8,10
NA,Namibia,,,,,,2020-06-17,-23,-12,-24,-47,-10,11
NA,Namibia,,,,,,2020-06-18,-25,-14,-20,-48,-11,11
NA,Namibia,,,,,,2020-06-19,-15,0,-22,-48,-7,10
NA,Namibia,,,,,,2020-06-20,-14,2,-20,-51,4,8
NA,Namibia,,,,,,2020-06-21,-20,-5,-20,-64,4,6
NA,Namibia,,,,,,2020-06-22,-20,-11,-23,-54,-10,11
NA,Namibia,,,,,,2020-06-23,-22,-9,-24,-50,-9,11
NA,Namibia,,,,,,2020-06-24,-20,-9,-27,-50,-9,10
NA,Namibia,,,,,,2020-06-25,-11,4,-15,-43,-9,9
NA,Namibia,,,,,,2020-06-26,-8,5,-18,-47,-7,8
NA,Namibia,,,,,,2020-06-27,-8,3,-16,-52,1,7
NA,Namibia,,,,,,2020-06-28,-15,-5,-17,-62,0,6
NA,Namibia,,,,,,2020-06-29,-11,-3,-15,-52,-8,10
NA,Namibia,,,,,,2020-06-30,-6,9,-16,-44,-7,8
NA,Namibia,,,,,,2020-07-01,-4,7,-14,-42,-7,8
NA,Namibia,,,,,,2020-07-02,-6,6,-11,-38,-9,8
NA,Namibia,,,,,,2020-07-03,-5,7,-14,-43,-6,7
NA,Namibia,,,,,,2020-07-04,-5,4,-9,-43,0,6
NA,Namibia,,,,,,2020-07-05,-14,-5,-9,-56,1,5
NA,Namibia,,,,,,2020-07-06,-13,-3,-16,-49,-9,9
NA,Namibia,,,,,,2020-07-07,-16,1,-18,-43,-9,9
NA,Namibia,,,,,,2020-07-08,-17,-4,-18,-45,-8,9
NA,Namibia,,,,,,2020-07-09,-17,-3,-16,-44,-9,9
NA,Namibia,,,,,,2020-07-10,-14,-1,-21,-45,-6,9
NA,Namibia,,,,,,2020-07-11,-16,-6,-18,-49,-2,9
NA,Namibia,,,,,,2020-07-12,-24,-12,-16,-60,-5,7
NA,Namibia,,,,,,2020-07-13,-19,-8,-21,-46,-9,10
NA,Namibia,,,,,,2020-07-14,-22,-10,-22,-47,-9,10
NA,Namibia,,,,,,2020-07-15,-21,-8,-24,-48,-9,10
NA,Namibia,,,,,,2020-07-16,-21,-9,-20,-42,-9,11
NA,Namibia,,,,,,2020-07-17,-18,-6,-23,-46,-6,9
NA,Namibia,,,,,,2020-07-18,-19,-9,-16,-42,-3,9
NA,Namibia,,,,,,2020-07-19,-25,-12,-20,-63,-2,7
NA,Namibia,,,,,,2020-07-20,-15,0,-21,-45,-10,8
NA,Namibia,,,,,,2020-07-21,-21,-4,-22,-44,-10,9
NA,Namibia,,,,,,2020-07-22,-19,-6,-25,-46,-9,9
NA,Namibia,,,,,,2020-07-23,-18,-6,-16,-40,-10,9
NA,Namibia,,,,,,2020-07-24,-8,5,-20,-40,-7,7
NA,Namibia,,,,,,2020-07-25,-5,5,-13,-51,-4,6
NA,Namibia,,,,,,2020-07-26,-13,-2,-14,-57,-4,4
NA,Namibia,,,,,,2020-07-27,-14,-3,-19,-46,-11,9
NA,Namibia,,,,,,2020-07-28,-17,-3,-23,-38,-11,9
NA,Namibia,,,,,,2020-07-29,-15,-3,-22,-45,-12,9
NA,Namibia,,,,,,2020-07-30,-13,-1,-17,-40,-13,9
NA,Namibia,,,,,,2020-07-31,-1,14,-15,-41,-10,6
NA,Namibia,,,,,,2020-08-01,1,13,-6,-47,-6,4
NA,Namibia,,,,,,2020-08-02,-7,5,-8,-57,-5,3
NA,Namibia,,,,,,2020-08-03,-7,5,-12,-44,-12,9
NA,Namibia,,,,,,2020-08-04,-12,3,-15,-42,-13,9
NA,Namibia,,,,,,2020-08-05,-11,0,-16,-40,-12,9
NA,Namibia,,,,,,2020-08-06,-14,-1,-18,-39,-14,10
NA,Namibia,,,,,,2020-08-07,-12,0,-17,-42,-11,8
NA,Namibia,,,,,,2020-08-08,-14,-5,-15,-45,-4,7
NA,Namibia,,,,,,2020-08-09,-23,-14,-12,-54,-7,6
NA,Namibia,,,,,,2020-08-10,-19,-9,-19,-45,-14,10
NA,Namibia,,,,,,2020-08-11,-23,-11,-21,-44,-15,11
NA,Namibia,,,,,,2020-08-12,-19,-8,-22,-48,-15,10
NA,Namibia,,,,,,2020-08-13,-28,-13,-22,-46,-18,13
NA,Namibia,,,,,,2020-08-14,-26,-9,-25,-55,-14,14
NA,Namibia,,,,,,2020-08-15,-29,-12,-26,-56,-7,12
NA,Namibia,,,,,,2020-08-16,-38,-22,-24,-63,-12,10
NA,Namibia,,,,,,2020-08-17,,,,,-18,14
NA,Namibia,,,,,,2020-08-18,,,,,-20,14
NA,Namibia,,,,,,2020-08-19,,,,,-22,14
NA,Namibia,,,,,,2020-08-20,,,,,-22,13
NA,Namibia,,,,,,2020-08-21,,,,,-19,13
NA,Namibia,,,,,,2020-08-22,,,,,-9,11
NA,Namibia,,,,,,2020-08-23,,,,,-14,10
NA,Namibia,,,,,,2020-08-24,,,,,-25,14
NA,Namibia,,,,,,2020-08-25,,,,,-26,12
NA,Namibia,,,,,,2020-08-26,,,,,-67,24
NA,Namibia,,,,,,2020-08-27,,,,,-27,12
NA,Namibia,,,,,,2020-08-28,,,,,-25,13
NA,Namibia,,,,,,2020-08-29,,,,,-9,9
NA,Namibia,,,,,,2020-08-30,,,,,-12,7
NA,Namibia,,,,,,2020-08-31,,,,,-19,10
NA,Namibia,,,,,,2020-09-01,,,,,-20,10
NA,Namibia,,,,,,2020-09-02,,,,,-19,10
NA,Namibia,,,,,,2020-09-03,,,,,-20,10
NA,Namibia,,,,,,2020-09-04,,,,,-17,11
NA,Namibia,,,,,,2020-09-05,,,,,-8,8
NA,Namibia,,,,,,2020-09-06,,,,,-13,7
NA,Namibia,,,,,,2020-09-07,,,,,-19,11
NA,Namibia,,,,,,2020-09-08,,,,,-20,11
NA,Namibia,,,,,,2020-09-09,,,,,-20,11
NA,Namibia,,,,,,2020-09-10,,,,,-21,11
NA,Namibia,,,,,,2020-09-11,,,,,-17,10
NA,Namibia,,,,,,2020-09-12,,,,,-11,8
NA,Namibia,,,,,,2020-09-13,,,,,-14,6
NA,Namibia,,,,,,2020-09-14,,,,,-17,10
NA,Namibia,,,,,,2020-09-15,,,,,-18,9
NA,Namibia,,,,,,2020-09-16,,,,,-19,10
NA,Namibia,,,,,,2020-09-17,,,,,-19,10
NA,Namibia,,,,,,2020-09-18,,,,,-15,7
NA,Namibia,,,,,,2020-09-19,,,,,-10,6
NA,Namibia,,,,,,2020-09-20,,,,,-10,5
NA,Namibia,,,,,,2020-09-21,,,,,-17,9
NA,Namibia,Erongo Region,,,NA-ER,,2020-02-15,-19,-17,1,,-1,
NA,Namibia,Erongo Region,,,NA-ER,,2020-02-16,-17,-16,-7,,-2,
NA,Namibia,Erongo Region,,,NA-ER,,2020-02-17,-15,-13,-4,,0,1
NA,Namibia,Erongo Region,,,NA-ER,,2020-02-18,-17,-19,-4,,2,2
NA,Namibia,Erongo Region,,,NA-ER,,2020-02-19,-15,-17,-4,,3,1
NA,Namibia,Erongo Region,,,NA-ER,,2020-02-20,-5,-7,0,,0,1
NA,Namibia,Erongo Region,,,NA-ER,,2020-02-21,-16,-9,-6,,2,0
NA,Namibia,Erongo Region,,,NA-ER,,2020-02-22,-17,-17,1,,-1,
NA,Namibia,Erongo Region,,,NA-ER,,2020-02-23,-12,-11,-9,,2,
NA,Namibia,Erongo Region,,,NA-ER,,2020-02-24,-15,-12,-4,,2,0
NA,Namibia,Erongo Region,,,NA-ER,,2020-02-25,-3,1,-10,,6,-2
NA,Namibia,Erongo Region,,,NA-ER,,2020-02-26,-2,4,-5,,6,-2
NA,Namibia,Erongo Region,,,NA-ER,,2020-02-27,7,11,7,,5,0
NA,Namibia,Erongo Region,,,NA-ER,,2020-02-28,-1,10,-5,,3,-5
NA,Namibia,Erongo Region,,,NA-ER,,2020-02-29,-10,-4,-13,,-5,
NA,Namibia,Erongo Region,,,NA-ER,,2020-03-01,9,16,10,,5,
NA,Namibia,Erongo Region,,,NA-ER,,2020-03-02,4,15,1,,6,-2
NA,Namibia,Erongo Region,,,NA-ER,,2020-03-03,0,6,-7,,8,-2
NA,Namibia,Erongo Region,,,NA-ER,,2020-03-04,3,7,-1,,8,0
NA,Namibia,Erongo Region,,,NA-ER,,2020-03-05,2,7,-2,,7,0
NA,Namibia,Erongo Region,,,NA-ER,,2020-03-06,-9,0,1,,6,-2
NA,Namibia,Erongo Region,,,NA-ER,,2020-03-07,-6,-4,1,,6,
NA,Namibia,Erongo Region,,,NA-ER,,2020-03-08,-7,-4,-5,,7,
NA,Namibia,Erongo Region,,,NA-ER,,2020-03-09,-7,-8,2,,3,0
NA,Namibia,Erongo Region,,,NA-ER,,2020-03-10,-11,-10,-12,,5,0
NA,Namibia,Erongo Region,,,NA-ER,,2020-03-11,-8,-6,-3,,4,0
NA,Namibia,Erongo Region,,,NA-ER,,2020-03-12,-2,-4,-5,,5,1
NA,Namibia,Erongo Region,,,NA-ER,,2020-03-13,-16,-11,-7,,4,-1
NA,Namibia,Erongo Region,,,NA-ER,,2020-03-14,-19,-13,-12,,1,
NA,Namibia,Erongo Region,,,NA-ER,,2020-03-15,-17,-11,-16,,0,
NA,Namibia,Erongo Region,,,NA-ER,,2020-03-16,-10,0,-14,,-5,4
NA,Namibia,Erongo Region,,,NA-ER,,2020-03-17,-21,-14,-10,,-8,5
NA,Namibia,Erongo Region,,,NA-ER,,2020-03-18,-22,-14,-4,,-10,6
NA,Namibia,Erongo Region,,,NA-ER,,2020-03-19,-17,-14,-11,,-10,8
NA,Namibia,Erongo Region,,,NA-ER,,2020-03-20,-23,-7,-9,,-9,6
NA,Namibia,Erongo Region,,,NA-ER,,2020-03-21,-34,-24,-11,,-19,
NA,Namibia,Erongo Region,,,NA-ER,,2020-03-22,-26,-23,-11,,-10,
NA,Namibia,Erongo Region,,,NA-ER,,2020-03-23,-18,-14,-10,,-10,7
NA,Namibia,Erongo Region,,,NA-ER,,2020-03-24,-16,-7,-21,,-10,7
NA,Namibia,Erongo Region,,,NA-ER,,2020-03-25,2,20,-19,,-10,4
NA,Namibia,Erongo Region,,,NA-ER,,2020-03-26,6,26,-24,,-13,4
NA,Namibia,Erongo Region,,,NA-ER,,2020-03-27,-20,15,-29,,-21,7
NA,Namibia,Erongo Region,,,NA-ER,,2020-03-28,-68,-51,-61,,-36,
NA,Namibia,Erongo Region,,,NA-ER,,2020-03-29,-65,-56,-64,,-35,
NA,Namibia,Erongo Region,,,NA-ER,,2020-03-30,-59,-40,-58,,-56,
NA,Namibia,Erongo Region,,,NA-ER,,2020-03-31,-59,-38,-52,,-57,
NA,Namibia,Erongo Region,,,NA-ER,,2020-04-01,-57,-37,-52,,-56,
NA,Namibia,Erongo Region,,,NA-ER,,2020-04-02,-56,-34,-53,,-56,
NA,Namibia,Erongo Region,,,NA-ER,,2020-04-03,-61,-41,-44,,-57,
NA,Namibia,Erongo Region,,,NA-ER,,2020-04-04,-66,-48,-52,,-40,
NA,Namibia,Erongo Region,,,NA-ER,,2020-04-05,-65,-55,-49,,-33,
NA,Namibia,Erongo Region,,,NA-ER,,2020-04-06,-55,-38,-44,,-58,
NA,Namibia,Erongo Region,,,NA-ER,,2020-04-07,-58,-39,-53,,-56,
NA,Namibia,Erongo Region,,,NA-ER,,2020-04-08,-58,-40,-47,,-57,
NA,Namibia,Erongo Region,,,NA-ER,,2020-04-09,-52,-32,-58,,-56,
NA,Namibia,Erongo Region,,,NA-ER,,2020-04-10,-74,-62,-55,,-77,
NA,Namibia,Erongo Region,,,NA-ER,,2020-04-11,-65,-43,-55,,-43,
NA,Namibia,Erongo Region,,,NA-ER,,2020-04-12,-65,-53,-49,,-38,
NA,Namibia,Erongo Region,,,NA-ER,,2020-04-13,-72,-58,-58,,-78,
NA,Namibia,Erongo Region,,,NA-ER,,2020-04-14,-57,-39,-51,,-53,
NA,Namibia,Erongo Region,,,NA-ER,,2020-04-15,-56,-37,-47,,-53,
NA,Namibia,Erongo Region,,,NA-ER,,2020-04-16,-54,-33,-56,,-54,
NA,Namibia,Erongo Region,,,NA-ER,,2020-04-17,-59,-33,-55,,-51,
NA,Namibia,Erongo Region,,,NA-ER,,2020-04-18,-68,-49,-49,,-38,
NA,Namibia,Erongo Region,,,NA-ER,,2020-04-19,-63,-50,-49,,-33,
NA,Namibia,Erongo Region,,,NA-ER,,2020-04-20,-50,-29,-48,,-47,
NA,Namibia,Erongo Region,,,NA-ER,,2020-04-21,-52,-34,-48,,-45,
NA,Namibia,Erongo Region,,,NA-ER,,2020-04-22,-51,-35,-49,,-46,
NA,Namibia,Erongo Region,,,NA-ER,,2020-04-23,-49,-32,-50,,-46,
NA,Namibia,Erongo Region,,,NA-ER,,2020-04-24,-49,-25,-57,,-42,
NA,Namibia,Erongo Region,,,NA-ER,,2020-04-25,-53,-27,-49,,-29,
NA,Namibia,Erongo Region,,,NA-ER,,2020-04-26,-50,-32,-48,,-25,
NA,Namibia,Erongo Region,,,NA-ER,,2020-04-27,-36,-18,-48,,-41,21
NA,Namibia,Erongo Region,,,NA-ER,,2020-04-28,-38,-23,-53,,-41,20
NA,Namibia,Erongo Region,,,NA-ER,,2020-04-29,-38,-18,-51,,-40,21
NA,Namibia,Erongo Region,,,NA-ER,,2020-04-30,-24,-1,-47,,-39,19
NA,Namibia,Erongo Region,,,NA-ER,,2020-05-01,-58,-35,-50,,-67,
NA,Namibia,Erongo Region,,,NA-ER,,2020-05-02,-43,-19,-46,,-20,
NA,Namibia,Erongo Region,,,NA-ER,,2020-05-03,-48,-35,-45,,-19,
NA,Namibia,Erongo Region,,,NA-ER,,2020-05-04,-53,-37,-49,,-70,
NA,Namibia,Erongo Region,,,NA-ER,,2020-05-05,-12,-2,-34,,-17,8
NA,Namibia,Erongo Region,,,NA-ER,,2020-05-06,-16,-2,-28,,-14,10
NA,Namibia,Erongo Region,,,NA-ER,,2020-05-07,-9,5,-32,,-15,10
NA,Namibia,Erongo Region,,,NA-ER,,2020-05-08,-27,-3,-27,,-13,10
NA,Namibia,Erongo Region,,,NA-ER,,2020-05-09,-28,-9,-26,,-9,
NA,Namibia,Erongo Region,,,NA-ER,,2020-05-10,-28,-12,-25,,-12,
NA,Namibia,Erongo Region,,,NA-ER,,2020-05-11,-19,-4,-22,,-10,9
NA,Namibia,Erongo Region,,,NA-ER,,2020-05-12,-18,-9,-28,,-10,9
NA,Namibia,Erongo Region,,,NA-ER,,2020-05-13,-21,-10,-28,,-9,9
NA,Namibia,Erongo Region,,,NA-ER,,2020-05-14,-15,-4,-33,,-10,10
NA,Namibia,Erongo Region,,,NA-ER,,2020-05-15,-29,-10,-24,,-11,10
NA,Namibia,Erongo Region,,,NA-ER,,2020-05-16,-29,-16,-20,,-5,
NA,Namibia,Erongo Region,,,NA-ER,,2020-05-17,-32,-22,-24,,-8,
NA,Namibia,Erongo Region,,,NA-ER,,2020-05-18,-18,-10,-5,,-8,9
NA,Namibia,Erongo Region,,,NA-ER,,2020-05-19,-22,-14,-28,,-8,9
NA,Namibia,Erongo Region,,,NA-ER,,2020-05-20,-11,5,-16,,-11,7
NA,Namibia,Erongo Region,,,NA-ER,,2020-05-21,-25,-6,-9,,-63,
NA,Namibia,Erongo Region,,,NA-ER,,2020-05-22,-7,13,6,,-25,11
NA,Namibia,Erongo Region,,,NA-ER,,2020-05-23,-6,11,18,,-8,
NA,Namibia,Erongo Region,,,NA-ER,,2020-05-24,-5,0,24,,-9,
NA,Namibia,Erongo Region,,,NA-ER,,2020-05-25,-30,-17,-15,,-65,
NA,Namibia,Erongo Region,,,NA-ER,,2020-05-26,-11,-3,-32,,-12,9
NA,Namibia,Erongo Region,,,NA-ER,,2020-05-27,-9,3,-26,,-12,9
NA,Namibia,Erongo Region,,,NA-ER,,2020-05-28,-6,8,-34,,-12,10
NA,Namibia,Erongo Region,,,NA-ER,,2020-05-29,-18,8,-15,,-15,11
NA,Namibia,Erongo Region,,,NA-ER,,2020-05-30,-23,-4,-21,,-3,
NA,Namibia,Erongo Region,,,NA-ER,,2020-05-31,-20,-4,-29,,-3,
NA,Namibia,Erongo Region,,,NA-ER,,2020-06-01,-11,6,-18,,-16,12
NA,Namibia,Erongo Region,,,NA-ER,,2020-06-02,-16,-2,-19,,-15,12
NA,Namibia,Erongo Region,,,NA-ER,,2020-06-03,-19,-4,-26,,-16,13
NA,Namibia,Erongo Region,,,NA-ER,,2020-06-04,-18,-3,-34,,-16,14
NA,Namibia,Erongo Region,,,NA-ER,,2020-06-05,-28,-6,-30,,-14,13
NA,Namibia,Erongo Region,,,NA-ER,,2020-06-06,-34,-19,-28,,-4,
NA,Namibia,Erongo Region,,,NA-ER,,2020-06-07,-33,-22,-28,,-7,
NA,Namibia,Erongo Region,,,NA-ER,,2020-06-08,-15,-2,-19,,-16,10
NA,Namibia,Erongo Region,,,NA-ER,,2020-06-09,-40,-27,-42,,-25,17
NA,Namibia,Erongo Region,,,NA-ER,,2020-06-10,-39,-23,-33,,-27,18
NA,Namibia,Erongo Region,,,NA-ER,,2020-06-11,-36,-26,-41,,-27,20
NA,Namibia,Erongo Region,,,NA-ER,,2020-06-12,-44,-25,-42,,-24,19
NA,Namibia,Erongo Region,,,NA-ER,,2020-06-13,-56,-39,-49,,-13,
NA,Namibia,Erongo Region,,,NA-ER,,2020-06-14,-47,-39,-43,,-11,
NA,Namibia,Erongo Region,,,NA-ER,,2020-06-15,-35,-23,-28,,-23,16
NA,Namibia,Erongo Region,,,NA-ER,,2020-06-16,-36,-26,-32,,-23,16
NA,Namibia,Erongo Region,,,NA-ER,,2020-06-17,-43,-29,-32,,-25,18
NA,Namibia,Erongo Region,,,NA-ER,,2020-06-18,-39,-32,-36,,-25,19
NA,Namibia,Erongo Region,,,NA-ER,,2020-06-19,-46,-28,-41,,-24,19
NA,Namibia,Erongo Region,,,NA-ER,,2020-06-20,-48,-31,-39,,-9,
NA,Namibia,Erongo Region,,,NA-ER,,2020-06-21,-47,-36,-47,,-11,
NA,Namibia,Erongo Region,,,NA-ER,,2020-06-22,-39,-29,-34,,-25,19
NA,Namibia,Erongo Region,,,NA-ER,,2020-06-23,-24,-16,-40,,-16,14
NA,Namibia,Erongo Region,,,NA-ER,,2020-06-24,-26,-20,-33,,-17,13
NA,Namibia,Erongo Region,,,NA-ER,,2020-06-25,-11,1,-27,,-17,13
NA,Namibia,Erongo Region,,,NA-ER,,2020-06-26,-23,-6,-34,,-15,13
NA,Namibia,Erongo Region,,,NA-ER,,2020-06-27,-22,-13,-36,,-5,
NA,Namibia,Erongo Region,,,NA-ER,,2020-06-28,-25,-21,-44,,-5,
NA,Namibia,Erongo Region,,,NA-ER,,2020-06-29,-15,-6,-20,,-16,13
NA,Namibia,Erongo Region,,,NA-ER,,2020-06-30,-11,-3,-30,,-13,12
NA,Namibia,Erongo Region,,,NA-ER,,2020-07-01,-13,-2,-26,,-13,12
NA,Namibia,Erongo Region,,,NA-ER,,2020-07-02,-12,-1,-27,,-16,14
NA,Namibia,Erongo Region,,,NA-ER,,2020-07-03,-24,-7,-28,,-15,13
NA,Namibia,Erongo Region,,,NA-ER,,2020-07-04,-28,-18,-29,,-4,
NA,Namibia,Erongo Region,,,NA-ER,,2020-07-05,-32,-27,-30,,-10,
NA,Namibia,Erongo Region,,,NA-ER,,2020-07-06,-21,-12,-24,,-17,13
NA,Namibia,Erongo Region,,,NA-ER,,2020-07-07,-22,-15,-30,,-16,14
NA,Namibia,Erongo Region,,,NA-ER,,2020-07-08,-24,-18,-29,,-15,13
NA,Namibia,Erongo Region,,,NA-ER,,2020-07-09,-25,-14,-34,,-17,16
NA,Namibia,Erongo Region,,,NA-ER,,2020-07-10,-31,-16,-33,,-16,15
NA,Namibia,Erongo Region,,,NA-ER,,2020-07-11,-37,-26,-36,,-6,
NA,Namibia,Erongo Region,,,NA-ER,,2020-07-12,-40,-37,-35,,-15,
NA,Namibia,Erongo Region,,,NA-ER,,2020-07-13,-26,-17,-27,,-19,15
NA,Namibia,Erongo Region,,,NA-ER,,2020-07-14,-28,-27,-35,,-18,14
NA,Namibia,Erongo Region,,,NA-ER,,2020-07-15,-28,-23,-37,,-17,15
NA,Namibia,Erongo Region,,,NA-ER,,2020-07-16,-29,-25,-35,,-19,17
NA,Namibia,Erongo Region,,,NA-ER,,2020-07-17,-37,-26,-37,,-18,16
NA,Namibia,Erongo Region,,,NA-ER,,2020-07-18,-41,-35,-32,,-12,
NA,Namibia,Erongo Region,,,NA-ER,,2020-07-19,-43,-39,-42,,-14,
NA,Namibia,Erongo Region,,,NA-ER,,2020-07-20,-28,-20,-30,,-20,13
NA,Namibia,Erongo Region,,,NA-ER,,2020-07-21,-30,-26,-34,,-20,14
NA,Namibia,Erongo Region,,,NA-ER,,2020-07-22,-32,-26,-37,,-20,15
NA,Namibia,Erongo Region,,,NA-ER,,2020-07-23,-27,-21,-28,,-20,15
NA,Namibia,Erongo Region,,,NA-ER,,2020-07-24,-28,-9,-33,,-18,14
NA,Namibia,Erongo Region,,,NA-ER,,2020-07-25,-24,-17,-31,,-12,
NA,Namibia,Erongo Region,,,NA-ER,,2020-07-26,-24,-22,-33,,-13,
NA,Namibia,Erongo Region,,,NA-ER,,2020-07-27,-16,-10,-30,,-21,13
NA,Namibia,Erongo Region,,,NA-ER,,2020-07-28,-19,-15,-36,,-19,13
NA,Namibia,Erongo Region,,,NA-ER,,2020-07-29,-19,-14,-33,,-19,14
NA,Namibia,Erongo Region,,,NA-ER,,2020-07-30,-15,-7,-32,,-20,14
NA,Namibia,Erongo Region,,,NA-ER,,2020-07-31,-21,-3,-26,,-18,13
NA,Namibia,Erongo Region,,,NA-ER,,2020-08-01,-20,-9,-27,,-14,
NA,Namibia,Erongo Region,,,NA-ER,,2020-08-02,-22,-16,-27,,-18,
NA,Namibia,Erongo Region,,,NA-ER,,2020-08-03,-14,-1,-27,,-20,13
NA,Namibia,Erongo Region,,,NA-ER,,2020-08-04,-19,-11,-32,,-18,13
NA,Namibia,Erongo Region,,,NA-ER,,2020-08-05,-20,-12,-27,,-17,14
NA,Namibia,Erongo Region,,,NA-ER,,2020-08-06,-15,-11,-33,,-19,14
NA,Namibia,Erongo Region,,,NA-ER,,2020-08-07,-28,-17,-31,,-17,13
NA,Namibia,Erongo Region,,,NA-ER,,2020-08-08,-35,-26,-34,,-8,
NA,Namibia,Erongo Region,,,NA-ER,,2020-08-09,-36,-38,-34,,-17,
NA,Namibia,Erongo Region,,,NA-ER,,2020-08-10,-26,-19,-23,,-22,13
NA,Namibia,Erongo Region,,,NA-ER,,2020-08-11,-31,-27,-26,,-19,14
NA,Namibia,Erongo Region,,,NA-ER,,2020-08-12,-28,-19,-31,,-19,14
NA,Namibia,Erongo Region,,,NA-ER,,2020-08-13,-30,-20,-36,,-21,15
NA,Namibia,Erongo Region,,,NA-ER,,2020-08-14,-37,-22,-31,,-20,15
NA,Namibia,Erongo Region,,,NA-ER,,2020-08-15,-42,-31,-36,,-15,
NA,Namibia,Erongo Region,,,NA-ER,,2020-08-16,-42,-37,-34,,-20,
NA,Namibia,Erongo Region,,,NA-ER,,2020-08-17,,,,,-20,15
NA,Namibia,Erongo Region,,,NA-ER,,2020-08-18,,,,,-20,14
NA,Namibia,Erongo Region,,,NA-ER,,2020-08-19,,,,,-21,13
NA,Namibia,Erongo Region,,,NA-ER,,2020-08-20,,,,,-21,13
NA,Namibia,Erongo Region,,,NA-ER,,2020-08-21,,,,,-20,14
NA,Namibia,Erongo Region,,,NA-ER,,2020-08-22,,,,,-15,
NA,Namibia,Erongo Region,,,NA-ER,,2020-08-23,,,,,-20,
NA,Namibia,Erongo Region,,,NA-ER,,2020-08-24,,,,,-23,13
NA,Namibia,Erongo Region,,,NA-ER,,2020-08-25,,,,,-21,9
NA,Namibia,Erongo Region,,,NA-ER,,2020-08-26,,,,,-64,
NA,Namibia,Erongo Region,,,NA-ER,,2020-08-27,,,,,-22,11
NA,Namibia,Erongo Region,,,NA-ER,,2020-08-28,,,,,-23,12
NA,Namibia,Erongo Region,,,NA-ER,,2020-08-29,,,,,-13,
NA,Namibia,Erongo Region,,,NA-ER,,2020-08-30,,,,,-11,
NA,Namibia,Erongo Region,,,NA-ER,,2020-08-31,,,,,-19,8
NA,Namibia,Erongo Region,,,NA-ER,,2020-09-01,,,,,-20,9
NA,Namibia,Erongo Region,,,NA-ER,,2020-09-02,,,,,-19,8
NA,Namibia,Erongo Region,,,NA-ER,,2020-09-03,,,,,-20,8
NA,Namibia,Erongo Region,,,NA-ER,,2020-09-04,,,,,-22,9
NA,Namibia,Erongo Region,,,NA-ER,,2020-09-05,,,,,-16,
NA,Namibia,Erongo Region,,,NA-ER,,2020-09-06,,,,,-22,
NA,Namibia,Erongo Region,,,NA-ER,,2020-09-07,,,,,-23,10
NA,Namibia,Erongo Region,,,NA-ER,,2020-09-08,,,,,-22,8
NA,Namibia,Erongo Region,,,NA-ER,,2020-09-09,,,,,-22,8
NA,Namibia,Erongo Region,,,NA-ER,,2020-09-10,,,,,-23,7
NA,Namibia,Erongo Region,,,NA-ER,,2020-09-11,,,,,-23,8
NA,Namibia,Erongo Region,,,NA-ER,,2020-09-12,,,,,-21,
NA,Namibia,Erongo Region,,,NA-ER,,2020-09-13,,,,,-29,
NA,Namibia,Erongo Region,,,NA-ER,,2020-09-14,,,,,-20,7
NA,Namibia,Erongo Region,,,NA-ER,,2020-09-15,,,,,-20,7
NA,Namibia,Erongo Region,,,NA-ER,,2020-09-16,,,,,-21,8
NA,Namibia,Erongo Region,,,NA-ER,,2020-09-17,,,,,-21,8
NA,Namibia,Erongo Region,,,NA-ER,,2020-09-18,,,,,-19,6
NA,Namibia,Erongo Region,,,NA-ER,,2020-09-19,,,,,-20,
NA,Namibia,Erongo Region,,,NA-ER,,2020-09-20,,,,,-22,
NA,Namibia,Erongo Region,,,NA-ER,,2020-09-21,,,,,-21,7
NA,Namibia,Hardap Region,,,NA-HA,,2020-02-17,,,,,9,
NA,Namibia,Hardap Region,,,NA-HA,,2020-02-18,,,,,8,
NA,Namibia,Hardap Region,,,NA-HA,,2020-02-19,,,,,9,
NA,Namibia,Hardap Region,,,NA-HA,,2020-02-20,,,,,8,
NA,Namibia,Hardap Region,,,NA-HA,,2020-02-21,,,,,13,
NA,Namibia,Hardap Region,,,NA-HA,,2020-02-24,,,,,8,
NA,Namibia,Hardap Region,,,NA-HA,,2020-02-25,,,,,9,
NA,Namibia,Hardap Region,,,NA-HA,,2020-02-26,,,,,12,
NA,Namibia,Hardap Region,,,NA-HA,,2020-02-27,,,,,8,
NA,Namibia,Hardap Region,,,NA-HA,,2020-02-28,,,,,11,
NA,Namibia,Hardap Region,,,NA-HA,,2020-03-02,,,,,8,
NA,Namibia,Hardap Region,,,NA-HA,,2020-03-03,,,,,11,
NA,Namibia,Hardap Region,,,NA-HA,,2020-03-04,,,,,14,
NA,Namibia,Hardap Region,,,NA-HA,,2020-03-05,,,,,9,
NA,Namibia,Hardap Region,,,NA-HA,,2020-03-06,,,,,13,
NA,Namibia,Hardap Region,,,NA-HA,,2020-03-09,,,,,8,
NA,Namibia,Hardap Region,,,NA-HA,,2020-03-10,,,,,6,
NA,Namibia,Hardap Region,,,NA-HA,,2020-03-11,,,,,3,
NA,Namibia,Hardap Region,,,NA-HA,,2020-03-12,,,,,3,
NA,Namibia,Hardap Region,,,NA-HA,,2020-03-13,,,,,10,
NA,Namibia,Hardap Region,,,NA-HA,,2020-03-16,,,,,0,
NA,Namibia,Hardap Region,,,NA-HA,,2020-03-17,,,,,-9,
NA,Namibia,Hardap Region,,,NA-HA,,2020-03-18,,,,,-8,
NA,Namibia,Hardap Region,,,NA-HA,,2020-03-19,,,,,-9,
NA,Namibia,Hardap Region,,,NA-HA,,2020-03-20,,,,,-8,
NA,Namibia,Hardap Region,,,NA-HA,,2020-03-23,,,,,-11,
NA,Namibia,Hardap Region,,,NA-HA,,2020-03-24,,,,,-12,
NA,Namibia,Hardap Region,,,NA-HA,,2020-03-25,,,,,-8,
NA,Namibia,Hardap Region,,,NA-HA,,2020-03-26,,,,,-20,
NA,Namibia,Hardap Region,,,NA-HA,,2020-03-27,,,,,-18,
NA,Namibia,Hardap Region,,,NA-HA,,2020-03-30,,,,,-50,
NA,Namibia,Hardap Region,,,NA-HA,,2020-03-31,,,,,-45,
NA,Namibia,Hardap Region,,,NA-HA,,2020-04-01,,,,,-47,
NA,Namibia,Hardap Region,,,NA-HA,,2020-04-02,,,,,-52,
NA,Namibia,Hardap Region,,,NA-HA,,2020-04-03,,,,,-50,
NA,Namibia,Hardap Region,,,NA-HA,,2020-04-06,,,,,-48,
NA,Namibia,Hardap Region,,,NA-HA,,2020-04-07,,,,,-50,
NA,Namibia,Hardap Region,,,NA-HA,,2020-04-08,,,,,-52,
NA,Namibia,Hardap Region,,,NA-HA,,2020-04-09,,,,,-53,
NA,Namibia,Hardap Region,,,NA-HA,,2020-04-10,,,,,-76,
NA,Namibia,Hardap Region,,,NA-HA,,2020-04-13,,,,,-77,
NA,Namibia,Hardap Region,,,NA-HA,,2020-04-14,,,,,-50,
NA,Namibia,Hardap Region,,,NA-HA,,2020-04-15,,,,,-47,
NA,Namibia,Hardap Region,,,NA-HA,,2020-04-16,,,,,-47,
NA,Namibia,Hardap Region,,,NA-HA,,2020-04-17,,,,,-44,
NA,Namibia,Hardap Region,,,NA-HA,,2020-04-20,,,,,-41,
NA,Namibia,Hardap Region,,,NA-HA,,2020-04-21,,,,,-39,
NA,Namibia,Hardap Region,,,NA-HA,,2020-04-22,,,,,-41,
NA,Namibia,Hardap Region,,,NA-HA,,2020-04-23,,,,,-46,
NA,Namibia,Hardap Region,,,NA-HA,,2020-04-24,,,,,-42,
NA,Namibia,Hardap Region,,,NA-HA,,2020-04-27,,,,,-43,
NA,Namibia,Hardap Region,,,NA-HA,,2020-04-28,,,,,-40,
NA,Namibia,Hardap Region,,,NA-HA,,2020-04-29,,,,,-37,
NA,Namibia,Hardap Region,,,NA-HA,,2020-04-30,,,,,-34,
NA,Namibia,Hardap Region,,,NA-HA,,2020-05-01,,,,,-67,
NA,Namibia,Hardap Region,,,NA-HA,,2020-05-04,,,,,-68,
NA,Namibia,Hardap Region,,,NA-HA,,2020-05-05,,,,,-15,
NA,Namibia,Hardap Region,,,NA-HA,,2020-05-06,,,,,-3,
NA,Namibia,Hardap Region,,,NA-HA,,2020-05-07,,,,,-10,
NA,Namibia,Hardap Region,,,NA-HA,,2020-05-08,,,,,-1,
NA,Namibia,Hardap Region,,,NA-HA,,2020-05-11,,,,,-3,
NA,Namibia,Hardap Region,,,NA-HA,,2020-05-12,,,,,-2,
NA,Namibia,Hardap Region,,,NA-HA,,2020-05-13,,,,,-5,
NA,Namibia,Hardap Region,,,NA-HA,,2020-05-14,,,,,-7,
NA,Namibia,Hardap Region,,,NA-HA,,2020-05-15,,,,,-4,
NA,Namibia,Hardap Region,,,NA-HA,,2020-05-18,,,,,-4,
NA,Namibia,Hardap Region,,,NA-HA,,2020-05-19,,,,,-2,
NA,Namibia,Hardap Region,,,NA-HA,,2020-05-20,,,,,-2,
NA,Namibia,Hardap Region,,,NA-HA,,2020-05-21,,,,,-64,
NA,Namibia,Hardap Region,,,NA-HA,,2020-05-22,,,,,-24,
NA,Namibia,Hardap Region,,,NA-HA,,2020-05-25,,,,,-65,
NA,Namibia,Hardap Region,,,NA-HA,,2020-05-26,,,,,-4,
NA,Namibia,Hardap Region,,,NA-HA,,2020-05-27,,,,,-6,
NA,Namibia,Hardap Region,,,NA-HA,,2020-05-28,,,,,-11,
NA,Namibia,Hardap Region,,,NA-HA,,2020-05-29,,,,,-3,
NA,Namibia,Hardap Region,,,NA-HA,,2020-06-01,,,,,7,
NA,Namibia,Hardap Region,,,NA-HA,,2020-06-02,,,,,5,
NA,Namibia,Hardap Region,,,NA-HA,,2020-06-03,,,,,5,
NA,Namibia,Hardap Region,,,NA-HA,,2020-06-04,,,,,3,
NA,Namibia,Hardap Region,,,NA-HA,,2020-06-05,,,,,6,
NA,Namibia,Hardap Region,,,NA-HA,,2020-06-08,,,,,5,
NA,Namibia,Hardap Region,,,NA-HA,,2020-06-09,,,,,5,
NA,Namibia,Hardap Region,,,NA-HA,,2020-06-10,,,,,6,
NA,Namibia,Hardap Region,,,NA-HA,,2020-06-11,,,,,5,
NA,Namibia,Hardap Region,,,NA-HA,,2020-06-12,,,,,8,
NA,Namibia,Hardap Region,,,NA-HA,,2020-06-15,,,,,-1,
NA,Namibia,Hardap Region,,,NA-HA,,2020-06-16,,,,,2,
NA,Namibia,Hardap Region,,,NA-HA,,2020-06-17,,,,,6,
NA,Namibia,Hardap Region,,,NA-HA,,2020-06-18,,,,,4,
NA,Namibia,Hardap Region,,,NA-HA,,2020-06-19,,,,,7,
NA,Namibia,Hardap Region,,,NA-HA,,2020-06-22,,,,,5,
NA,Namibia,Hardap Region,,,NA-HA,,2020-06-23,,,,,3,
NA,Namibia,Hardap Region,,,NA-HA,,2020-06-24,,,,,4,
NA,Namibia,Hardap Region,,,NA-HA,,2020-06-25,,,,,1,
NA,Namibia,Hardap Region,,,NA-HA,,2020-06-26,,,,,4,
NA,Namibia,Hardap Region,,,NA-HA,,2020-06-29,,,,,-1,
NA,Namibia,Hardap Region,,,NA-HA,,2020-06-30,,,,,-1,
NA,Namibia,Hardap Region,,,NA-HA,,2020-07-01,,,,,2,
NA,Namibia,Hardap Region,,,NA-HA,,2020-07-02,,,,,-2,
NA,Namibia,Hardap Region,,,NA-HA,,2020-07-03,,,,,3,
NA,Namibia,Hardap Region,,,NA-HA,,2020-07-06,,,,,-3,
NA,Namibia,Hardap Region,,,NA-HA,,2020-07-07,,,,,-1,
NA,Namibia,Hardap Region,,,NA-HA,,2020-07-08,,,,,2,
NA,Namibia,Hardap Region,,,NA-HA,,2020-07-09,,,,,-5,
NA,Namibia,Hardap Region,,,NA-HA,,2020-07-10,,,,,-2,
NA,Namibia,Hardap Region,,,NA-HA,,2020-07-13,,,,,-3,
NA,Namibia,Hardap Region,,,NA-HA,,2020-07-14,,,,,-7,
NA,Namibia,Hardap Region,,,NA-HA,,2020-07-15,,,,,-8,
NA,Namibia,Hardap Region,,,NA-HA,,2020-07-16,,,,,-8,
NA,Namibia,Hardap Region,,,NA-HA,,2020-07-17,,,,,2,
NA,Namibia,Hardap Region,,,NA-HA,,2020-07-20,,,,,0,
NA,Namibia,Hardap Region,,,NA-HA,,2020-07-21,,,,,-5,
NA,Namibia,Hardap Region,,,NA-HA,,2020-07-22,,,,,1,
NA,Namibia,Hardap Region,,,NA-HA,,2020-07-23,,,,,-1,
NA,Namibia,Hardap Region,,,NA-HA,,2020-07-24,,,,,3,
NA,Namibia,Hardap Region,,,NA-HA,,2020-07-27,,,,,-8,
NA,Namibia,Hardap Region,,,NA-HA,,2020-07-28,,,,,-4,
NA,Namibia,Hardap Region,,,NA-HA,,2020-07-29,,,,,-3,
NA,Namibia,Hardap Region,,,NA-HA,,2020-07-30,,,,,-6,
NA,Namibia,Hardap Region,,,NA-HA,,2020-07-31,,,,,2,
NA,Namibia,Hardap Region,,,NA-HA,,2020-08-03,,,,,-8,
NA,Namibia,Hardap Region,,,NA-HA,,2020-08-04,,,,,-6,
NA,Namibia,Hardap Region,,,NA-HA,,2020-08-05,,,,,-9,
NA,Namibia,Hardap Region,,,NA-HA,,2020-08-06,,,,,-9,
NA,Namibia,Hardap Region,,,NA-HA,,2020-08-07,,,,,-6,
NA,Namibia,Hardap Region,,,NA-HA,,2020-08-10,,,,,-8,
NA,Namibia,Hardap Region,,,NA-HA,,2020-08-11,,,,,-7,
NA,Namibia,Hardap Region,,,NA-HA,,2020-08-12,,,,,-5,
NA,Namibia,Hardap Region,,,NA-HA,,2020-08-13,,,,,-13,
NA,Namibia,Hardap Region,,,NA-HA,,2020-08-14,,,,,-7,
NA,Namibia,Hardap Region,,,NA-HA,,2020-08-17,,,,,-12,
NA,Namibia,Hardap Region,,,NA-HA,,2020-08-18,,,,,-16,
NA,Namibia,Hardap Region,,,NA-HA,,2020-08-19,,,,,-15,
NA,Namibia,Hardap Region,,,NA-HA,,2020-08-20,,,,,-14,
NA,Namibia,Hardap Region,,,NA-HA,,2020-08-21,,,,,-11,
NA,Namibia,Hardap Region,,,NA-HA,,2020-08-24,,,,,-26,
NA,Namibia,Hardap Region,,,NA-HA,,2020-08-25,,,,,-26,
NA,Namibia,Hardap Region,,,NA-HA,,2020-08-26,,,,,-68,
NA,Namibia,Hardap Region,,,NA-HA,,2020-08-27,,,,,-23,
NA,Namibia,Hardap Region,,,NA-HA,,2020-08-28,,,,,-22,
NA,Namibia,Hardap Region,,,NA-HA,,2020-08-31,,,,,-9,
NA,Namibia,Hardap Region,,,NA-HA,,2020-09-01,,,,,-16,
NA,Namibia,Hardap Region,,,NA-HA,,2020-09-02,,,,,-14,
NA,Namibia,Hardap Region,,,NA-HA,,2020-09-03,,,,,-14,
NA,Namibia,Hardap Region,,,NA-HA,,2020-09-04,,,,,-12,
NA,Namibia,Hardap Region,,,NA-HA,,2020-09-07,,,,,-11,
NA,Namibia,Hardap Region,,,NA-HA,,2020-09-08,,,,,-14,
NA,Namibia,Hardap Region,,,NA-HA,,2020-09-09,,,,,-9,
NA,Namibia,Hardap Region,,,NA-HA,,2020-09-10,,,,,-17,
NA,Namibia,Hardap Region,,,NA-HA,,2020-09-11,,,,,-13,
NA,Namibia,Hardap Region,,,NA-HA,,2020-09-14,,,,,-17,
NA,Namibia,Hardap Region,,,NA-HA,,2020-09-15,,,,,-17,
NA,Namibia,Hardap Region,,,NA-HA,,2020-09-16,,,,,-13,
NA,Namibia,Hardap Region,,,NA-HA,,2020-09-17,,,,,-16,
NA,Namibia,Hardap Region,,,NA-HA,,2020-09-18,,,,,-7,
NA,Namibia,Hardap Region,,,NA-HA,,2020-09-21,,,,,-15,
NA,Namibia,Karas Region,,,NA-KA,,2020-02-17,,,,,5,
NA,Namibia,Karas Region,,,NA-KA,,2020-02-18,,,,,6,
NA,Namibia,Karas Region,,,NA-KA,,2020-02-19,,,,,6,
NA,Namibia,Karas Region,,,NA-KA,,2020-02-20,,,,,6,
NA,Namibia,Karas Region,,,NA-KA,,2020-02-21,,,,,8,
NA,Namibia,Karas Region,,,NA-KA,,2020-02-24,,,,,2,
NA,Namibia,Karas Region,,,NA-KA,,2020-02-25,,,,,6,
NA,Namibia,Karas Region,,,NA-KA,,2020-02-26,,,,,7,
NA,Namibia,Karas Region,,,NA-KA,,2020-02-27,,,,,6,
NA,Namibia,Karas Region,,,NA-KA,,2020-02-28,,,,,6,
NA,Namibia,Karas Region,,,NA-KA,,2020-03-02,,,,,6,
NA,Namibia,Karas Region,,,NA-KA,,2020-03-03,,,,,10,
NA,Namibia,Karas Region,,,NA-KA,,2020-03-04,,,,,4,
NA,Namibia,Karas Region,,,NA-KA,,2020-03-05,,,,,12,
NA,Namibia,Karas Region,,,NA-KA,,2020-03-06,,,,,9,
NA,Namibia,Karas Region,,,NA-KA,,2020-03-09,,,,,3,
NA,Namibia,Karas Region,,,NA-KA,,2020-03-10,,,,,4,
NA,Namibia,Karas Region,,,NA-KA,,2020-03-11,,,,,-1,
NA,Namibia,Karas Region,,,NA-KA,,2020-03-12,,,,,9,
NA,Namibia,Karas Region,,,NA-KA,,2020-03-13,,,,,-1,
NA,Namibia,Karas Region,,,NA-KA,,2020-03-16,,,,,-7,
NA,Namibia,Karas Region,,,NA-KA,,2020-03-17,,,,,-12,
NA,Namibia,Karas Region,,,NA-KA,,2020-03-18,,,,,-15,
NA,Namibia,Karas Region,,,NA-KA,,2020-03-19,,,,,-10,
NA,Namibia,Karas Region,,,NA-KA,,2020-03-20,,,,,-14,
NA,Namibia,Karas Region,,,NA-KA,,2020-03-21,,,,,-14,
NA,Namibia,Karas Region,,,NA-KA,,2020-03-23,,,,,-12,
NA,Namibia,Karas Region,,,NA-KA,,2020-03-24,,,,,-10,
NA,Namibia,Karas Region,,,NA-KA,,2020-03-25,,,,,-11,
NA,Namibia,Karas Region,,,NA-KA,,2020-03-26,,,,,-12,
NA,Namibia,Karas Region,,,NA-KA,,2020-03-27,,,,,-15,
NA,Namibia,Karas Region,,,NA-KA,,2020-03-28,,,,,-11,
NA,Namibia,Karas Region,,,NA-KA,,2020-03-30,,,,,-20,
NA,Namibia,Karas Region,,,NA-KA,,2020-03-31,,,,,-20,
NA,Namibia,Karas Region,,,NA-KA,,2020-04-01,,,,,-26,
NA,Namibia,Karas Region,,,NA-KA,,2020-04-02,,,,,-27,
NA,Namibia,Karas Region,,,NA-KA,,2020-04-03,,,,,-29,
NA,Namibia,Karas Region,,,NA-KA,,2020-04-04,,,,,-20,
NA,Namibia,Karas Region,,,NA-KA,,2020-04-06,,,,,-32,
NA,Namibia,Karas Region,,,NA-KA,,2020-04-07,,,,,-32,
NA,Namibia,Karas Region,,,NA-KA,,2020-04-08,,,,,-36,
NA,Namibia,Karas Region,,,NA-KA,,2020-04-09,,,,,-33,
NA,Namibia,Karas Region,,,NA-KA,,2020-04-10,,,,,-72,
NA,Namibia,Karas Region,,,NA-KA,,2020-04-11,,,,,-23,
NA,Namibia,Karas Region,,,NA-KA,,2020-04-13,,,,,-70,
NA,Namibia,Karas Region,,,NA-KA,,2020-04-14,,,,,-31,
NA,Namibia,Karas Region,,,NA-KA,,2020-04-15,,,,,-28,
NA,Namibia,Karas Region,,,NA-KA,,2020-04-16,,,,,-23,
NA,Namibia,Karas Region,,,NA-KA,,2020-04-17,,,,,-24,
NA,Namibia,Karas Region,,,NA-KA,,2020-04-18,,,,,-27,
NA,Namibia,Karas Region,,,NA-KA,,2020-04-20,,,,,-35,
NA,Namibia,Karas Region,,,NA-KA,,2020-04-21,,,,,-33,
NA,Namibia,Karas Region,,,NA-KA,,2020-04-22,,,,,-30,
NA,Namibia,Karas Region,,,NA-KA,,2020-04-23,,,,,-33,
NA,Namibia,Karas Region,,,NA-KA,,2020-04-24,,,,,-34,
NA,Namibia,Karas Region,,,NA-KA,,2020-04-25,,,,,-18,
NA,Namibia,Karas Region,,,NA-KA,,2020-04-27,,,,,-32,
NA,Namibia,Karas Region,,,NA-KA,,2020-04-28,,,,,-28,
NA,Namibia,Karas Region,,,NA-KA,,2020-04-29,,,,,-30,
NA,Namibia,Karas Region,,,NA-KA,,2020-04-30,,,,,-24,
NA,Namibia,Karas Region,,,NA-KA,,2020-05-01,,,,,-62,
NA,Namibia,Karas Region,,,NA-KA,,2020-05-02,,,,,-14,
NA,Namibia,Karas Region,,,NA-KA,,2020-05-04,,,,,-66,
NA,Namibia,Karas Region,,,NA-KA,,2020-05-05,,,,,-21,
NA,Namibia,Karas Region,,,NA-KA,,2020-05-06,,,,,-18,
NA,Namibia,Karas Region,,,NA-KA,,2020-05-07,,,,,-15,
NA,Namibia,Karas Region,,,NA-KA,,2020-05-08,,,,,-18,
NA,Namibia,Karas Region,,,NA-KA,,2020-05-09,,,,,-6,
NA,Namibia,Karas Region,,,NA-KA,,2020-05-11,,,,,-15,
NA,Namibia,Karas Region,,,NA-KA,,2020-05-12,,,,,-17,
NA,Namibia,Karas Region,,,NA-KA,,2020-05-13,,,,,-12,
NA,Namibia,Karas Region,,,NA-KA,,2020-05-14,,,,,-11,
NA,Namibia,Karas Region,,,NA-KA,,2020-05-15,,,,,-15,
NA,Namibia,Karas Region,,,NA-KA,,2020-05-16,,,,,-7,
NA,Namibia,Karas Region,,,NA-KA,,2020-05-18,,,,,-13,
NA,Namibia,Karas Region,,,NA-KA,,2020-05-19,,,,,-14,
NA,Namibia,Karas Region,,,NA-KA,,2020-05-20,,,,,-15,
NA,Namibia,Karas Region,,,NA-KA,,2020-05-21,,,,,-65,
NA,Namibia,Karas Region,,,NA-KA,,2020-05-22,,,,,-26,
NA,Namibia,Karas Region,,,NA-KA,,2020-05-23,,,,,-11,
NA,Namibia,Karas Region,,,NA-KA,,2020-05-25,,,,,-67,
NA,Namibia,Karas Region,,,NA-KA,,2020-05-26,,,,,-19,
NA,Namibia,Karas Region,,,NA-KA,,2020-05-27,,,,,-21,
NA,Namibia,Karas Region,,,NA-KA,,2020-05-28,,,,,-17,
NA,Namibia,Karas Region,,,NA-KA,,2020-05-29,,,,,-16,
NA,Namibia,Karas Region,,,NA-KA,,2020-05-30,,,,,-2,
NA,Namibia,Karas Region,,,NA-KA,,2020-06-01,,,,,-12,
NA,Namibia,Karas Region,,,NA-KA,,2020-06-02,,,,,-7,
NA,Namibia,Karas Region,,,NA-KA,,2020-06-03,,,,,-12,
NA,Namibia,Karas Region,,,NA-KA,,2020-06-04,,,,,-9,
NA,Namibia,Karas Region,,,NA-KA,,2020-06-05,,,,,-13,
NA,Namibia,Karas Region,,,NA-KA,,2020-06-06,,,,,-7,
NA,Namibia,Karas Region,,,NA-KA,,2020-06-08,,,,,-12,
NA,Namibia,Karas Region,,,NA-KA,,2020-06-09,,,,,-10,
NA,Namibia,Karas Region,,,NA-KA,,2020-06-10,,,,,-11,
NA,Namibia,Karas Region,,,NA-KA,,2020-06-11,,,,,-11,
NA,Namibia,Karas Region,,,NA-KA,,2020-06-12,,,,,-12,
NA,Namibia,Karas Region,,,NA-KA,,2020-06-13,,,,,-8,
NA,Namibia,Karas Region,,,NA-KA,,2020-06-15,,,,,-10,
NA,Namibia,Karas Region,,,NA-KA,,2020-06-16,,,,,-9,
NA,Namibia,Karas Region,,,NA-KA,,2020-06-17,,,,,-14,
NA,Namibia,Karas Region,,,NA-KA,,2020-06-18,,,,,-13,
NA,Namibia,Karas Region,,,NA-KA,,2020-06-19,,,,,-10,
NA,Namibia,Karas Region,,,NA-KA,,2020-06-22,,,,,-9,
NA,Namibia,Karas Region,,,NA-KA,,2020-06-23,,,,,-8,
NA,Namibia,Karas Region,,,NA-KA,,2020-06-24,,,,,-8,
NA,Namibia,Karas Region,,,NA-KA,,2020-06-25,,,,,-13,
NA,Namibia,Karas Region,,,NA-KA,,2020-06-26,,,,,-13,
NA,Namibia,Karas Region,,,NA-KA,,2020-06-27,,,,,-3,
NA,Namibia,Karas Region,,,NA-KA,,2020-06-29,,,,,-11,
NA,Namibia,Karas Region,,,NA-KA,,2020-06-30,,,,,-7,
NA,Namibia,Karas Region,,,NA-KA,,2020-07-01,,,,,-9,
NA,Namibia,Karas Region,,,NA-KA,,2020-07-02,,,,,-7,
NA,Namibia,Karas Region,,,NA-KA,,2020-07-03,,,,,-14,
NA,Namibia,Karas Region,,,NA-KA,,2020-07-04,,,,,-6,
NA,Namibia,Karas Region,,,NA-KA,,2020-07-06,,,,,-14,
NA,Namibia,Karas Region,,,NA-KA,,2020-07-07,,,,,-10,
NA,Namibia,Karas Region,,,NA-KA,,2020-07-08,,,,,-12,
NA,Namibia,Karas Region,,,NA-KA,,2020-07-09,,,,,-9,
NA,Namibia,Karas Region,,,NA-KA,,2020-07-10,,,,,-14,
NA,Namibia,Karas Region,,,NA-KA,,2020-07-11,,,,,-12,
NA,Namibia,Karas Region,,,NA-KA,,2020-07-13,,,,,-11,
NA,Namibia,Karas Region,,,NA-KA,,2020-07-14,,,,,-9,
NA,Namibia,Karas Region,,,NA-KA,,2020-07-15,,,,,-13,
NA,Namibia,Karas Region,,,NA-KA,,2020-07-16,,,,,-10,
NA,Namibia,Karas Region,,,NA-KA,,2020-07-17,,,,,-12,
NA,Namibia,Karas Region,,,NA-KA,,2020-07-18,,,,,-1,
NA,Namibia,Karas Region,,,NA-KA,,2020-07-20,,,,,-13,
NA,Namibia,Karas Region,,,NA-KA,,2020-07-21,,,,,-10,
NA,Namibia,Karas Region,,,NA-KA,,2020-07-22,,,,,-11,
NA,Namibia,Karas Region,,,NA-KA,,2020-07-23,,,,,-13,
NA,Namibia,Karas Region,,,NA-KA,,2020-07-24,,,,,-14,
NA,Namibia,Karas Region,,,NA-KA,,2020-07-25,,,,,-11,
NA,Namibia,Karas Region,,,NA-KA,,2020-07-27,,,,,-16,
NA,Namibia,Karas Region,,,NA-KA,,2020-07-28,,,,,-17,
NA,Namibia,Karas Region,,,NA-KA,,2020-07-29,,,,,-19,
NA,Namibia,Karas Region,,,NA-KA,,2020-07-30,,,,,-15,
NA,Namibia,Karas Region,,,NA-KA,,2020-07-31,,,,,-14,
NA,Namibia,Karas Region,,,NA-KA,,2020-08-01,,,,,-12,
NA,Namibia,Karas Region,,,NA-KA,,2020-08-03,,,,,-14,
NA,Namibia,Karas Region,,,NA-KA,,2020-08-04,,,,,-13,
NA,Namibia,Karas Region,,,NA-KA,,2020-08-05,,,,,-15,
NA,Namibia,Karas Region,,,NA-KA,,2020-08-06,,,,,-19,
NA,Namibia,Karas Region,,,NA-KA,,2020-08-07,,,,,-16,
NA,Namibia,Karas Region,,,NA-KA,,2020-08-08,,,,,-5,
NA,Namibia,Karas Region,,,NA-KA,,2020-08-10,,,,,-17,
NA,Namibia,Karas Region,,,NA-KA,,2020-08-11,,,,,-16,
NA,Namibia,Karas Region,,,NA-KA,,2020-08-12,,,,,-18,
NA,Namibia,Karas Region,,,NA-KA,,2020-08-13,,,,,-14,
NA,Namibia,Karas Region,,,NA-KA,,2020-08-14,,,,,-14,
NA,Namibia,Karas Region,,,NA-KA,,2020-08-15,,,,,-7,
NA,Namibia,Karas Region,,,NA-KA,,2020-08-17,,,,,-20,
NA,Namibia,Karas Region,,,NA-KA,,2020-08-18,,,,,-17,
NA,Namibia,Karas Region,,,NA-KA,,2020-08-19,,,,,-18,
NA,Namibia,Karas Region,,,NA-KA,,2020-08-20,,,,,-17,
NA,Namibia,Karas Region,,,NA-KA,,2020-08-21,,,,,-17,
NA,Namibia,Karas Region,,,NA-KA,,2020-08-22,,,,,-6,
NA,Namibia,Karas Region,,,NA-KA,,2020-08-24,,,,,-23,
NA,Namibia,Karas Region,,,NA-KA,,2020-08-25,,,,,-19,
NA,Namibia,Karas Region,,,NA-KA,,2020-08-26,,,,,-59,
NA,Namibia,Karas Region,,,NA-KA,,2020-08-27,,,,,-23,
NA,Namibia,Karas Region,,,NA-KA,,2020-08-28,,,,,-29,
NA,Namibia,Karas Region,,,NA-KA,,2020-08-29,,,,,-14,
NA,Namibia,Karas Region,,,NA-KA,,2020-08-31,,,,,-18,
NA,Namibia,Karas Region,,,NA-KA,,2020-09-01,,,,,-22,
NA,Namibia,Karas Region,,,NA-KA,,2020-09-02,,,,,-20,
NA,Namibia,Karas Region,,,NA-KA,,2020-09-03,,,,,-19,
NA,Namibia,Karas Region,,,NA-KA,,2020-09-04,,,,,-20,
NA,Namibia,Karas Region,,,NA-KA,,2020-09-05,,,,,-15,
NA,Namibia,Karas Region,,,NA-KA,,2020-09-07,,,,,-20,
NA,Namibia,Karas Region,,,NA-KA,,2020-09-08,,,,,-18,
NA,Namibia,Karas Region,,,NA-KA,,2020-09-09,,,,,-22,
NA,Namibia,Karas Region,,,NA-KA,,2020-09-10,,,,,-21,
NA,Namibia,Karas Region,,,NA-KA,,2020-09-11,,,,,-18,
NA,Namibia,Karas Region,,,NA-KA,,2020-09-12,,,,,-9,
NA,Namibia,Karas Region,,,NA-KA,,2020-09-14,,,,,-20,
NA,Namibia,Karas Region,,,NA-KA,,2020-09-15,,,,,-20,
NA,Namibia,Karas Region,,,NA-KA,,2020-09-16,,,,,-21,
NA,Namibia,Karas Region,,,NA-KA,,2020-09-17,,,,,-21,
NA,Namibia,Karas Region,,,NA-KA,,2020-09-18,,,,,-20,
NA,Namibia,Karas Region,,,NA-KA,,2020-09-19,,,,,-17,
NA,Namibia,Karas Region,,,NA-KA,,2020-09-21,,,,,-23,
NA,Namibia,Kavango Region,,,NA-OK,,2020-02-17,,,,,10,
NA,Namibia,Kavango Region,,,NA-OK,,2020-02-18,,,,,14,
NA,Namibia,Kavango Region,,,NA-OK,,2020-02-19,,,,,10,
NA,Namibia,Kavango Region,,,NA-OK,,2020-02-20,,,,,14,
NA,Namibia,Kavango Region,,,NA-OK,,2020-02-21,,,,,20,
NA,Namibia,Kavango Region,,,NA-OK,,2020-02-24,,,,,12,
NA,Namibia,Kavango Region,,,NA-OK,,2020-02-25,,,,,11,
NA,Namibia,Kavango Region,,,NA-OK,,2020-02-26,,,,,12,
NA,Namibia,Kavango Region,,,NA-OK,,2020-02-27,,,,,12,
NA,Namibia,Kavango Region,,,NA-OK,,2020-02-28,,,,,27,
NA,Namibia,Kavango Region,,,NA-OK,,2020-03-02,,,,,19,
NA,Namibia,Kavango Region,,,NA-OK,,2020-03-03,,,,,18,
NA,Namibia,Kavango Region,,,NA-OK,,2020-03-04,,,,,24,
NA,Namibia,Kavango Region,,,NA-OK,,2020-03-05,,,,,21,
NA,Namibia,Kavango Region,,,NA-OK,,2020-03-06,,,,,24,
NA,Namibia,Kavango Region,,,NA-OK,,2020-03-09,,,,,19,
NA,Namibia,Kavango Region,,,NA-OK,,2020-03-10,,,,,19,
NA,Namibia,Kavango Region,,,NA-OK,,2020-03-11,,,,,16,
NA,Namibia,Kavango Region,,,NA-OK,,2020-03-12,,,,,23,
NA,Namibia,Kavango Region,,,NA-OK,,2020-03-13,,,,,29,
NA,Namibia,Kavango Region,,,NA-OK,,2020-03-16,,,,,-12,
NA,Namibia,Kavango Region,,,NA-OK,,2020-03-17,,,,,-19,
NA,Namibia,Kavango Region,,,NA-OK,,2020-03-18,,,,,-21,
NA,Namibia,Kavango Region,,,NA-OK,,2020-03-19,,,,,-18,
NA,Namibia,Kavango Region,,,NA-OK,,2020-03-20,,,,,-12,
NA,Namibia,Kavango Region,,,NA-OK,,2020-03-23,,,,,-20,
NA,Namibia,Kavango Region,,,NA-OK,,2020-03-24,,,,,-25,
NA,Namibia,Kavango Region,,,NA-OK,,2020-03-25,,,,,-19,
NA,Namibia,Kavango Region,,,NA-OK,,2020-03-26,,,,,-25,
NA,Namibia,Kavango Region,,,NA-OK,,2020-03-27,,,,,-16,
NA,Namibia,Kavango Region,,,NA-OK,,2020-03-30,,,,,-36,
NA,Namibia,Kavango Region,,,NA-OK,,2020-03-31,,,,,-33,
NA,Namibia,Kavango Region,,,NA-OK,,2020-04-01,,,,,-43,
NA,Namibia,Kavango Region,,,NA-OK,,2020-04-02,,,,,-41,
NA,Namibia,Kavango Region,,,NA-OK,,2020-04-03,,,,,-39,
NA,Namibia,Kavango Region,,,NA-OK,,2020-04-06,,,,,-39,
NA,Namibia,Kavango Region,,,NA-OK,,2020-04-07,,,,,-40,
NA,Namibia,Kavango Region,,,NA-OK,,2020-04-08,,,,,-52,
NA,Namibia,Kavango Region,,,NA-OK,,2020-04-09,,,,,-41,
NA,Namibia,Kavango Region,,,NA-OK,,2020-04-10,,,,,-71,
NA,Namibia,Kavango Region,,,NA-OK,,2020-04-13,,,,,-69,
NA,Namibia,Kavango Region,,,NA-OK,,2020-04-14,,,,,-39,
NA,Namibia,Kavango Region,,,NA-OK,,2020-04-15,,,,,-40,
NA,Namibia,Kavango Region,,,NA-OK,,2020-04-16,,,,,-38,
NA,Namibia,Kavango Region,,,NA-OK,,2020-04-17,,,,,-33,
NA,Namibia,Kavango Region,,,NA-OK,,2020-04-20,,,,,-35,
NA,Namibia,Kavango Region,,,NA-OK,,2020-04-21,,,,,-34,
NA,Namibia,Kavango Region,,,NA-OK,,2020-04-22,,,,,-30,
NA,Namibia,Kavango Region,,,NA-OK,,2020-04-23,,,,,-37,
NA,Namibia,Kavango Region,,,NA-OK,,2020-04-24,,,,,-28,
NA,Namibia,Kavango Region,,,NA-OK,,2020-04-27,,,,,-31,
NA,Namibia,Kavango Region,,,NA-OK,,2020-04-28,,,,,-32,
NA,Namibia,Kavango Region,,,NA-OK,,2020-04-29,,,,,-31,
NA,Namibia,Kavango Region,,,NA-OK,,2020-04-30,,,,,-26,
NA,Namibia,Kavango Region,,,NA-OK,,2020-05-01,,,,,-45,
NA,Namibia,Kavango Region,,,NA-OK,,2020-05-04,,,,,-64,
NA,Namibia,Kavango Region,,,NA-OK,,2020-05-05,,,,,-14,
NA,Namibia,Kavango Region,,,NA-OK,,2020-05-06,,,,,-16,
NA,Namibia,Kavango Region,,,NA-OK,,2020-05-07,,,,,-15,
NA,Namibia,Kavango Region,,,NA-OK,,2020-05-08,,,,,-1,
NA,Namibia,Kavango Region,,,NA-OK,,2020-05-11,,,,,1,
NA,Namibia,Kavango Region,,,NA-OK,,2020-05-12,,,,,-1,
NA,Namibia,Kavango Region,,,NA-OK,,2020-05-13,,,,,-3,
NA,Namibia,Kavango Region,,,NA-OK,,2020-05-14,,,,,-1,
NA,Namibia,Kavango Region,,,NA-OK,,2020-05-15,,,,,17,
NA,Namibia,Kavango Region,,,NA-OK,,2020-05-18,,,,,5,
NA,Namibia,Kavango Region,,,NA-OK,,2020-05-19,,,,,2,
NA,Namibia,Kavango Region,,,NA-OK,,2020-05-20,,,,,1,
NA,Namibia,Kavango Region,,,NA-OK,,2020-05-21,,,,,-50,
NA,Namibia,Kavango Region,,,NA-OK,,2020-05-22,,,,,-12,
NA,Namibia,Kavango Region,,,NA-OK,,2020-05-25,,,,,-58,
NA,Namibia,Kavango Region,,,NA-OK,,2020-05-26,,,,,-9,
NA,Namibia,Kavango Region,,,NA-OK,,2020-05-27,,,,,-13,
NA,Namibia,Kavango Region,,,NA-OK,,2020-05-28,,,,,-13,
NA,Namibia,Kavango Region,,,NA-OK,,2020-05-29,,,,,2,
NA,Namibia,Kavango Region,,,NA-OK,,2020-06-01,,,,,2,
NA,Namibia,Kavango Region,,,NA-OK,,2020-06-02,,,,,4,
NA,Namibia,Kavango Region,,,NA-OK,,2020-06-03,,,,,4,
NA,Namibia,Kavango Region,,,NA-OK,,2020-06-04,,,,,6,
NA,Namibia,Kavango Region,,,NA-OK,,2020-06-05,,,,,13,
NA,Namibia,Kavango Region,,,NA-OK,,2020-06-08,,,,,2,
NA,Namibia,Kavango Region,,,NA-OK,,2020-06-09,,,,,6,
NA,Namibia,Kavango Region,,,NA-OK,,2020-06-10,,,,,2,
NA,Namibia,Kavango Region,,,NA-OK,,2020-06-11,,,,,2,
NA,Namibia,Kavango Region,,,NA-OK,,2020-06-12,,,,,16,
NA,Namibia,Kavango Region,,,NA-OK,,2020-06-15,,,,,8,
NA,Namibia,Kavango Region,,,NA-OK,,2020-06-16,,,,,11,
NA,Namibia,Kavango Region,,,NA-OK,,2020-06-17,,,,,4,
NA,Namibia,Kavango Region,,,NA-OK,,2020-06-18,,,,,12,
NA,Namibia,Kavango Region,,,NA-OK,,2020-06-19,,,,,16,
NA,Namibia,Kavango Region,,,NA-OK,,2020-06-22,,,,,5,
NA,Namibia,Kavango Region,,,NA-OK,,2020-06-23,,,,,3,
NA,Namibia,Kavango Region,,,NA-OK,,2020-06-24,,,,,5,
NA,Namibia,Kavango Region,,,NA-OK,,2020-06-25,,,,,5,
NA,Namibia,Kavango Region,,,NA-OK,,2020-06-26,,,,,14,
NA,Namibia,Kavango Region,,,NA-OK,,2020-06-29,,,,,6,
NA,Namibia,Kavango Region,,,NA-OK,,2020-06-30,,,,,14,
NA,Namibia,Kavango Region,,,NA-OK,,2020-07-01,,,,,11,
NA,Namibia,Kavango Region,,,NA-OK,,2020-07-02,,,,,11,
NA,Namibia,Kavango Region,,,NA-OK,,2020-07-03,,,,,17,
NA,Namibia,Kavango Region,,,NA-OK,,2020-07-06,,,,,6,
NA,Namibia,Kavango Region,,,NA-OK,,2020-07-07,,,,,5,
NA,Namibia,Kavango Region,,,NA-OK,,2020-07-08,,,,,7,
NA,Namibia,Kavango Region,,,NA-OK,,2020-07-09,,,,,6,
NA,Namibia,Kavango Region,,,NA-OK,,2020-07-10,,,,,18,
NA,Namibia,Kavango Region,,,NA-OK,,2020-07-13,,,,,5,
NA,Namibia,Kavango Region,,,NA-OK,,2020-07-14,,,,,7,
NA,Namibia,Kavango Region,,,NA-OK,,2020-07-15,,,,,3,
NA,Namibia,Kavango Region,,,NA-OK,,2020-07-16,,,,,7,
NA,Namibia,Kavango Region,,,NA-OK,,2020-07-17,,,,,15,
NA,Namibia,Kavango Region,,,NA-OK,,2020-07-20,,,,,6,
NA,Namibia,Kavango Region,,,NA-OK,,2020-07-21,,,,,12,
NA,Namibia,Kavango Region,,,NA-OK,,2020-07-22,,,,,9,
NA,Namibia,Kavango Region,,,NA-OK,,2020-07-23,,,,,12,
NA,Namibia,Kavango Region,,,NA-OK,,2020-07-24,,,,,19,
NA,Namibia,Kavango Region,,,NA-OK,,2020-07-27,,,,,7,
NA,Namibia,Kavango Region,,,NA-OK,,2020-07-28,,,,,5,
NA,Namibia,Kavango Region,,,NA-OK,,2020-07-29,,,,,3,
NA,Namibia,Kavango Region,,,NA-OK,,2020-07-30,,,,,3,
NA,Namibia,Kavango Region,,,NA-OK,,2020-07-31,,,,,8,
NA,Namibia,Kavango Region,,,NA-OK,,2020-08-03,,,,,5,
NA,Namibia,Kavango Region,,,NA-OK,,2020-08-04,,,,,-1,
NA,Namibia,Kavango Region,,,NA-OK,,2020-08-05,,,,,1,
NA,Namibia,Kavango Region,,,NA-OK,,2020-08-06,,,,,1,
NA,Namibia,Kavango Region,,,NA-OK,,2020-08-07,,,,,11,
NA,Namibia,Kavango Region,,,NA-OK,,2020-08-10,,,,,0,
NA,Namibia,Kavango Region,,,NA-OK,,2020-08-11,,,,,0,
NA,Namibia,Kavango Region,,,NA-OK,,2020-08-12,,,,,-7,
NA,Namibia,Kavango Region,,,NA-OK,,2020-08-13,,,,,-3,
NA,Namibia,Kavango Region,,,NA-OK,,2020-08-14,,,,,5,
NA,Namibia,Kavango Region,,,NA-OK,,2020-08-17,,,,,-3,
NA,Namibia,Kavango Region,,,NA-OK,,2020-08-18,,,,,-3,
NA,Namibia,Kavango Region,,,NA-OK,,2020-08-19,,,,,-8,
NA,Namibia,Kavango Region,,,NA-OK,,2020-08-20,,,,,1,
NA,Namibia,Kavango Region,,,NA-OK,,2020-08-21,,,,,7,
NA,Namibia,Kavango Region,,,NA-OK,,2020-08-24,,,,,-16,
NA,Namibia,Kavango Region,,,NA-OK,,2020-08-25,,,,,-21,
NA,Namibia,Kavango Region,,,NA-OK,,2020-08-26,,,,,-55,
NA,Namibia,Kavango Region,,,NA-OK,,2020-08-27,,,,,-23,
NA,Namibia,Kavango Region,,,NA-OK,,2020-08-28,,,,,-12,
NA,Namibia,Kavango Region,,,NA-OK,,2020-08-31,,,,,-2,
NA,Namibia,Kavango Region,,,NA-OK,,2020-09-01,,,,,1,
NA,Namibia,Kavango Region,,,NA-OK,,2020-09-02,,,,,-2,
NA,Namibia,Kavango Region,,,NA-OK,,2020-09-03,,,,,1,
NA,Namibia,Kavango Region,,,NA-OK,,2020-09-04,,,,,4,
NA,Namibia,Kavango Region,,,NA-OK,,2020-09-07,,,,,-2,
NA,Namibia,Kavango Region,,,NA-OK,,2020-09-08,,,,,-2,
NA,Namibia,Kavango Region,,,NA-OK,,2020-09-09,,,,,-3,
NA,Namibia,Kavango Region,,,NA-OK,,2020-09-10,,,,,-7,
NA,Namibia,Kavango Region,,,NA-OK,,2020-09-11,,,,,3,
NA,Namibia,Kavango Region,,,NA-OK,,2020-09-14,,,,,-1,
NA,Namibia,Kavango Region,,,NA-OK,,2020-09-15,,,,,-1,
NA,Namibia,Kavango Region,,,NA-OK,,2020-09-16,,,,,-1,
NA,Namibia,Kavango Region,,,NA-OK,,2020-09-17,,,,,-2,
NA,Namibia,Kavango Region,,,NA-OK,,2020-09-18,,,,,3,
NA,Namibia,Kavango Region,,,NA-OK,,2020-09-21,,,,,-1,
NA,Namibia,Khomas Region,,,NA-KH,,2020-02-15,1,1,14,-5,-1,4
NA,Namibia,Khomas Region,,,NA-KH,,2020-02-16,-3,-5,,0,-2,
NA,Namibia,Khomas Region,,,NA-KH,,2020-02-17,-8,-9,-1,-14,9,0
NA,Namibia,Khomas Region,,,NA-KH,,2020-02-18,-14,-15,-11,-5,6,1
NA,Namibia,Khomas Region,,,NA-KH,,2020-02-19,-6,-9,0,-9,7,-1
NA,Namibia,Khomas Region,,,NA-KH,,2020-02-20,4,-2,2,-1,7,-1
NA,Namibia,Khomas Region,,,NA-KH,,2020-02-21,7,2,-6,-1,15,-2
NA,Namibia,Khomas Region,,,NA-KH,,2020-02-22,5,3,3,-5,5,2
NA,Namibia,Khomas Region,,,NA-KH,,2020-02-23,2,-3,2,-8,1,2
NA,Namibia,Khomas Region,,,NA-KH,,2020-02-24,-3,-8,0,-9,13,0
NA,Namibia,Khomas Region,,,NA-KH,,2020-02-25,2,0,8,1,13,-2
NA,Namibia,Khomas Region,,,NA-KH,,2020-02-26,8,-1,7,-1,13,-2
NA,Namibia,Khomas Region,,,NA-KH,,2020-02-27,13,6,10,2,12,-2
NA,Namibia,Khomas Region,,,NA-KH,,2020-02-28,25,24,18,3,15,-5
NA,Namibia,Khomas Region,,,NA-KH,,2020-02-29,31,31,23,-7,9,-3
NA,Namibia,Khomas Region,,,NA-KH,,2020-03-01,30,25,,13,6,-4
NA,Namibia,Khomas Region,,,NA-KH,,2020-03-02,13,13,15,-9,15,-2
NA,Namibia,Khomas Region,,,NA-KH,,2020-03-03,3,3,7,3,11,-2
NA,Namibia,Khomas Region,,,NA-KH,,2020-03-04,9,6,19,3,11,-2
NA,Namibia,Khomas Region,,,NA-KH,,2020-03-05,11,7,6,10,9,-2
NA,Namibia,Khomas Region,,,NA-KH,,2020-03-06,14,14,12,9,14,-4
NA,Namibia,Khomas Region,,,NA-KH,,2020-03-07,13,11,8,2,9,0
NA,Namibia,Khomas Region,,,NA-KH,,2020-03-08,9,6,,-9,4,0
NA,Namibia,Khomas Region,,,NA-KH,,2020-03-09,-4,-4,-4,-2,9,0
NA,Namibia,Khomas Region,,,NA-KH,,2020-03-10,-8,-9,-6,5,8,-1
NA,Namibia,Khomas Region,,,NA-KH,,2020-03-11,-2,-5,0,0,8,-1
NA,Namibia,Khomas Region,,,NA-KH,,2020-03-12,-1,-2,-12,3,9,-1
NA,Namibia,Khomas Region,,,NA-KH,,2020-03-13,5,6,-8,2,14,-2
NA,Namibia,Khomas Region,,,NA-KH,,2020-03-14,6,11,0,-11,10,1
NA,Namibia,Khomas Region,,,NA-KH,,2020-03-15,-2,7,-1,-13,4,3
NA,Namibia,Khomas Region,,,NA-KH,,2020-03-16,-7,7,-12,-18,-6,8
NA,Namibia,Khomas Region,,,NA-KH,,2020-03-17,-22,-12,-28,-3,-12,10
NA,Namibia,Khomas Region,,,NA-KH,,2020-03-18,-17,-10,-19,-15,-13,9
NA,Namibia,Khomas Region,,,NA-KH,,2020-03-19,-17,-10,-29,-9,-14,10
NA,Namibia,Khomas Region,,,NA-KH,,2020-03-20,-10,6,-7,-27,-10,7
NA,Namibia,Khomas Region,,,NA-KH,,2020-03-21,-28,-15,-25,-32,-23,9
NA,Namibia,Khomas Region,,,NA-KH,,2020-03-22,-24,-14,-11,-38,-10,
NA,Namibia,Khomas Region,,,NA-KH,,2020-03-23,-20,-10,-13,-37,-14,10
NA,Namibia,Khomas Region,,,NA-KH,,2020-03-24,-19,1,-20,-28,-15,10
NA,Namibia,Khomas Region,,,NA-KH,,2020-03-25,1,22,-15,-28,-17,8
NA,Namibia,Khomas Region,,,NA-KH,,2020-03-26,3,24,-15,-30,-21,7
NA,Namibia,Khomas Region,,,NA-KH,,2020-03-27,-9,21,-24,-57,-26,11
NA,Namibia,Khomas Region,,,NA-KH,,2020-03-28,-69,-54,-58,-79,-46,
NA,Namibia,Khomas Region,,,NA-KH,,2020-03-29,-69,-57,-57,-82,-40,
NA,Namibia,Khomas Region,,,NA-KH,,2020-03-30,-64,-49,-60,-80,-66,34
NA,Namibia,Khomas Region,,,NA-KH,,2020-03-31,-61,-43,-53,-74,-66,31
NA,Namibia,Khomas Region,,,NA-KH,,2020-04-01,-56,-38,-48,-77,-66,31
NA,Namibia,Khomas Region,,,NA-KH,,2020-04-02,-59,-41,-53,-75,-67,32
NA,Namibia,Khomas Region,,,NA-KH,,2020-04-03,-59,-37,-55,-83,-63,33
NA,Namibia,Khomas Region,,,NA-KH,,2020-04-04,-61,-41,-53,-79,-45,
NA,Namibia,Khomas Region,,,NA-KH,,2020-04-05,-62,-48,-56,-83,-36,
NA,Namibia,Khomas Region,,,NA-KH,,2020-04-06,-58,-42,-52,-82,-65,31
NA,Namibia,Khomas Region,,,NA-KH,,2020-04-07,-61,-43,-56,-85,-66,30
NA,Namibia,Khomas Region,,,NA-KH,,2020-04-08,-58,-40,-54,-83,-66,30
NA,Namibia,Khomas Region,,,NA-KH,,2020-04-09,-55,-33,-57,-79,-66,28
NA,Namibia,Khomas Region,,,NA-KH,,2020-04-10,-75,-67,-70,-85,-83,
NA,Namibia,Khomas Region,,,NA-KH,,2020-04-11,-62,-37,-54,-80,-47,
NA,Namibia,Khomas Region,,,NA-KH,,2020-04-12,-64,-48,-45,-85,-41,
NA,Namibia,Khomas Region,,,NA-KH,,2020-04-13,-73,-61,-72,-86,-84,37
NA,Namibia,Khomas Region,,,NA-KH,,2020-04-14,-59,-40,-53,-80,-62,29
NA,Namibia,Khomas Region,,,NA-KH,,2020-04-15,-57,-37,-58,-82,-61,30
NA,Namibia,Khomas Region,,,NA-KH,,2020-04-16,-57,-40,-54,-78,-62,31
NA,Namibia,Khomas Region,,,NA-KH,,2020-04-17,-57,-34,-52,-81,-58,31
NA,Namibia,Khomas Region,,,NA-KH,,2020-04-18,-63,-42,-57,-80,-44,
NA,Namibia,Khomas Region,,,NA-KH,,2020-04-19,-63,-47,-50,-83,-35,
NA,Namibia,Khomas Region,,,NA-KH,,2020-04-20,-51,-33,-54,-81,-57,29
NA,Namibia,Khomas Region,,,NA-KH,,2020-04-21,-55,-36,-53,-78,-60,28
NA,Namibia,Khomas Region,,,NA-KH,,2020-04-22,-53,-35,-50,-80,-58,28
NA,Namibia,Khomas Region,,,NA-KH,,2020-04-23,-52,-34,-58,-75,-58,29
NA,Namibia,Khomas Region,,,NA-KH,,2020-04-24,-48,-24,-50,-77,-54,28
NA,Namibia,Khomas Region,,,NA-KH,,2020-04-25,-47,-20,-48,-78,-34,17
NA,Namibia,Khomas Region,,,NA-KH,,2020-04-26,-51,-32,-48,-79,-30,
NA,Namibia,Khomas Region,,,NA-KH,,2020-04-27,-44,-26,-45,-82,-54,27
NA,Namibia,Khomas Region,,,NA-KH,,2020-04-28,-47,-29,-44,-72,-54,25
NA,Namibia,Khomas Region,,,NA-KH,,2020-04-29,-42,-24,-44,-82,-54,26
NA,Namibia,Khomas Region,,,NA-KH,,2020-04-30,-30,-7,-36,-67,-53,22
NA,Namibia,Khomas Region,,,NA-KH,,2020-05-01,-55,-35,-60,-80,-77,33
NA,Namibia,Khomas Region,,,NA-KH,,2020-05-02,-37,-8,-29,-73,-30,14
NA,Namibia,Khomas Region,,,NA-KH,,2020-05-03,-44,-21,-32,-80,-21,
NA,Namibia,Khomas Region,,,NA-KH,,2020-05-04,-56,-41,-63,-82,-78,33
NA,Namibia,Khomas Region,,,NA-KH,,2020-05-05,-21,-3,-17,-53,-25,12
NA,Namibia,Khomas Region,,,NA-KH,,2020-05-06,-16,1,-7,-59,-22,13
NA,Namibia,Khomas Region,,,NA-KH,,2020-05-07,-16,-1,-17,-44,-23,13
NA,Namibia,Khomas Region,,,NA-KH,,2020-05-08,-19,4,-18,-56,-17,12
NA,Namibia,Khomas Region,,,NA-KH,,2020-05-09,-23,3,-21,-64,-12,10
NA,Namibia,Khomas Region,,,NA-KH,,2020-05-10,-30,-7,-14,-70,-13,
NA,Namibia,Khomas Region,,,NA-KH,,2020-05-11,-26,-13,-17,-56,-17,13
NA,Namibia,Khomas Region,,,NA-KH,,2020-05-12,-28,-12,-18,-47,-18,13
NA,Namibia,Khomas Region,,,NA-KH,,2020-05-13,-26,-11,-19,-57,-18,13
NA,Namibia,Khomas Region,,,NA-KH,,2020-05-14,-23,-10,-18,-50,-19,13
NA,Namibia,Khomas Region,,,NA-KH,,2020-05-15,-23,-2,-19,-54,-13,12
NA,Namibia,Khomas Region,,,NA-KH,,2020-05-16,-25,-3,-20,-61,-10,11
NA,Namibia,Khomas Region,,,NA-KH,,2020-05-17,-31,-10,-23,-71,-9,
NA,Namibia,Khomas Region,,,NA-KH,,2020-05-18,-24,-12,-17,-56,-16,13
NA,Namibia,Khomas Region,,,NA-KH,,2020-05-19,-29,-14,-18,-48,-17,12
NA,Namibia,Khomas Region,,,NA-KH,,2020-05-20,-12,6,-10,-52,-19,9
NA,Namibia,Khomas Region,,,NA-KH,,2020-05-21,-43,-28,-57,-69,-75,22
NA,Namibia,Khomas Region,,,NA-KH,,2020-05-22,-25,-6,-27,-63,-38,13
NA,Namibia,Khomas Region,,,NA-KH,,2020-05-23,-32,-12,-29,-68,-19,8
NA,Namibia,Khomas Region,,,NA-KH,,2020-05-24,-34,-20,-22,-71,-15,
NA,Namibia,Khomas Region,,,NA-KH,,2020-05-25,-48,-37,-59,-73,-77,22
NA,Namibia,Khomas Region,,,NA-KH,,2020-05-26,-25,-7,-19,-50,-20,10
NA,Namibia,Khomas Region,,,NA-KH,,2020-05-27,-18,-3,-13,-56,-19,12
NA,Namibia,Khomas Region,,,NA-KH,,2020-05-28,-16,0,-15,-50,-19,13
NA,Namibia,Khomas Region,,,NA-KH,,2020-05-29,-9,15,-4,-49,-14,11
NA,Namibia,Khomas Region,,,NA-KH,,2020-05-30,-9,18,-3,-58,1,7
NA,Namibia,Khomas Region,,,NA-KH,,2020-05-31,-12,10,-5,-68,-1,
NA,Namibia,Khomas Region,,,NA-KH,,2020-06-01,-11,4,-6,-46,-11,11
NA,Namibia,Khomas Region,,,NA-KH,,2020-06-02,-12,9,-10,-48,-12,9
NA,Namibia,Khomas Region,,,NA-KH,,2020-06-03,-11,3,-15,-54,-12,9
NA,Namibia,Khomas Region,,,NA-KH,,2020-06-04,-11,2,-13,-48,-13,10
NA,Namibia,Khomas Region,,,NA-KH,,2020-06-05,-8,10,-13,-56,-9,8
NA,Namibia,Khomas Region,,,NA-KH,,2020-06-06,-15,6,-4,-63,-2,6
NA,Namibia,Khomas Region,,,NA-KH,,2020-06-07,-20,-6,-22,-70,-1,
NA,Namibia,Khomas Region,,,NA-KH,,2020-06-08,-19,-6,-17,-56,-12,10
NA,Namibia,Khomas Region,,,NA-KH,,2020-06-09,-25,-10,-20,-51,-13,10
NA,Namibia,Khomas Region,,,NA-KH,,2020-06-10,-18,-6,-15,-55,-13,10
NA,Namibia,Khomas Region,,,NA-KH,,2020-06-11,-19,-5,-23,-49,-13,11
NA,Namibia,Khomas Region,,,NA-KH,,2020-06-12,-17,1,-29,-54,-9,10
NA,Namibia,Khomas Region,,,NA-KH,,2020-06-13,-18,-1,-15,-62,-3,9
NA,Namibia,Khomas Region,,,NA-KH,,2020-06-14,-22,-8,-18,-66,-1,
NA,Namibia,Khomas Region,,,NA-KH,,2020-06-15,-18,-8,-22,-59,-9,10
NA,Namibia,Khomas Region,,,NA-KH,,2020-06-16,-24,-9,-22,-48,-10,10
NA,Namibia,Khomas Region,,,NA-KH,,2020-06-17,-21,-9,-22,-54,-12,10
NA,Namibia,Khomas Region,,,NA-KH,,2020-06-18,-21,-9,-23,-55,-13,10
NA,Namibia,Khomas Region,,,NA-KH,,2020-06-19,-10,7,-23,-53,-9,9
NA,Namibia,Khomas Region,,,NA-KH,,2020-06-20,-15,7,-21,-62,1,7
NA,Namibia,Khomas Region,,,NA-KH,,2020-06-21,-18,-3,-16,-67,1,
NA,Namibia,Khomas Region,,,NA-KH,,2020-06-22,-20,-9,-26,-60,-14,11
NA,Namibia,Khomas Region,,,NA-KH,,2020-06-23,-27,-14,-31,-51,-14,11
NA,Namibia,Khomas Region,,,NA-KH,,2020-06-24,-20,-7,-27,-58,-14,11
NA,Namibia,Khomas Region,,,NA-KH,,2020-06-25,-10,5,-19,-51,-14,9
NA,Namibia,Khomas Region,,,NA-KH,,2020-06-26,-6,12,-12,-53,-10,7
NA,Namibia,Khomas Region,,,NA-KH,,2020-06-27,-9,10,-8,-64,-5,6
NA,Namibia,Khomas Region,,,NA-KH,,2020-06-28,-13,4,-8,-68,-4,
NA,Namibia,Khomas Region,,,NA-KH,,2020-06-29,-13,-2,-9,-56,-12,10
NA,Namibia,Khomas Region,,,NA-KH,,2020-06-30,-11,6,-15,-47,-11,8
NA,Namibia,Khomas Region,,,NA-KH,,2020-07-01,-5,9,-11,-51,-12,8
NA,Namibia,Khomas Region,,,NA-KH,,2020-07-02,-5,8,-14,-50,-14,8
NA,Namibia,Khomas Region,,,NA-KH,,2020-07-03,-3,13,-10,-54,-9,7
NA,Namibia,Khomas Region,,,NA-KH,,2020-07-04,-6,9,2,-55,-7,5
NA,Namibia,Khomas Region,,,NA-KH,,2020-07-05,-13,-1,-3,-65,-4,
NA,Namibia,Khomas Region,,,NA-KH,,2020-07-06,-14,-3,-21,-57,-13,10
NA,Namibia,Khomas Region,,,NA-KH,,2020-07-07,-21,3,-11,-48,-12,9
NA,Namibia,Khomas Region,,,NA-KH,,2020-07-08,-17,4,-9,-51,-13,8
NA,Namibia,Khomas Region,,,NA-KH,,2020-07-09,-16,5,-21,-52,-14,9
NA,Namibia,Khomas Region,,,NA-KH,,2020-07-10,-11,11,-20,-54,-9,8
NA,Namibia,Khomas Region,,,NA-KH,,2020-07-11,-17,4,-14,-63,-8,8
NA,Namibia,Khomas Region,,,NA-KH,,2020-07-12,-22,-3,-15,-65,-9,
NA,Namibia,Khomas Region,,,NA-KH,,2020-07-13,-22,-4,-26,-55,-11,10
NA,Namibia,Khomas Region,,,NA-KH,,2020-07-14,-26,-6,-21,-52,-13,10
NA,Namibia,Khomas Region,,,NA-KH,,2020-07-15,-21,-2,-28,-55,-12,10
NA,Namibia,Khomas Region,,,NA-KH,,2020-07-16,-20,0,-24,-45,-12,10
NA,Namibia,Khomas Region,,,NA-KH,,2020-07-17,-13,8,-23,-57,-7,9
NA,Namibia,Khomas Region,,,NA-KH,,2020-07-18,-18,2,-10,-47,-8,8
NA,Namibia,Khomas Region,,,NA-KH,,2020-07-19,-23,-2,-17,-68,-9,
NA,Namibia,Khomas Region,,,NA-KH,,2020-07-20,-19,4,-25,-54,-13,9
NA,Namibia,Khomas Region,,,NA-KH,,2020-07-21,-26,-3,-21,-47,-13,9
NA,Namibia,Khomas Region,,,NA-KH,,2020-07-22,-19,-1,-19,-55,-13,9
NA,Namibia,Khomas Region,,,NA-KH,,2020-07-23,-17,0,-21,-44,-13,9
NA,Namibia,Khomas Region,,,NA-KH,,2020-07-24,-6,17,-21,-46,-10,7
NA,Namibia,Khomas Region,,,NA-KH,,2020-07-25,-9,16,-8,-60,-9,6
NA,Namibia,Khomas Region,,,NA-KH,,2020-07-26,-16,8,-14,-64,-7,
NA,Namibia,Khomas Region,,,NA-KH,,2020-07-27,-16,4,-19,-56,-14,9
NA,Namibia,Khomas Region,,,NA-KH,,2020-07-28,-21,1,-25,-45,-14,9
NA,Namibia,Khomas Region,,,NA-KH,,2020-07-29,-14,6,-19,-54,-17,10
NA,Namibia,Khomas Region,,,NA-KH,,2020-07-30,-13,5,-24,-49,-18,10
NA,Namibia,Khomas Region,,,NA-KH,,2020-07-31,0,26,-18,-53,-15,6
NA,Namibia,Khomas Region,,,NA-KH,,2020-08-01,-3,18,-3,-59,-12,4
NA,Namibia,Khomas Region,,,NA-KH,,2020-08-02,-9,12,-9,-64,-10,
NA,Namibia,Khomas Region,,,NA-KH,,2020-08-03,-11,7,-14,-53,-17,10
NA,Namibia,Khomas Region,,,NA-KH,,2020-08-04,-19,3,-12,-49,-18,10
NA,Namibia,Khomas Region,,,NA-KH,,2020-08-05,-13,3,-18,-44,-18,10
NA,Namibia,Khomas Region,,,NA-KH,,2020-08-06,-14,4,-33,-47,-20,11
NA,Namibia,Khomas Region,,,NA-KH,,2020-08-07,-10,10,-23,-53,-17,9
NA,Namibia,Khomas Region,,,NA-KH,,2020-08-08,-15,4,-20,-57,-12,8
NA,Namibia,Khomas Region,,,NA-KH,,2020-08-09,-23,-6,-20,-62,-13,
NA,Namibia,Khomas Region,,,NA-KH,,2020-08-10,-23,-6,-28,-53,-20,12
NA,Namibia,Khomas Region,,,NA-KH,,2020-08-11,-27,-10,-35,-49,-22,13
NA,Namibia,Khomas Region,,,NA-KH,,2020-08-12,-21,-4,-31,-58,-23,12
NA,Namibia,Khomas Region,,,NA-KH,,2020-08-13,-34,-15,-43,-58,-26,17
NA,Namibia,Khomas Region,,,NA-KH,,2020-08-14,-31,-3,-34,-65,-23,18
NA,Namibia,Khomas Region,,,NA-KH,,2020-08-15,-35,-5,-33,-69,-18,14
NA,Namibia,Khomas Region,,,NA-KH,,2020-08-16,-42,-18,-34,-69,-21,
NA,Namibia,Khomas Region,,,NA-KH,,2020-08-17,,,,,-29,18
NA,Namibia,Khomas Region,,,NA-KH,,2020-08-18,,,,,-30,18
NA,Namibia,Khomas Region,,,NA-KH,,2020-08-19,,,,,-31,19
NA,Namibia,Khomas Region,,,NA-KH,,2020-08-20,,,,,-33,18
NA,Namibia,Khomas Region,,,NA-KH,,2020-08-21,,,,,-28,18
NA,Namibia,Khomas Region,,,NA-KH,,2020-08-22,,,,,-16,13
NA,Namibia,Khomas Region,,,NA-KH,,2020-08-23,,,,,-21,
NA,Namibia,Khomas Region,,,NA-KH,,2020-08-24,,,,,-32,19
NA,Namibia,Khomas Region,,,NA-KH,,2020-08-25,,,,,-33,16
NA,Namibia,Khomas Region,,,NA-KH,,2020-08-26,,,,,-74,30
NA,Namibia,Khomas Region,,,NA-KH,,2020-08-27,,,,,-34,16
NA,Namibia,Khomas Region,,,NA-KH,,2020-08-28,,,,,-30,17
NA,Namibia,Khomas Region,,,NA-KH,,2020-08-29,,,,,-16,10
NA,Namibia,Khomas Region,,,NA-KH,,2020-08-30,,,,,-22,
NA,Namibia,Khomas Region,,,NA-KH,,2020-08-31,,,,,-27,14
NA,Namibia,Khomas Region,,,NA-KH,,2020-09-01,,,,,-27,14
NA,Namibia,Khomas Region,,,NA-KH,,2020-09-02,,,,,-26,14
NA,Namibia,Khomas Region,,,NA-KH,,2020-09-03,,,,,-28,14
NA,Namibia,Khomas Region,,,NA-KH,,2020-09-04,,,,,-23,14
NA,Namibia,Khomas Region,,,NA-KH,,2020-09-05,,,,,-15,9
NA,Namibia,Khomas Region,,,NA-KH,,2020-09-06,,,,,-18,
NA,Namibia,Khomas Region,,,NA-KH,,2020-09-07,,,,,-25,15
NA,Namibia,Khomas Region,,,NA-KH,,2020-09-08,,,,,-26,15
NA,Namibia,Khomas Region,,,NA-KH,,2020-09-09,,,,,-26,14
NA,Namibia,Khomas Region,,,NA-KH,,2020-09-10,,,,,-27,15
NA,Namibia,Khomas Region,,,NA-KH,,2020-09-11,,,,,-21,14
NA,Namibia,Khomas Region,,,NA-KH,,2020-09-12,,,,,-13,10
NA,Namibia,Khomas Region,,,NA-KH,,2020-09-13,,,,,-15,
NA,Namibia,Khomas Region,,,NA-KH,,2020-09-14,,,,,-21,13
NA,Namibia,Khomas Region,,,NA-KH,,2020-09-15,,,,,-22,12
NA,Namibia,Khomas Region,,,NA-KH,,2020-09-16,,,,,-23,13
NA,Namibia,Khomas Region,,,NA-KH,,2020-09-17,,,,,-24,13
NA,Namibia,Khomas Region,,,NA-KH,,2020-09-18,,,,,-19,9
NA,Namibia,Khomas Region,,,NA-KH,,2020-09-19,,,,,-16,7
NA,Namibia,Khomas Region,,,NA-KH,,2020-09-20,,,,,-14,
NA,Namibia,Khomas Region,,,NA-KH,,2020-09-21,,,,,-21,11
NA,Namibia,Ohangwena Region,,,NA-OW,,2020-04-08,,,,,-56,
NA,Namibia,Ohangwena Region,,,NA-OW,,2020-04-13,,,,,-70,
NA,Namibia,Ohangwena Region,,,NA-OW,,2020-04-15,,,,,-50,
NA,Namibia,Ohangwena Region,,,NA-OW,,2020-05-04,,,,,-56,
NA,Namibia,Ohangwena Region,,,NA-OW,,2020-08-26,,,,,-56,
NA,Namibia,Omusati Region,,,NA-OS,,2020-04-06,,,,,-46,
NA,Namibia,Omusati Region,,,NA-OS,,2020-04-08,,,,,-46,
NA,Namibia,Omusati Region,,,NA-OS,,2020-04-10,,,,,-66,
NA,Namibia,Omusati Region,,,NA-OS,,2020-04-13,,,,,-69,
NA,Namibia,Omusati Region,,,NA-OS,,2020-04-22,,,,,-45,
NA,Namibia,Omusati Region,,,NA-OS,,2020-04-27,,,,,-45,
NA,Namibia,Omusati Region,,,NA-OS,,2020-05-04,,,,,-60,
NA,Namibia,Omusati Region,,,NA-OS,,2020-05-25,,,,,-47,
NA,Namibia,Omusati Region,,,NA-OS,,2020-08-26,,,,,-50,
NA,Namibia,Oshana Region,,,NA-ON,,2020-02-15,,-10,,,2,
NA,Namibia,Oshana Region,,,NA-ON,,2020-02-17,,-13,,,14,
NA,Namibia,Oshana Region,,,NA-ON,,2020-02-18,,-20,,,13,
NA,Namibia,Oshana Region,,,NA-ON,,2020-02-19,,-12,,,14,
NA,Namibia,Oshana Region,,,NA-ON,,2020-02-20,,4,,,13,
NA,Namibia,Oshana Region,,,NA-ON,,2020-02-21,,-8,,,23,
NA,Namibia,Oshana Region,,,NA-ON,,2020-02-22,,-4,,,2,
NA,Namibia,Oshana Region,,,NA-ON,,2020-02-24,,-12,,,18,
NA,Namibia,Oshana Region,,,NA-ON,,2020-02-25,,-6,,,17,
NA,Namibia,Oshana Region,,,NA-ON,,2020-02-26,,0,,,18,
NA,Namibia,Oshana Region,,,NA-ON,,2020-02-27,,0,,,16,
NA,Namibia,Oshana Region,,,NA-ON,,2020-02-28,,1,,,20,
NA,Namibia,Oshana Region,,,NA-ON,,2020-02-29,,19,,,5,
NA,Namibia,Oshana Region,,,NA-ON,,2020-03-02,,8,,,20,
NA,Namibia,Oshana Region,,,NA-ON,,2020-03-03,,4,,,19,
NA,Namibia,Oshana Region,,,NA-ON,,2020-03-04,,9,,,17,
NA,Namibia,Oshana Region,,,NA-ON,,2020-03-05,,7,,,18,
NA,Namibia,Oshana Region,,,NA-ON,,2020-03-06,,-1,,,26,
NA,Namibia,Oshana Region,,,NA-ON,,2020-03-07,,2,,,14,
NA,Namibia,Oshana Region,,,NA-ON,,2020-03-09,,-4,,,21,
NA,Namibia,Oshana Region,,,NA-ON,,2020-03-10,,-11,,,20,
NA,Namibia,Oshana Region,,,NA-ON,,2020-03-11,,-2,,,17,
NA,Namibia,Oshana Region,,,NA-ON,,2020-03-12,,-3,,,18,
NA,Namibia,Oshana Region,,,NA-ON,,2020-03-13,,-9,,,25,
NA,Namibia,Oshana Region,,,NA-ON,,2020-03-14,,-6,,,5,
NA,Namibia,Oshana Region,,,NA-ON,,2020-03-16,,1,,,-5,
NA,Namibia,Oshana Region,,,NA-ON,,2020-03-17,,-11,,,-15,
NA,Namibia,Oshana Region,,,NA-ON,,2020-03-18,,-9,,,-17,
NA,Namibia,Oshana Region,,,NA-ON,,2020-03-19,,-10,,,-17,
NA,Namibia,Oshana Region,,,NA-ON,,2020-03-20,,3,,,-9,
NA,Namibia,Oshana Region,,,NA-ON,,2020-03-21,,-19,,,-30,
NA,Namibia,Oshana Region,,,NA-ON,,2020-03-23,,-6,,,-16,
NA,Namibia,Oshana Region,,,NA-ON,,2020-03-24,,-6,,,-16,
NA,Namibia,Oshana Region,,,NA-ON,,2020-03-25,,9,,,-18,
NA,Namibia,Oshana Region,,,NA-ON,,2020-03-26,,12,,,-18,
NA,Namibia,Oshana Region,,,NA-ON,,2020-03-27,,-6,,,-11,
NA,Namibia,Oshana Region,,,NA-ON,,2020-03-28,,-13,,,-11,
NA,Namibia,Oshana Region,,,NA-ON,,2020-03-29,,,,,-17,
NA,Namibia,Oshana Region,,,NA-ON,,2020-03-30,,-15,,,-33,
NA,Namibia,Oshana Region,,,NA-ON,,2020-03-31,,-11,,,-37,
NA,Namibia,Oshana Region,,,NA-ON,,2020-04-01,,-12,,,-40,
NA,Namibia,Oshana Region,,,NA-ON,,2020-04-02,,-16,,,-42,
NA,Namibia,Oshana Region,,,NA-ON,,2020-04-03,-42,-29,,,-37,
NA,Namibia,Oshana Region,,,NA-ON,,2020-04-04,,-31,,,-32,
NA,Namibia,Oshana Region,,,NA-ON,,2020-04-05,,,,,-26,
NA,Namibia,Oshana Region,,,NA-ON,,2020-04-06,,-28,,,-44,
NA,Namibia,Oshana Region,,,NA-ON,,2020-04-07,,-26,,,-43,
NA,Namibia,Oshana Region,,,NA-ON,,2020-04-08,,-30,,,-43,
NA,Namibia,Oshana Region,,,NA-ON,,2020-04-09,,-22,,,-45,
NA,Namibia,Oshana Region,,,NA-ON,,2020-04-10,-68,-55,,,-70,
NA,Namibia,Oshana Region,,,NA-ON,,2020-04-11,,-39,,,-35,
NA,Namibia,Oshana Region,,,NA-ON,,2020-04-12,,,,,-31,
NA,Namibia,Oshana Region,,,NA-ON,,2020-04-13,-65,-59,,,-73,
NA,Namibia,Oshana Region,,,NA-ON,,2020-04-14,,-23,,,-38,
NA,Namibia,Oshana Region,,,NA-ON,,2020-04-15,,-23,,,-42,
NA,Namibia,Oshana Region,,,NA-ON,,2020-04-16,,-17,,,-42,
NA,Namibia,Oshana Region,,,NA-ON,,2020-04-17,-41,-25,,,-35,
NA,Namibia,Oshana Region,,,NA-ON,,2020-04-18,,-41,,,-29,
NA,Namibia,Oshana Region,,,NA-ON,,2020-04-19,,,,,-22,
NA,Namibia,Oshana Region,,,NA-ON,,2020-04-20,,-18,,,-40,
NA,Namibia,Oshana Region,,,NA-ON,,2020-04-21,,-18,,,-41,
NA,Namibia,Oshana Region,,,NA-ON,,2020-04-22,,-19,,,-39,
NA,Namibia,Oshana Region,,,NA-ON,,2020-04-23,,-22,,,-41,
NA,Namibia,Oshana Region,,,NA-ON,,2020-04-24,-44,-32,,,-36,
NA,Namibia,Oshana Region,,,NA-ON,,2020-04-25,,-30,,,-23,
NA,Namibia,Oshana Region,,,NA-ON,,2020-04-26,,,,,-17,
NA,Namibia,Oshana Region,,,NA-ON,,2020-04-27,,-21,,,-36,
NA,Namibia,Oshana Region,,,NA-ON,,2020-04-28,,-18,,,-36,
NA,Namibia,Oshana Region,,,NA-ON,,2020-04-29,,-15,,,-38,
NA,Namibia,Oshana Region,,,NA-ON,,2020-04-30,,-2,,,-35,
NA,Namibia,Oshana Region,,,NA-ON,,2020-05-01,-55,-41,,,-62,
NA,Namibia,Oshana Region,,,NA-ON,,2020-05-02,,-17,,,-16,
NA,Namibia,Oshana Region,,,NA-ON,,2020-05-03,,,,,-18,
NA,Namibia,Oshana Region,,,NA-ON,,2020-05-04,-57,-42,,,-67,
NA,Namibia,Oshana Region,,,NA-ON,,2020-05-05,,9,,,-19,
NA,Namibia,Oshana Region,,,NA-ON,,2020-05-06,,10,,,-8,
NA,Namibia,Oshana Region,,,NA-ON,,2020-05-07,,15,,,-9,
NA,Namibia,Oshana Region,,,NA-ON,,2020-05-08,,-4,,,0,
NA,Namibia,Oshana Region,,,NA-ON,,2020-05-09,,-3,,,0,
NA,Namibia,Oshana Region,,,NA-ON,,2020-05-11,,-2,,,-2,
NA,Namibia,Oshana Region,,,NA-ON,,2020-05-12,,-2,,,-2,
NA,Namibia,Oshana Region,,,NA-ON,,2020-05-13,-14,-1,,,-2,
NA,Namibia,Oshana Region,,,NA-ON,,2020-05-14,,-1,,,-4,
NA,Namibia,Oshana Region,,,NA-ON,,2020-05-15,,-14,,,5,
NA,Namibia,Oshana Region,,,NA-ON,,2020-05-16,,-14,,,5,
NA,Namibia,Oshana Region,,,NA-ON,,2020-05-18,,-13,,,1,
NA,Namibia,Oshana Region,,,NA-ON,,2020-05-19,,-15,,,0,
NA,Namibia,Oshana Region,,,NA-ON,,2020-05-20,,25,,,-3,
NA,Namibia,Oshana Region,,,NA-ON,,2020-05-21,,-6,,,-60,
NA,Namibia,Oshana Region,,,NA-ON,,2020-05-22,,11,,,-15,
NA,Namibia,Oshana Region,,,NA-ON,,2020-05-23,,6,,,0,
NA,Namibia,Oshana Region,,,NA-ON,,2020-05-25,,-33,,,-61,
NA,Namibia,Oshana Region,,,NA-ON,,2020-05-26,,8,,,-11,
NA,Namibia,Oshana Region,,,NA-ON,,2020-05-27,,10,,,-12,
NA,Namibia,Oshana Region,,,NA-ON,,2020-05-28,,13,,,-13,
NA,Namibia,Oshana Region,,,NA-ON,,2020-05-29,,10,,,-4,
NA,Namibia,Oshana Region,,,NA-ON,,2020-05-30,,17,,,12,
NA,Namibia,Oshana Region,,,NA-ON,,2020-06-01,,12,,,4,
NA,Namibia,Oshana Region,,,NA-ON,,2020-06-02,,11,,,6,
NA,Namibia,Oshana Region,,,NA-ON,,2020-06-03,,12,,,3,
NA,Namibia,Oshana Region,,,NA-ON,,2020-06-04,,13,,,4,
NA,Namibia,Oshana Region,,,NA-ON,,2020-06-05,,-1,,,10,
NA,Namibia,Oshana Region,,,NA-ON,,2020-06-06,,0,,,5,
NA,Namibia,Oshana Region,,,NA-ON,,2020-06-08,,-5,,,6,
NA,Namibia,Oshana Region,,,NA-ON,,2020-06-09,,-9,,,6,
NA,Namibia,Oshana Region,,,NA-ON,,2020-06-10,,-2,,,2,
NA,Namibia,Oshana Region,,,NA-ON,,2020-06-11,,2,,,2,
NA,Namibia,Oshana Region,,,NA-ON,,2020-06-12,,-13,,,12,
NA,Namibia,Oshana Region,,,NA-ON,,2020-06-13,,-11,,,10,
NA,Namibia,Oshana Region,,,NA-ON,,2020-06-15,,-10,,,6,
NA,Namibia,Oshana Region,,,NA-ON,,2020-06-16,,-6,,,7,
NA,Namibia,Oshana Region,,,NA-ON,,2020-06-17,,-3,,,3,
NA,Namibia,Oshana Region,,,NA-ON,,2020-06-18,,-4,,,2,
NA,Namibia,Oshana Region,,,NA-ON,,2020-06-19,,3,,,9,
NA,Namibia,Oshana Region,,,NA-ON,,2020-06-20,,8,,,10,
NA,Namibia,Oshana Region,,,NA-ON,,2020-06-22,,-4,,,4,
NA,Namibia,Oshana Region,,,NA-ON,,2020-06-23,,-7,,,2,
NA,Namibia,Oshana Region,,,NA-ON,,2020-06-24,,-6,,,2,
NA,Namibia,Oshana Region,,,NA-ON,,2020-06-25,,8,,,3,
NA,Namibia,Oshana Region,,,NA-ON,,2020-06-26,,-3,,,9,
NA,Namibia,Oshana Region,,,NA-ON,,2020-06-27,,2,,,6,
NA,Namibia,Oshana Region,,,NA-ON,,2020-06-29,,-5,,,3,
NA,Namibia,Oshana Region,,,NA-ON,,2020-06-30,,6,,,5,
NA,Namibia,Oshana Region,,,NA-ON,,2020-07-01,,14,,,2,
NA,Namibia,Oshana Region,,,NA-ON,,2020-07-02,,14,,,2,
NA,Namibia,Oshana Region,,,NA-ON,,2020-07-03,,7,,,6,
NA,Namibia,Oshana Region,,,NA-ON,,2020-07-04,,12,,,-4,
NA,Namibia,Oshana Region,,,NA-ON,,2020-07-06,,-1,,,-1,
NA,Namibia,Oshana Region,,,NA-ON,,2020-07-07,,-3,,,3,
NA,Namibia,Oshana Region,,,NA-ON,,2020-07-08,,-4,,,0,
NA,Namibia,Oshana Region,,,NA-ON,,2020-07-09,,-4,,,-3,
NA,Namibia,Oshana Region,,,NA-ON,,2020-07-10,,-12,,,7,
NA,Namibia,Oshana Region,,,NA-ON,,2020-07-11,,-9,,,-5,
NA,Namibia,Oshana Region,,,NA-ON,,2020-07-13,,-8,,,2,
NA,Namibia,Oshana Region,,,NA-ON,,2020-07-14,,-14,,,4,
NA,Namibia,Oshana Region,,,NA-ON,,2020-07-15,1,-3,,,2,
NA,Namibia,Oshana Region,,,NA-ON,,2020-07-16,,-6,,,1,
NA,Namibia,Oshana Region,,,NA-ON,,2020-07-17,-8,-17,,,5,
NA,Namibia,Oshana Region,,,NA-ON,,2020-07-18,,-13,,,-5,
NA,Namibia,Oshana Region,,,NA-ON,,2020-07-20,,4,,,4,
NA,Namibia,Oshana Region,,,NA-ON,,2020-07-21,,-6,,,0,
NA,Namibia,Oshana Region,,,NA-ON,,2020-07-22,,1,,,0,
NA,Namibia,Oshana Region,,,NA-ON,,2020-07-23,,1,,,-2,
NA,Namibia,Oshana Region,,,NA-ON,,2020-07-24,,0,,,4,
NA,Namibia,Oshana Region,,,NA-ON,,2020-07-25,,6,,,-8,
NA,Namibia,Oshana Region,,,NA-ON,,2020-07-27,,-6,,,-2,
NA,Namibia,Oshana Region,,,NA-ON,,2020-07-28,,-6,,,-2,
NA,Namibia,Oshana Region,,,NA-ON,,2020-07-29,9,3,,,-2,
NA,Namibia,Oshana Region,,,NA-ON,,2020-07-30,,7,,,-4,
NA,Namibia,Oshana Region,,,NA-ON,,2020-07-31,,11,,,7,
NA,Namibia,Oshana Region,,,NA-ON,,2020-08-01,,16,,,-5,
NA,Namibia,Oshana Region,,,NA-ON,,2020-08-03,,11,,,0,
NA,Namibia,Oshana Region,,,NA-ON,,2020-08-04,,6,,,-3,
NA,Namibia,Oshana Region,,,NA-ON,,2020-08-05,12,12,,,-3,
NA,Namibia,Oshana Region,,,NA-ON,,2020-08-06,,15,,,-4,
NA,Namibia,Oshana Region,,,NA-ON,,2020-08-07,,-3,,,0,
NA,Namibia,Oshana Region,,,NA-ON,,2020-08-08,,0,,,-4,
NA,Namibia,Oshana Region,,,NA-ON,,2020-08-10,,-4,,,-1,
NA,Namibia,Oshana Region,,,NA-ON,,2020-08-11,,-3,,,-3,
NA,Namibia,Oshana Region,,,NA-ON,,2020-08-12,,2,,,-5,
NA,Namibia,Oshana Region,,,NA-ON,,2020-08-13,,12,,,-5,
NA,Namibia,Oshana Region,,,NA-ON,,2020-08-14,,-9,,,0,
NA,Namibia,Oshana Region,,,NA-ON,,2020-08-15,,-8,,,-1,
NA,Namibia,Oshana Region,,,NA-ON,,2020-08-17,,,,,-3,
NA,Namibia,Oshana Region,,,NA-ON,,2020-08-18,,,,,-4,
NA,Namibia,Oshana Region,,,NA-ON,,2020-08-19,,,,,-7,
NA,Namibia,Oshana Region,,,NA-ON,,2020-08-20,,,,,-8,
NA,Namibia,Oshana Region,,,NA-ON,,2020-08-21,,,,,-10,
NA,Namibia,Oshana Region,,,NA-ON,,2020-08-22,,,,,-6,
NA,Namibia,Oshana Region,,,NA-ON,,2020-08-24,,,,,-15,
NA,Namibia,Oshana Region,,,NA-ON,,2020-08-25,,,,,-17,
NA,Namibia,Oshana Region,,,NA-ON,,2020-08-26,,,,,-60,
NA,Namibia,Oshana Region,,,NA-ON,,2020-08-27,,,,,-21,
NA,Namibia,Oshana Region,,,NA-ON,,2020-08-28,,,,,-17,
NA,Namibia,Oshana Region,,,NA-ON,,2020-08-29,,,,,-4,
NA,Namibia,Oshana Region,,,NA-ON,,2020-08-31,,,,,-9,
NA,Namibia,Oshana Region,,,NA-ON,,2020-09-01,,,,,-6,
NA,Namibia,Oshana Region,,,NA-ON,,2020-09-02,,,,,-10,
NA,Namibia,Oshana Region,,,NA-ON,,2020-09-03,,,,,-10,
NA,Namibia,Oshana Region,,,NA-ON,,2020-09-04,,,,,-3,
NA,Namibia,Oshana Region,,,NA-ON,,2020-09-05,,,,,-2,
NA,Namibia,Oshana Region,,,NA-ON,,2020-09-06,,,,,-12,
NA,Namibia,Oshana Region,,,NA-ON,,2020-09-07,,,,,-4,
NA,Namibia,Oshana Region,,,NA-ON,,2020-09-08,,,,,-5,
NA,Namibia,Oshana Region,,,NA-ON,,2020-09-09,,,,,-7,
NA,Namibia,Oshana Region,,,NA-ON,,2020-09-10,,,,,-12,
NA,Namibia,Oshana Region,,,NA-ON,,2020-09-11,,,,,-4,
NA,Namibia,Oshana Region,,,NA-ON,,2020-09-12,,,,,-4,
NA,Namibia,Oshana Region,,,NA-ON,,2020-09-14,,,,,-8,
NA,Namibia,Oshana Region,,,NA-ON,,2020-09-15,,,,,-8,
NA,Namibia,Oshana Region,,,NA-ON,,2020-09-16,,,,,-9,
NA,Namibia,Oshana Region,,,NA-ON,,2020-09-17,,,,,-10,
NA,Namibia,Oshana Region,,,NA-ON,,2020-09-18,,,,,-3,
NA,Namibia,Oshana Region,,,NA-ON,,2020-09-19,,,,,0,
NA,Namibia,Oshana Region,,,NA-ON,,2020-09-21,,,,,-6,
NA,Namibia,Oshikoto Region,,,NA-OT,,2020-02-17,,,,,1,
NA,Namibia,Oshikoto Region,,,NA-OT,,2020-02-18,,,,,2,
NA,Namibia,Oshikoto Region,,,NA-OT,,2020-02-19,,,,,-5,
NA,Namibia,Oshikoto Region,,,NA-OT,,2020-02-20,,,,,6,
NA,Namibia,Oshikoto Region,,,NA-OT,,2020-02-21,,,,,5,
NA,Namibia,Oshikoto Region,,,NA-OT,,2020-02-24,,,,,3,
NA,Namibia,Oshikoto Region,,,NA-OT,,2020-02-25,,,,,9,
NA,Namibia,Oshikoto Region,,,NA-OT,,2020-02-26,,,,,5,
NA,Namibia,Oshikoto Region,,,NA-OT,,2020-02-27,,,,,6,
NA,Namibia,Oshikoto Region,,,NA-OT,,2020-02-28,,,,,7,
NA,Namibia,Oshikoto Region,,,NA-OT,,2020-03-02,,,,,9,
NA,Namibia,Oshikoto Region,,,NA-OT,,2020-03-03,,,,,12,
NA,Namibia,Oshikoto Region,,,NA-OT,,2020-03-04,,,,,8,
NA,Namibia,Oshikoto Region,,,NA-OT,,2020-03-05,,,,,11,
NA,Namibia,Oshikoto Region,,,NA-OT,,2020-03-06,,,,,11,
NA,Namibia,Oshikoto Region,,,NA-OT,,2020-03-09,,,,,3,
NA,Namibia,Oshikoto Region,,,NA-OT,,2020-03-10,,,,,16,
NA,Namibia,Oshikoto Region,,,NA-OT,,2020-03-11,,,,,6,
NA,Namibia,Oshikoto Region,,,NA-OT,,2020-03-12,,,,,14,
NA,Namibia,Oshikoto Region,,,NA-OT,,2020-03-13,,,,,8,
NA,Namibia,Oshikoto Region,,,NA-OT,,2020-03-16,,,,,-9,
NA,Namibia,Oshikoto Region,,,NA-OT,,2020-03-17,,,,,-8,
NA,Namibia,Oshikoto Region,,,NA-OT,,2020-03-18,,,,,-17,
NA,Namibia,Oshikoto Region,,,NA-OT,,2020-03-19,,,,,-17,
NA,Namibia,Oshikoto Region,,,NA-OT,,2020-03-20,,,,,-13,
NA,Namibia,Oshikoto Region,,,NA-OT,,2020-03-23,,,,,-16,
NA,Namibia,Oshikoto Region,,,NA-OT,,2020-03-24,,,,,-19,
NA,Namibia,Oshikoto Region,,,NA-OT,,2020-03-25,,,,,-18,
NA,Namibia,Oshikoto Region,,,NA-OT,,2020-03-26,,,,,-17,
NA,Namibia,Oshikoto Region,,,NA-OT,,2020-03-27,,,,,-18,
NA,Namibia,Oshikoto Region,,,NA-OT,,2020-03-30,,,,,-30,
NA,Namibia,Oshikoto Region,,,NA-OT,,2020-03-31,,,,,-27,
NA,Namibia,Oshikoto Region,,,NA-OT,,2020-04-01,,,,,-35,
NA,Namibia,Oshikoto Region,,,NA-OT,,2020-04-02,,,,,-34,
NA,Namibia,Oshikoto Region,,,NA-OT,,2020-04-03,,,,,-38,
NA,Namibia,Oshikoto Region,,,NA-OT,,2020-04-06,,,,,-43,
NA,Namibia,Oshikoto Region,,,NA-OT,,2020-04-07,,,,,-41,
NA,Namibia,Oshikoto Region,,,NA-OT,,2020-04-08,,,,,-42,
NA,Namibia,Oshikoto Region,,,NA-OT,,2020-04-09,,,,,-46,
NA,Namibia,Oshikoto Region,,,NA-OT,,2020-04-10,,,,,-70,
NA,Namibia,Oshikoto Region,,,NA-OT,,2020-04-13,,,,,-70,
NA,Namibia,Oshikoto Region,,,NA-OT,,2020-04-14,,,,,-36,
NA,Namibia,Oshikoto Region,,,NA-OT,,2020-04-15,,,,,-42,
NA,Namibia,Oshikoto Region,,,NA-OT,,2020-04-16,,,,,-35,
NA,Namibia,Oshikoto Region,,,NA-OT,,2020-04-17,,,,,-38,
NA,Namibia,Oshikoto Region,,,NA-OT,,2020-04-20,,,,,-36,
NA,Namibia,Oshikoto Region,,,NA-OT,,2020-04-21,,,,,-37,
NA,Namibia,Oshikoto Region,,,NA-OT,,2020-04-22,,,,,-36,
NA,Namibia,Oshikoto Region,,,NA-OT,,2020-04-23,,,,,-37,
NA,Namibia,Oshikoto Region,,,NA-OT,,2020-04-24,,,,,-36,
NA,Namibia,Oshikoto Region,,,NA-OT,,2020-04-27,,,,,-30,
NA,Namibia,Oshikoto Region,,,NA-OT,,2020-04-28,,,,,-31,
NA,Namibia,Oshikoto Region,,,NA-OT,,2020-04-29,,,,,-33,
NA,Namibia,Oshikoto Region,,,NA-OT,,2020-04-30,,,,,-36,
NA,Namibia,Oshikoto Region,,,NA-OT,,2020-05-01,,,,,-59,
NA,Namibia,Oshikoto Region,,,NA-OT,,2020-05-04,,,,,-66,
NA,Namibia,Oshikoto Region,,,NA-OT,,2020-05-05,,,,,-20,
NA,Namibia,Oshikoto Region,,,NA-OT,,2020-05-06,,,,,-12,
NA,Namibia,Oshikoto Region,,,NA-OT,,2020-05-07,,,,,-12,
NA,Namibia,Oshikoto Region,,,NA-OT,,2020-05-08,,,,,-9,
NA,Namibia,Oshikoto Region,,,NA-OT,,2020-05-11,,,,,-6,
NA,Namibia,Oshikoto Region,,,NA-OT,,2020-05-12,,,,,-2,
NA,Namibia,Oshikoto Region,,,NA-OT,,2020-05-13,,,,,-6,
NA,Namibia,Oshikoto Region,,,NA-OT,,2020-05-14,,,,,-4,
NA,Namibia,Oshikoto Region,,,NA-OT,,2020-05-15,,,,,5,
NA,Namibia,Oshikoto Region,,,NA-OT,,2020-05-18,,,,,-7,
NA,Namibia,Oshikoto Region,,,NA-OT,,2020-05-19,,,,,-5,
NA,Namibia,Oshikoto Region,,,NA-OT,,2020-05-20,,,,,-5,
NA,Namibia,Oshikoto Region,,,NA-OT,,2020-05-21,,,,,-57,
NA,Namibia,Oshikoto Region,,,NA-OT,,2020-05-22,,,,,-20,
NA,Namibia,Oshikoto Region,,,NA-OT,,2020-05-25,,,,,-56,
NA,Namibia,Oshikoto Region,,,NA-OT,,2020-05-26,,,,,-8,
NA,Namibia,Oshikoto Region,,,NA-OT,,2020-05-27,,,,,-15,
NA,Namibia,Oshikoto Region,,,NA-OT,,2020-05-28,,,,,-7,
NA,Namibia,Oshikoto Region,,,NA-OT,,2020-05-29,,,,,-5,
NA,Namibia,Oshikoto Region,,,NA-OT,,2020-06-01,,,,,-2,
NA,Namibia,Oshikoto Region,,,NA-OT,,2020-06-02,,,,,4,
NA,Namibia,Oshikoto Region,,,NA-OT,,2020-06-03,,,,,2,
NA,Namibia,Oshikoto Region,,,NA-OT,,2020-06-04,,,,,-1,
NA,Namibia,Oshikoto Region,,,NA-OT,,2020-06-05,,,,,9,
NA,Namibia,Oshikoto Region,,,NA-OT,,2020-06-08,,,,,1,
NA,Namibia,Oshikoto Region,,,NA-OT,,2020-06-09,,,,,5,
NA,Namibia,Oshikoto Region,,,NA-OT,,2020-06-10,,,,,-2,
NA,Namibia,Oshikoto Region,,,NA-OT,,2020-06-11,,,,,-3,
NA,Namibia,Oshikoto Region,,,NA-OT,,2020-06-12,,,,,1,
NA,Namibia,Oshikoto Region,,,NA-OT,,2020-06-15,,,,,2,
NA,Namibia,Oshikoto Region,,,NA-OT,,2020-06-16,,,,,5,
NA,Namibia,Oshikoto Region,,,NA-OT,,2020-06-17,,,,,3,
NA,Namibia,Oshikoto Region,,,NA-OT,,2020-06-18,,,,,0,
NA,Namibia,Oshikoto Region,,,NA-OT,,2020-06-19,,,,,9,
NA,Namibia,Oshikoto Region,,,NA-OT,,2020-06-22,,,,,3,
NA,Namibia,Oshikoto Region,,,NA-OT,,2020-06-23,,,,,9,
NA,Namibia,Oshikoto Region,,,NA-OT,,2020-06-24,,,,,-1,
NA,Namibia,Oshikoto Region,,,NA-OT,,2020-06-25,,,,,3,
NA,Namibia,Oshikoto Region,,,NA-OT,,2020-06-26,,,,,4,
NA,Namibia,Oshikoto Region,,,NA-OT,,2020-06-29,,,,,3,
NA,Namibia,Oshikoto Region,,,NA-OT,,2020-06-30,,,,,11,
NA,Namibia,Oshikoto Region,,,NA-OT,,2020-07-01,,,,,5,
NA,Namibia,Oshikoto Region,,,NA-OT,,2020-07-02,,,,,-1,
NA,Namibia,Oshikoto Region,,,NA-OT,,2020-07-03,,,,,4,
NA,Namibia,Oshikoto Region,,,NA-OT,,2020-07-06,,,,,1,
NA,Namibia,Oshikoto Region,,,NA-OT,,2020-07-07,,,,,4,
NA,Namibia,Oshikoto Region,,,NA-OT,,2020-07-08,,,,,3,
NA,Namibia,Oshikoto Region,,,NA-OT,,2020-07-09,,,,,0,
NA,Namibia,Oshikoto Region,,,NA-OT,,2020-07-10,,,,,7,
NA,Namibia,Oshikoto Region,,,NA-OT,,2020-07-13,,,,,0,
NA,Namibia,Oshikoto Region,,,NA-OT,,2020-07-14,,,,,3,
NA,Namibia,Oshikoto Region,,,NA-OT,,2020-07-15,,,,,1,
NA,Namibia,Oshikoto Region,,,NA-OT,,2020-07-16,,,,,1,
NA,Namibia,Oshikoto Region,,,NA-OT,,2020-07-17,,,,,4,
NA,Namibia,Oshikoto Region,,,NA-OT,,2020-07-20,,,,,-1,
NA,Namibia,Oshikoto Region,,,NA-OT,,2020-07-21,,,,,-1,
NA,Namibia,Oshikoto Region,,,NA-OT,,2020-07-22,,,,,-1,
NA,Namibia,Oshikoto Region,,,NA-OT,,2020-07-23,,,,,-1,
NA,Namibia,Oshikoto Region,,,NA-OT,,2020-07-24,,,,,5,
NA,Namibia,Oshikoto Region,,,NA-OT,,2020-07-27,,,,,2,
NA,Namibia,Oshikoto Region,,,NA-OT,,2020-07-28,,,,,0,
NA,Namibia,Oshikoto Region,,,NA-OT,,2020-07-29,,,,,-2,
NA,Namibia,Oshikoto Region,,,NA-OT,,2020-07-30,,,,,0,
NA,Namibia,Oshikoto Region,,,NA-OT,,2020-07-31,,,,,1,
NA,Namibia,Oshikoto Region,,,NA-OT,,2020-08-03,,,,,-2,
NA,Namibia,Oshikoto Region,,,NA-OT,,2020-08-04,,,,,2,
NA,Namibia,Oshikoto Region,,,NA-OT,,2020-08-05,,,,,5,
NA,Namibia,Oshikoto Region,,,NA-OT,,2020-08-06,,,,,3,
NA,Namibia,Oshikoto Region,,,NA-OT,,2020-08-07,,,,,2,
NA,Namibia,Oshikoto Region,,,NA-OT,,2020-08-10,,,,,1,
NA,Namibia,Oshikoto Region,,,NA-OT,,2020-08-11,,,,,3,
NA,Namibia,Oshikoto Region,,,NA-OT,,2020-08-12,,,,,6,
NA,Namibia,Oshikoto Region,,,NA-OT,,2020-08-13,,,,,0,
NA,Namibia,Oshikoto Region,,,NA-OT,,2020-08-14,,,,,9,
NA,Namibia,Oshikoto Region,,,NA-OT,,2020-08-17,,,,,2,
NA,Namibia,Oshikoto Region,,,NA-OT,,2020-08-18,,,,,0,
NA,Namibia,Oshikoto Region,,,NA-OT,,2020-08-19,,,,,-6,
NA,Namibia,Oshikoto Region,,,NA-OT,,2020-08-20,,,,,-1,
NA,Namibia,Oshikoto Region,,,NA-OT,,2020-08-21,,,,,-4,
NA,Namibia,Oshikoto Region,,,NA-OT,,2020-08-24,,,,,-16,
NA,Namibia,Oshikoto Region,,,NA-OT,,2020-08-25,,,,,-14,
NA,Namibia,Oshikoto Region,,,NA-OT,,2020-08-26,,,,,-54,
NA,Namibia,Oshikoto Region,,,NA-OT,,2020-08-27,,,,,-15,
NA,Namibia,Oshikoto Region,,,NA-OT,,2020-08-28,,,,,-14,
NA,Namibia,Oshikoto Region,,,NA-OT,,2020-08-31,,,,,-8,
NA,Namibia,Oshikoto Region,,,NA-OT,,2020-09-01,,,,,-5,
NA,Namibia,Oshikoto Region,,,NA-OT,,2020-09-02,,,,,-5,
NA,Namibia,Oshikoto Region,,,NA-OT,,2020-09-03,,,,,-8,
NA,Namibia,Oshikoto Region,,,NA-OT,,2020-09-04,,,,,-6,
NA,Namibia,Oshikoto Region,,,NA-OT,,2020-09-07,,,,,-8,
NA,Namibia,Oshikoto Region,,,NA-OT,,2020-09-08,,,,,-4,
NA,Namibia,Oshikoto Region,,,NA-OT,,2020-09-09,,,,,-6,
NA,Namibia,Oshikoto Region,,,NA-OT,,2020-09-10,,,,,-11,
NA,Namibia,Oshikoto Region,,,NA-OT,,2020-09-11,,,,,-8,
NA,Namibia,Oshikoto Region,,,NA-OT,,2020-09-14,,,,,-6,
NA,Namibia,Oshikoto Region,,,NA-OT,,2020-09-15,,,,,-8,
NA,Namibia,Oshikoto Region,,,NA-OT,,2020-09-16,,,,,-9,
NA,Namibia,Oshikoto Region,,,NA-OT,,2020-09-17,,,,,-11,
NA,Namibia,Oshikoto Region,,,NA-OT,,2020-09-18,,,,,-7,
NA,Namibia,Oshikoto Region,,,NA-OT,,2020-09-21,,,,,-8,
NA,Namibia,Otjozondjupa Region,,,NA-OD,,2020-02-15,,,,,0,
NA,Namibia,Otjozondjupa Region,,,NA-OD,,2020-02-17,,,,,2,
NA,Namibia,Otjozondjupa Region,,,NA-OD,,2020-02-18,,,,,1,
NA,Namibia,Otjozondjupa Region,,,NA-OD,,2020-02-19,,,,,2,
NA,Namibia,Otjozondjupa Region,,,NA-OD,,2020-02-20,,,,,4,
NA,Namibia,Otjozondjupa Region,,,NA-OD,,2020-02-21,,,,,6,
NA,Namibia,Otjozondjupa Region,,,NA-OD,,2020-02-22,,,,,2,
NA,Namibia,Otjozondjupa Region,,,NA-OD,,2020-02-24,,,,,7,
NA,Namibia,Otjozondjupa Region,,,NA-OD,,2020-02-25,,,,,7,
NA,Namibia,Otjozondjupa Region,,,NA-OD,,2020-02-26,,,,,7,
NA,Namibia,Otjozondjupa Region,,,NA-OD,,2020-02-27,,,,,4,
NA,Namibia,Otjozondjupa Region,,,NA-OD,,2020-02-28,,,,,6,
NA,Namibia,Otjozondjupa Region,,,NA-OD,,2020-02-29,,,,,2,
NA,Namibia,Otjozondjupa Region,,,NA-OD,,2020-03-02,,,,,7,
NA,Namibia,Otjozondjupa Region,,,NA-OD,,2020-03-03,,,,,6,
NA,Namibia,Otjozondjupa Region,,,NA-OD,,2020-03-04,,,,,8,
NA,Namibia,Otjozondjupa Region,,,NA-OD,,2020-03-05,,,,,8,
NA,Namibia,Otjozondjupa Region,,,NA-OD,,2020-03-06,,,,,12,
NA,Namibia,Otjozondjupa Region,,,NA-OD,,2020-03-07,,,,,6,
NA,Namibia,Otjozondjupa Region,,,NA-OD,,2020-03-09,,,,,5,
NA,Namibia,Otjozondjupa Region,,,NA-OD,,2020-03-10,,,,,2,
NA,Namibia,Otjozondjupa Region,,,NA-OD,,2020-03-11,,,,,7,
NA,Namibia,Otjozondjupa Region,,,NA-OD,,2020-03-12,,,,,7,
NA,Namibia,Otjozondjupa Region,,,NA-OD,,2020-03-13,,,,,10,
NA,Namibia,Otjozondjupa Region,,,NA-OD,,2020-03-14,,,,,2,
NA,Namibia,Otjozondjupa Region,,,NA-OD,,2020-03-16,,,,,-3,
NA,Namibia,Otjozondjupa Region,,,NA-OD,,2020-03-17,,,,,-11,
NA,Namibia,Otjozondjupa Region,,,NA-OD,,2020-03-18,,,,,-9,
NA,Namibia,Otjozondjupa Region,,,NA-OD,,2020-03-19,,,,,-9,
NA,Namibia,Otjozondjupa Region,,,NA-OD,,2020-03-20,,,,,-7,
NA,Namibia,Otjozondjupa Region,,,NA-OD,,2020-03-21,,,,,-20,
NA,Namibia,Otjozondjupa Region,,,NA-OD,,2020-03-23,,,,,-11,
NA,Namibia,Otjozondjupa Region,,,NA-OD,,2020-03-24,,,,,-12,
NA,Namibia,Otjozondjupa Region,,,NA-OD,,2020-03-25,,,,,-12,
NA,Namibia,Otjozondjupa Region,,,NA-OD,,2020-03-26,,,,,-18,
NA,Namibia,Otjozondjupa Region,,,NA-OD,,2020-03-27,,,,,-14,
NA,Namibia,Otjozondjupa Region,,,NA-OD,,2020-03-28,,,,,-12,
NA,Namibia,Otjozondjupa Region,,,NA-OD,,2020-03-30,,,,,-38,
NA,Namibia,Otjozondjupa Region,,,NA-OD,,2020-03-31,,,,,-37,
NA,Namibia,Otjozondjupa Region,,,NA-OD,,2020-04-01,,,,,-43,
NA,Namibia,Otjozondjupa Region,,,NA-OD,,2020-04-02,,,,,-45,
NA,Namibia,Otjozondjupa Region,,,NA-OD,,2020-04-03,,,,,-40,
NA,Namibia,Otjozondjupa Region,,,NA-OD,,2020-04-04,,,,,-18,
NA,Namibia,Otjozondjupa Region,,,NA-OD,,2020-04-06,,,,,-44,
NA,Namibia,Otjozondjupa Region,,,NA-OD,,2020-04-07,,,,,-46,
NA,Namibia,Otjozondjupa Region,,,NA-OD,,2020-04-08,,,,,-48,
NA,Namibia,Otjozondjupa Region,,,NA-OD,,2020-04-09,,,,,-49,
NA,Namibia,Otjozondjupa Region,,,NA-OD,,2020-04-10,,-70,,,-74,
NA,Namibia,Otjozondjupa Region,,,NA-OD,,2020-04-11,,,,,-38,
NA,Namibia,Otjozondjupa Region,,,NA-OD,,2020-04-13,,,,,-76,
NA,Namibia,Otjozondjupa Region,,,NA-OD,,2020-04-14,,,,,-42,
NA,Namibia,Otjozondjupa Region,,,NA-OD,,2020-04-15,,,,,-45,
NA,Namibia,Otjozondjupa Region,,,NA-OD,,2020-04-16,,,,,-43,
NA,Namibia,Otjozondjupa Region,,,NA-OD,,2020-04-17,,,,,-39,
NA,Namibia,Otjozondjupa Region,,,NA-OD,,2020-04-18,,,,,-29,
NA,Namibia,Otjozondjupa Region,,,NA-OD,,2020-04-20,,,,,-44,
NA,Namibia,Otjozondjupa Region,,,NA-OD,,2020-04-21,,,,,-44,
NA,Namibia,Otjozondjupa Region,,,NA-OD,,2020-04-22,,,,,-41,
NA,Namibia,Otjozondjupa Region,,,NA-OD,,2020-04-23,,,,,-42,
NA,Namibia,Otjozondjupa Region,,,NA-OD,,2020-04-24,,,,,-35,
NA,Namibia,Otjozondjupa Region,,,NA-OD,,2020-04-25,,,,,-23,
NA,Namibia,Otjozondjupa Region,,,NA-OD,,2020-04-27,,,,,-38,
NA,Namibia,Otjozondjupa Region,,,NA-OD,,2020-04-28,,,,,-35,
NA,Namibia,Otjozondjupa Region,,,NA-OD,,2020-04-29,,,,,-34,
NA,Namibia,Otjozondjupa Region,,,NA-OD,,2020-04-30,,,,,-34,
NA,Namibia,Otjozondjupa Region,,,NA-OD,,2020-05-01,,,,,-64,
NA,Namibia,Otjozondjupa Region,,,NA-OD,,2020-05-02,,,,,-5,
NA,Namibia,Otjozondjupa Region,,,NA-OD,,2020-05-04,,,,,-68,
NA,Namibia,Otjozondjupa Region,,,NA-OD,,2020-05-05,,,,,-15,
NA,Namibia,Otjozondjupa Region,,,NA-OD,,2020-05-06,,,,,-12,
NA,Namibia,Otjozondjupa Region,,,NA-OD,,2020-05-07,,,,,-11,
NA,Namibia,Otjozondjupa Region,,,NA-OD,,2020-05-08,,,,,-4,
NA,Namibia,Otjozondjupa Region,,,NA-OD,,2020-05-09,,,,,1,
NA,Namibia,Otjozondjupa Region,,,NA-OD,,2020-05-11,,,,,-6,
NA,Namibia,Otjozondjupa Region,,,NA-OD,,2020-05-12,,,,,-8,
NA,Namibia,Otjozondjupa Region,,,NA-OD,,2020-05-13,,,,,-8,
NA,Namibia,Otjozondjupa Region,,,NA-OD,,2020-05-14,,,,,-7,
NA,Namibia,Otjozondjupa Region,,,NA-OD,,2020-05-15,,,,,-2,
NA,Namibia,Otjozondjupa Region,,,NA-OD,,2020-05-16,,,,,10,
NA,Namibia,Otjozondjupa Region,,,NA-OD,,2020-05-18,,,,,-4,
NA,Namibia,Otjozondjupa Region,,,NA-OD,,2020-05-19,,,,,-7,
NA,Namibia,Otjozondjupa Region,,,NA-OD,,2020-05-20,,,,,-8,
NA,Namibia,Otjozondjupa Region,,,NA-OD,,2020-05-21,,,,,-59,
NA,Namibia,Otjozondjupa Region,,,NA-OD,,2020-05-22,,,,,-26,
NA,Namibia,Otjozondjupa Region,,,NA-OD,,2020-05-23,,,,,-4,
NA,Namibia,Otjozondjupa Region,,,NA-OD,,2020-05-25,,,,,-66,
NA,Namibia,Otjozondjupa Region,,,NA-OD,,2020-05-26,,,,,-12,
NA,Namibia,Otjozondjupa Region,,,NA-OD,,2020-05-27,,,,,-10,
NA,Namibia,Otjozondjupa Region,,,NA-OD,,2020-05-28,,,,,-8,
NA,Namibia,Otjozondjupa Region,,,NA-OD,,2020-05-29,,,,,-5,
NA,Namibia,Otjozondjupa Region,,,NA-OD,,2020-05-30,,,,,11,
NA,Namibia,Otjozondjupa Region,,,NA-OD,,2020-06-01,,,,,4,
NA,Namibia,Otjozondjupa Region,,,NA-OD,,2020-06-02,,,,,-3,
NA,Namibia,Otjozondjupa Region,,,NA-OD,,2020-06-03,,,,,-1,
NA,Namibia,Otjozondjupa Region,,,NA-OD,,2020-06-04,,,,,-2,
NA,Namibia,Otjozondjupa Region,,,NA-OD,,2020-06-05,,,,,2,
NA,Namibia,Otjozondjupa Region,,,NA-OD,,2020-06-06,,,,,2,
NA,Namibia,Otjozondjupa Region,,,NA-OD,,2020-06-08,,,,,-1,
NA,Namibia,Otjozondjupa Region,,,NA-OD,,2020-06-09,,,,,-1,
NA,Namibia,Otjozondjupa Region,,,NA-OD,,2020-06-10,,,,,-3,
NA,Namibia,Otjozondjupa Region,,,NA-OD,,2020-06-11,,,,,-3,
NA,Namibia,Otjozondjupa Region,,,NA-OD,,2020-06-12,,,,,3,
NA,Namibia,Otjozondjupa Region,,,NA-OD,,2020-06-13,,,,,5,
NA,Namibia,Otjozondjupa Region,,,NA-OD,,2020-06-15,,,,,-2,
NA,Namibia,Otjozondjupa Region,,,NA-OD,,2020-06-16,,,,,0,
NA,Namibia,Otjozondjupa Region,,,NA-OD,,2020-06-17,,,,,-3,
NA,Namibia,Otjozondjupa Region,,,NA-OD,,2020-06-18,,,,,-3,
NA,Namibia,Otjozondjupa Region,,,NA-OD,,2020-06-19,,,,,4,
NA,Namibia,Otjozondjupa Region,,,NA-OD,,2020-06-20,,,,,11,
NA,Namibia,Otjozondjupa Region,,,NA-OD,,2020-06-22,,,,,1,
NA,Namibia,Otjozondjupa Region,,,NA-OD,,2020-06-23,,,,,-2,
NA,Namibia,Otjozondjupa Region,,,NA-OD,,2020-06-24,,,,,-4,
NA,Namibia,Otjozondjupa Region,,,NA-OD,,2020-06-25,,,,,-2,
NA,Namibia,Otjozondjupa Region,,,NA-OD,,2020-06-26,,,,,-1,
NA,Namibia,Otjozondjupa Region,,,NA-OD,,2020-06-27,,,,,5,
NA,Namibia,Otjozondjupa Region,,,NA-OD,,2020-06-29,,,,,-1,
NA,Namibia,Otjozondjupa Region,,,NA-OD,,2020-06-30,,,,,1,
NA,Namibia,Otjozondjupa Region,,,NA-OD,,2020-07-01,,,,,1,
NA,Namibia,Otjozondjupa Region,,,NA-OD,,2020-07-02,,,,,2,
NA,Namibia,Otjozondjupa Region,,,NA-OD,,2020-07-03,,,,,3,
NA,Namibia,Otjozondjupa Region,,,NA-OD,,2020-07-04,,,,,4,
NA,Namibia,Otjozondjupa Region,,,NA-OD,,2020-07-06,,,,,0,
NA,Namibia,Otjozondjupa Region,,,NA-OD,,2020-07-07,,,,,-4,
NA,Namibia,Otjozondjupa Region,,,NA-OD,,2020-07-08,,,,,-1,
NA,Namibia,Otjozondjupa Region,,,NA-OD,,2020-07-09,,,,,0,
NA,Namibia,Otjozondjupa Region,,,NA-OD,,2020-07-10,,,,,1,
NA,Namibia,Otjozondjupa Region,,,NA-OD,,2020-07-11,,,,,1,
NA,Namibia,Otjozondjupa Region,,,NA-OD,,2020-07-13,,,,,-1,
NA,Namibia,Otjozondjupa Region,,,NA-OD,,2020-07-14,,,,,-2,
NA,Namibia,Otjozondjupa Region,,,NA-OD,,2020-07-15,,,,,1,
NA,Namibia,Otjozondjupa Region,,,NA-OD,,2020-07-16,,,,,-2,
NA,Namibia,Otjozondjupa Region,,,NA-OD,,2020-07-17,,,,,1,
NA,Namibia,Otjozondjupa Region,,,NA-OD,,2020-07-18,,,,,1,
NA,Namibia,Otjozondjupa Region,,,NA-OD,,2020-07-20,,,,,-2,
NA,Namibia,Otjozondjupa Region,,,NA-OD,,2020-07-21,,,,,-2,
NA,Namibia,Otjozondjupa Region,,,NA-OD,,2020-07-22,,,,,1,
NA,Namibia,Otjozondjupa Region,,,NA-OD,,2020-07-23,,,,,1,
NA,Namibia,Otjozondjupa Region,,,NA-OD,,2020-07-24,,,,,4,
NA,Namibia,Otjozondjupa Region,,,NA-OD,,2020-07-25,,,,,5,
NA,Namibia,Otjozondjupa Region,,,NA-OD,,2020-07-27,,,,,-2,
NA,Namibia,Otjozondjupa Region,,,NA-OD,,2020-07-28,,,,,-3,
NA,Namibia,Otjozondjupa Region,,,NA-OD,,2020-07-29,,,,,0,
NA,Namibia,Otjozondjupa Region,,,NA-OD,,2020-07-30,,,,,-5,
NA,Namibia,Otjozondjupa Region,,,NA-OD,,2020-07-31,,,,,-2,
NA,Namibia,Otjozondjupa Region,,,NA-OD,,2020-08-01,,,,,0,
NA,Namibia,Otjozondjupa Region,,,NA-OD,,2020-08-03,,,,,-6,
NA,Namibia,Otjozondjupa Region,,,NA-OD,,2020-08-04,,,,,-4,
NA,Namibia,Otjozondjupa Region,,,NA-OD,,2020-08-05,,,,,-4,
NA,Namibia,Otjozondjupa Region,,,NA-OD,,2020-08-06,,,,,-4,
NA,Namibia,Otjozondjupa Region,,,NA-OD,,2020-08-07,,,,,-3,
NA,Namibia,Otjozondjupa Region,,,NA-OD,,2020-08-08,,,,,1,
NA,Namibia,Otjozondjupa Region,,,NA-OD,,2020-08-10,,,,,-6,
NA,Namibia,Otjozondjupa Region,,,NA-OD,,2020-08-11,,,,,-4,
NA,Namibia,Otjozondjupa Region,,,NA-OD,,2020-08-12,,,,,-6,
NA,Namibia,Otjozondjupa Region,,,NA-OD,,2020-08-13,,,,,-7,
NA,Namibia,Otjozondjupa Region,,,NA-OD,,2020-08-14,,,,,-1,
NA,Namibia,Otjozondjupa Region,,,NA-OD,,2020-08-15,,,,,4,
NA,Namibia,Otjozondjupa Region,,,NA-OD,,2020-08-17,,,,,-9,
NA,Namibia,Otjozondjupa Region,,,NA-OD,,2020-08-18,,,,,-10,
NA,Namibia,Otjozondjupa Region,,,NA-OD,,2020-08-19,,,,,-13,
NA,Namibia,Otjozondjupa Region,,,NA-OD,,2020-08-20,,,,,-10,
NA,Namibia,Otjozondjupa Region,,,NA-OD,,2020-08-21,,,,,-8,
NA,Namibia,Otjozondjupa Region,,,NA-OD,,2020-08-22,,,,,-2,
NA,Namibia,Otjozondjupa Region,,,NA-OD,,2020-08-24,,,,,-20,
NA,Namibia,Otjozondjupa Region,,,NA-OD,,2020-08-25,,,,,-22,
NA,Namibia,Otjozondjupa Region,,,NA-OD,,2020-08-26,,,,,-62,
NA,Namibia,Otjozondjupa Region,,,NA-OD,,2020-08-27,,,,,-22,
NA,Namibia,Otjozondjupa Region,,,NA-OD,,2020-08-28,,,,,-19,
NA,Namibia,Otjozondjupa Region,,,NA-OD,,2020-08-29,,,,,-3,
NA,Namibia,Otjozondjupa Region,,,NA-OD,,2020-08-31,,,,,-11,
NA,Namibia,Otjozondjupa Region,,,NA-OD,,2020-09-01,,,,,-14,
NA,Namibia,Otjozondjupa Region,,,NA-OD,,2020-09-02,,,,,-11,
NA,Namibia,Otjozondjupa Region,,,NA-OD,,2020-09-03,,,,,-12,
NA,Namibia,Otjozondjupa Region,,,NA-OD,,2020-09-04,,,,,-7,
NA,Namibia,Otjozondjupa Region,,,NA-OD,,2020-09-05,,,,,-1,
NA,Namibia,Otjozondjupa Region,,,NA-OD,,2020-09-07,,,,,-13,
NA,Namibia,Otjozondjupa Region,,,NA-OD,,2020-09-08,,,,,-15,
NA,Namibia,Otjozondjupa Region,,,NA-OD,,2020-09-09,,,,,-14,
NA,Namibia,Otjozondjupa Region,,,NA-OD,,2020-09-10,,,,,-17,
NA,Namibia,Otjozondjupa Region,,,NA-OD,,2020-09-11,,,,,-10,
NA,Namibia,Otjozondjupa Region,,,NA-OD,,2020-09-12,,,,,-12,
NA,Namibia,Otjozondjupa Region,,,NA-OD,,2020-09-14,,,,,-16,
NA,Namibia,Otjozondjupa Region,,,NA-OD,,2020-09-15,,,,,-18,
NA,Namibia,Otjozondjupa Region,,,NA-OD,,2020-09-16,,,,,-16,
NA,Namibia,Otjozondjupa Region,,,NA-OD,,2020-09-17,,,,,-15,
NA,Namibia,Otjozondjupa Region,,,NA-OD,,2020-09-18,,,,,-11,
NA,Namibia,Otjozondjupa Region,,,NA-OD,,2020-09-19,,,,,-6,
NA,Namibia,Otjozondjupa Region,,,NA-OD,,2020-09-21,,,,,-12,
NA,Namibia,Zambezi Region,,,NA-CA,,2020-04-13,,,,,-59,
