country_region_code,country_region,sub_region_1,sub_region_2,metro_area,iso_3166_2_code,census_fips_code,date,retail_and_recreation_percent_change_from_baseline,grocery_and_pharmacy_percent_change_from_baseline,parks_percent_change_from_baseline,transit_stations_percent_change_from_baseline,workplaces_percent_change_from_baseline,residential_percent_change_from_baseline
MN,Mongolia,,,,,,2020-02-15,-6,6,-18,-4,-1,3
MN,Mongolia,,,,,,2020-02-16,-5,10,2,-6,-1,1
MN,Mongolia,,,,,,2020-02-17,-3,4,-8,-7,-3,3
MN,Mongolia,,,,,,2020-02-18,-2,9,-6,-8,-4,3
MN,Mongolia,,,,,,2020-02-19,-1,11,-12,-4,-3,3
MN,Mongolia,,,,,,2020-02-20,-1,13,1,-3,-5,3
MN,Mongolia,,,,,,2020-02-21,3,23,-9,-1,-6,4
MN,Mongolia,,,,,,2020-02-22,8,34,-16,4,-6,2
MN,Mongolia,,,,,,2020-02-23,-19,15,-22,-21,-12,5
MN,Mongolia,,,,,,2020-02-24,-63,-44,-35,-37,-68,15
MN,Mongolia,,,,,,2020-02-25,-67,-47,-37,-54,-72,22
MN,Mongolia,,,,,,2020-02-26,-66,-45,-40,-57,-69,23
MN,Mongolia,,,,,,2020-02-27,-43,-25,-30,-42,-27,13
MN,Mongolia,,,,,,2020-02-28,-39,-23,-32,-41,-23,14
MN,Mongolia,,,,,,2020-02-29,-35,-21,-24,-36,-16,9
MN,Mongolia,,,,,,2020-03-01,-34,-20,-20,-42,-13,8
MN,Mongolia,,,,,,2020-03-02,-25,-15,-22,-30,-11,9
MN,Mongolia,,,,,,2020-03-03,-17,0,-16,-18,-12,3
MN,Mongolia,,,,,,2020-03-04,-14,-1,-14,-14,-7,5
MN,Mongolia,,,,,,2020-03-05,-11,2,-9,-14,-6,5
MN,Mongolia,,,,,,2020-03-06,-11,4,-9,-14,-5,6
MN,Mongolia,,,,,,2020-03-07,-5,9,-8,-10,-2,3
MN,Mongolia,,,,,,2020-03-08,-3,26,-3,-11,-8,2
MN,Mongolia,,,,,,2020-03-09,-14,-4,-13,-17,-4,5
MN,Mongolia,,,,,,2020-03-10,-28,13,-32,-25,-13,10
MN,Mongolia,,,,,,2020-03-11,-47,-22,-40,-43,-28,18
MN,Mongolia,,,,,,2020-03-12,-49,-24,-41,-41,-31,18
MN,Mongolia,,,,,,2020-03-13,-49,-20,-41,-39,-28,18
MN,Mongolia,,,,,,2020-03-14,-48,-20,-26,-37,-26,12
MN,Mongolia,,,,,,2020-03-15,-46,-17,-18,-37,-23,9
MN,Mongolia,,,,,,2020-03-16,-13,2,-17,-12,-10,6
MN,Mongolia,,,,,,2020-03-17,-15,4,-18,-15,-12,7
MN,Mongolia,,,,,,2020-03-18,-12,5,-22,-17,-11,7
MN,Mongolia,,,,,,2020-03-19,-22,-9,-22,-23,-13,9
MN,Mongolia,,,,,,2020-03-20,-21,0,-24,-20,-11,9
MN,Mongolia,,,,,,2020-03-21,-17,2,-13,-15,-6,5
MN,Mongolia,,,,,,2020-03-22,-16,1,8,-16,-7,1
MN,Mongolia,,,,,,2020-03-23,-14,1,-2,-14,-9,4
MN,Mongolia,,,,,,2020-03-24,-19,-1,-13,-16,-9,6
MN,Mongolia,,,,,,2020-03-25,-21,-5,-24,-23,-9,8
MN,Mongolia,,,,,,2020-03-26,-20,-4,-25,-21,-9,8
MN,Mongolia,,,,,,2020-03-27,-19,1,-24,-17,-8,8
MN,Mongolia,,,,,,2020-03-28,-17,1,-8,-15,-3,4
MN,Mongolia,,,,,,2020-03-29,-16,5,5,-16,-2,2
MN,Mongolia,,,,,,2020-03-30,-17,-3,-13,-16,-6,6
MN,Mongolia,,,,,,2020-03-31,-15,2,-13,-15,-6,5
MN,Mongolia,,,,,,2020-04-01,-12,6,0,-11,-6,4
MN,Mongolia,,,,,,2020-04-02,-10,7,0,-10,-5,4
MN,Mongolia,,,,,,2020-04-03,-12,9,0,-10,-5,5
MN,Mongolia,,,,,,2020-04-04,-10,14,23,-4,-3,0
MN,Mongolia,,,,,,2020-04-05,-12,11,21,-10,-2,-1
MN,Mongolia,,,,,,2020-04-06,-13,4,-11,-13,-5,4
MN,Mongolia,,,,,,2020-04-07,-12,7,-9,-11,-5,4
MN,Mongolia,,,,,,2020-04-08,-10,7,0,-8,-4,3
MN,Mongolia,,,,,,2020-04-09,-12,6,1,-13,-5,4
MN,Mongolia,,,,,,2020-04-10,-12,10,-2,-10,-5,4
MN,Mongolia,,,,,,2020-04-11,-8,15,14,-3,-1,0
MN,Mongolia,,,,,,2020-04-12,-13,11,5,-7,-1,0
MN,Mongolia,,,,,,2020-04-13,-11,4,-5,-9,-3,4
MN,Mongolia,,,,,,2020-04-14,-17,6,-12,-12,-4,4
MN,Mongolia,,,,,,2020-04-15,-16,5,-16,-13,-5,6
MN,Mongolia,,,,,,2020-04-16,-9,8,-4,-7,-3,4
MN,Mongolia,,,,,,2020-04-17,-10,14,-2,-6,-3,4
MN,Mongolia,,,,,,2020-04-18,-10,8,2,-5,3,1
MN,Mongolia,,,,,,2020-04-19,-16,2,-17,-16,2,2
MN,Mongolia,,,,,,2020-04-20,-5,7,-10,-8,0,3
MN,Mongolia,,,,,,2020-04-21,-7,10,-10,-9,-3,3
MN,Mongolia,,,,,,2020-04-22,-11,5,-9,-16,-2,4
MN,Mongolia,,,,,,2020-04-23,-10,4,2,-14,-2,5
MN,Mongolia,,,,,,2020-04-24,-11,8,-1,-14,-1,5
MN,Mongolia,,,,,,2020-04-25,-6,17,11,3,7,-1
MN,Mongolia,,,,,,2020-04-26,-3,20,40,0,7,-4
MN,Mongolia,,,,,,2020-04-27,-4,10,18,-2,1,1
MN,Mongolia,,,,,,2020-04-28,-3,16,23,-2,0,0
MN,Mongolia,,,,,,2020-04-29,-4,13,21,-2,1,0
MN,Mongolia,,,,,,2020-04-30,1,20,28,1,2,-1
MN,Mongolia,,,,,,2020-05-01,1,28,23,3,1,-1
MN,Mongolia,,,,,,2020-05-02,2,24,13,5,9,-2
MN,Mongolia,,,,,,2020-05-03,3,30,43,12,10,-5
MN,Mongolia,,,,,,2020-05-04,2,20,20,2,3,-1
MN,Mongolia,,,,,,2020-05-05,4,26,30,5,3,-1
MN,Mongolia,,,,,,2020-05-06,3,29,13,6,4,0
MN,Mongolia,,,,,,2020-05-07,1,27,18,6,-4,2
MN,Mongolia,,,,,,2020-05-08,5,31,12,10,4,1
MN,Mongolia,,,,,,2020-05-09,2,22,5,3,9,0
MN,Mongolia,,,,,,2020-05-10,4,28,16,8,12,-3
MN,Mongolia,,,,,,2020-05-11,6,24,24,8,6,-1
MN,Mongolia,,,,,,2020-05-12,10,32,37,12,6,-2
MN,Mongolia,,,,,,2020-05-13,6,28,36,11,6,-2
MN,Mongolia,,,,,,2020-05-14,5,28,35,8,6,-2
MN,Mongolia,,,,,,2020-05-15,-5,17,-6,-3,4,3
MN,Mongolia,,,,,,2020-05-16,-1,18,-4,1,11,3
MN,Mongolia,,,,,,2020-05-17,11,30,29,10,17,-2
MN,Mongolia,,,,,,2020-05-18,11,29,41,15,8,-3
MN,Mongolia,,,,,,2020-05-19,10,31,45,14,8,-2
MN,Mongolia,,,,,,2020-05-20,9,31,32,14,6,-1
MN,Mongolia,,,,,,2020-05-21,11,34,30,12,6,-1
MN,Mongolia,,,,,,2020-05-22,6,32,19,10,7,-1
MN,Mongolia,,,,,,2020-05-23,11,34,43,18,15,-5
MN,Mongolia,,,,,,2020-05-24,11,39,44,12,14,-7
MN,Mongolia,,,,,,2020-05-25,12,34,33,15,4,-4
MN,Mongolia,,,,,,2020-05-26,8,32,37,9,8,-3
MN,Mongolia,,,,,,2020-05-27,11,32,44,11,9,-3
MN,Mongolia,,,,,,2020-05-28,8,29,32,9,9,-2
MN,Mongolia,,,,,,2020-05-29,9,34,20,12,7,0
MN,Mongolia,,,,,,2020-05-30,18,42,25,20,20,-4
MN,Mongolia,,,,,,2020-05-31,28,63,57,26,21,-10
MN,Mongolia,,,,,,2020-06-01,-4,43,49,-1,-51,1
MN,Mongolia,,,,,,2020-06-02,9,32,30,12,9,-5
MN,Mongolia,,,,,,2020-06-03,13,34,41,16,10,-4
MN,Mongolia,,,,,,2020-06-04,17,42,56,19,8,-6
MN,Mongolia,,,,,,2020-06-05,-6,36,25,5,-34,1
MN,Mongolia,,,,,,2020-06-06,7,32,63,14,11,-8
MN,Mongolia,,,,,,2020-06-07,12,37,53,16,21,-10
MN,Mongolia,,,,,,2020-06-08,10,34,38,17,10,-4
MN,Mongolia,,,,,,2020-06-09,14,38,36,19,9,-5
MN,Mongolia,,,,,,2020-06-10,16,42,46,21,10,-5
MN,Mongolia,,,,,,2020-06-11,14,38,46,18,9,-5
MN,Mongolia,,,,,,2020-06-12,9,38,26,14,7,-4
MN,Mongolia,,,,,,2020-06-13,13,43,56,21,19,-9
MN,Mongolia,,,,,,2020-06-14,14,44,73,17,23,-11
MN,Mongolia,,,,,,2020-06-15,15,38,52,17,8,-7
MN,Mongolia,,,,,,2020-06-16,17,44,68,19,7,-7
MN,Mongolia,,,,,,2020-06-17,17,42,62,23,8,-7
MN,Mongolia,,,,,,2020-06-18,15,37,66,17,7,-7
MN,Mongolia,,,,,,2020-06-19,11,42,43,15,5,-7
MN,Mongolia,,,,,,2020-06-20,14,41,82,18,20,-11
MN,Mongolia,,,,,,2020-06-21,15,38,58,16,21,-10
MN,Mongolia,,,,,,2020-06-22,21,39,66,24,5,-7
MN,Mongolia,,,,,,2020-06-23,21,49,47,25,2,-7
MN,Mongolia,,,,,,2020-06-24,-5,34,23,14,-46,2
MN,Mongolia,,,,,,2020-06-25,14,38,54,15,1,-4
MN,Mongolia,,,,,,2020-06-26,14,48,63,17,0,-6
MN,Mongolia,,,,,,2020-06-27,11,45,98,17,8,-10
MN,Mongolia,,,,,,2020-06-28,12,44,94,12,8,-12
MN,Mongolia,,,,,,2020-06-29,15,37,81,17,-1,-7
MN,Mongolia,,,,,,2020-06-30,18,49,82,20,-1,-8
MN,Mongolia,,,,,,2020-07-01,21,50,86,25,-2,-8
MN,Mongolia,,,,,,2020-07-02,23,52,95,22,-3,-7
MN,Mongolia,,,,,,2020-07-03,19,54,81,22,-4,-7
MN,Mongolia,,,,,,2020-07-04,21,52,99,25,7,-11
MN,Mongolia,,,,,,2020-07-05,23,54,103,23,10,-13
MN,Mongolia,,,,,,2020-07-06,26,49,89,26,-5,-9
MN,Mongolia,,,,,,2020-07-07,30,62,91,28,-6,-9
MN,Mongolia,,,,,,2020-07-08,30,61,86,30,-7,-9
MN,Mongolia,,,,,,2020-07-09,35,75,104,39,-9,-9
MN,Mongolia,,,,,,2020-07-10,35,94,61,38,-18,-9
MN,Mongolia,,,,,,2020-07-11,-19,35,141,-12,-42,-14
MN,Mongolia,,,,,,2020-07-12,-25,21,,-29,-39,-16
MN,Mongolia,,,,,,2020-07-13,-34,6,139,-37,-69,-6
MN,Mongolia,,,,,,2020-07-14,-28,11,121,-31,-66,-4
MN,Mongolia,,,,,,2020-07-15,-18,15,92,-18,-59,-1
MN,Mongolia,,,,,,2020-07-16,2,31,67,-1,-24,-4
MN,Mongolia,,,,,,2020-07-17,8,39,55,2,-21,-3
MN,Mongolia,,,,,,2020-07-18,8,37,83,8,-3,-7
MN,Mongolia,,,,,,2020-07-19,14,43,90,12,2,-10
MN,Mongolia,,,,,,2020-07-20,22,45,78,19,-12,-7
MN,Mongolia,,,,,,2020-07-21,24,59,80,22,-13,-8
MN,Mongolia,,,,,,2020-07-22,18,47,71,18,-11,-7
MN,Mongolia,,,,,,2020-07-23,17,45,77,13,-11,-6
MN,Mongolia,,,,,,2020-07-24,15,48,69,13,-12,-6
MN,Mongolia,,,,,,2020-07-25,11,36,53,11,-5,-7
MN,Mongolia,,,,,,2020-07-26,21,48,95,17,-1,-10
MN,Mongolia,,,,,,2020-07-27,21,39,77,18,-13,-5
MN,Mongolia,,,,,,2020-07-28,19,49,86,20,-13,-5
MN,Mongolia,,,,,,2020-07-29,17,42,71,17,-13,-5
MN,Mongolia,,,,,,2020-07-30,18,44,77,15,-12,-6
MN,Mongolia,,,,,,2020-07-31,13,47,50,15,-12,-5
MN,Mongolia,,,,,,2020-08-01,18,50,77,20,-2,-7
MN,Mongolia,,,,,,2020-08-02,23,57,76,24,1,-9
MN,Mongolia,,,,,,2020-08-03,28,48,81,29,-11,-6
MN,Mongolia,,,,,,2020-08-04,26,57,88,29,-12,-6
MN,Mongolia,,,,,,2020-08-05,25,55,79,28,-11,-6
MN,Mongolia,,,,,,2020-08-06,24,52,83,26,-11,-6
MN,Mongolia,,,,,,2020-08-07,21,56,75,24,-12,-7
MN,Mongolia,,,,,,2020-08-08,18,50,98,21,-3,-10
MN,Mongolia,,,,,,2020-08-09,22,53,81,21,0,-11
MN,Mongolia,,,,,,2020-08-10,31,48,90,29,-10,-7
MN,Mongolia,,,,,,2020-08-11,30,60,95,30,-10,-7
MN,Mongolia,,,,,,2020-08-12,26,54,73,28,-9,-6
MN,Mongolia,,,,,,2020-08-13,26,54,82,26,-10,-6
MN,Mongolia,,,,,,2020-08-14,23,59,74,29,-10,-6
MN,Mongolia,,,,,,2020-08-15,23,56,105,29,0,-11
MN,Mongolia,,,,,,2020-08-16,24,56,76,28,0,-11
MN,Mongolia,,,,,,2020-08-17,,,,,-9,-6
MN,Mongolia,,,,,,2020-08-18,,,,,-6,-7
MN,Mongolia,,,,,,2020-08-19,,,,,-5,-6
MN,Mongolia,,,,,,2020-08-20,,,,,-7,-8
MN,Mongolia,,,,,,2020-08-21,,,,,-10,-8
MN,Mongolia,,,,,,2020-08-22,,,,,-1,-10
MN,Mongolia,,,,,,2020-08-23,,,,,2,-12
MN,Mongolia,,,,,,2020-08-24,,,,,-5,-7
MN,Mongolia,,,,,,2020-08-25,,,,,-6,-6
MN,Mongolia,,,,,,2020-08-26,,,,,-3,-6
MN,Mongolia,,,,,,2020-08-27,,,,,-3,-5
MN,Mongolia,,,,,,2020-08-28,,,,,-4,-5
MN,Mongolia,,,,,,2020-08-29,,,,,5,-7
MN,Mongolia,,,,,,2020-08-30,,,,,7,-7
MN,Mongolia,,,,,,2020-08-31,,,,,-1,-4
MN,Mongolia,,,,,,2020-09-01,,,,,-2,-6
MN,Mongolia,,,,,,2020-09-02,,,,,1,-6
MN,Mongolia,,,,,,2020-09-03,,,,,0,-6
MN,Mongolia,,,,,,2020-09-04,,,,,-1,-7
MN,Mongolia,,,,,,2020-09-05,,,,,-1,-7
MN,Mongolia,,,,,,2020-09-06,,,,,3,-9
MN,Mongolia,,,,,,2020-09-07,,,,,0,-6
MN,Mongolia,,,,,,2020-09-08,,,,,-1,-7
MN,Mongolia,,,,,,2020-09-09,,,,,2,-6
MN,Mongolia,,,,,,2020-09-10,,,,,-1,-6
MN,Mongolia,,,,,,2020-09-11,,,,,-1,-5
MN,Mongolia,,,,,,2020-09-12,,,,,-2,-4
MN,Mongolia,,,,,,2020-09-13,,,,,1,-4
MN,Mongolia,,,,,,2020-09-14,,,,,9,-4
MN,Mongolia,,,,,,2020-09-15,,,,,8,-4
MN,Mongolia,,,,,,2020-09-16,,,,,9,-5
MN,Mongolia,,,,,,2020-09-17,,,,,7,-5
MN,Mongolia,,,,,,2020-09-18,,,,,5,-5
MN,Mongolia,,,,,,2020-09-19,,,,,1,-8
MN,Mongolia,,,,,,2020-09-20,,,,,4,-8
MN,Mongolia,,,,,,2020-09-21,,,,,7,-7
MN,Mongolia,Darkhan-Uul,,,MN-037,,2020-02-24,,,,,-67,
MN,Mongolia,Darkhan-Uul,,,MN-037,,2020-02-25,,,,,-59,
MN,Mongolia,Darkhan-Uul,,,MN-037,,2020-02-26,,,,,-62,
MN,Mongolia,Darkhan-Uul,,,MN-037,,2020-07-13,,,,,-62,
MN,Mongolia,Darkhan-Uul,,,MN-037,,2020-07-14,,,,,-57,
MN,Mongolia,Darkhan-Uul,,,MN-037,,2020-07-15,,,,,-57,
MN,Mongolia,Orkhon,,,MN-035,,2020-02-24,,,,,-62,
MN,Mongolia,Orkhon,,,MN-035,,2020-02-25,,,,,-72,
MN,Mongolia,Orkhon,,,MN-035,,2020-02-26,,,,,-72,
MN,Mongolia,Orkhon,,,MN-035,,2020-02-27,,,,,-26,
MN,Mongolia,Orkhon,,,MN-035,,2020-06-01,,,,,-42,
MN,Mongolia,Orkhon,,,MN-035,,2020-06-24,,,,,-46,
MN,Mongolia,Orkhon,,,MN-035,,2020-07-13,,,,,-68,
MN,Mongolia,Orkhon,,,MN-035,,2020-07-14,,,,,-68,
MN,Mongolia,Orkhon,,,MN-035,,2020-07-15,,,,,-57,
MN,Mongolia,Ulaanbaatar,,,MN-1,,2020-02-15,-9,1,-24,-4,-1,4
MN,Mongolia,Ulaanbaatar,,,MN-1,,2020-02-16,-8,6,1,-4,0,1
MN,Mongolia,Ulaanbaatar,,,MN-1,,2020-02-17,-6,1,-10,-6,-3,4
MN,Mongolia,Ulaanbaatar,,,MN-1,,2020-02-18,-5,7,-15,-8,-4,4
MN,Mongolia,Ulaanbaatar,,,MN-1,,2020-02-19,-3,9,-19,-3,-3,4
MN,Mongolia,Ulaanbaatar,,,MN-1,,2020-02-20,-5,10,-4,-3,-5,4
MN,Mongolia,Ulaanbaatar,,,MN-1,,2020-02-21,-2,17,-15,-1,-7,4
MN,Mongolia,Ulaanbaatar,,,MN-1,,2020-02-22,-1,27,-25,3,-7,2
MN,Mongolia,Ulaanbaatar,,,MN-1,,2020-02-23,-28,4,-38,-21,-13,6
MN,Mongolia,Ulaanbaatar,,,MN-1,,2020-02-24,-70,-54,-60,-39,-74,18
MN,Mongolia,Ulaanbaatar,,,MN-1,,2020-02-25,-73,-57,-62,-57,-78,26
MN,Mongolia,Ulaanbaatar,,,MN-1,,2020-02-26,-71,-52,-60,-59,-74,27
MN,Mongolia,Ulaanbaatar,,,MN-1,,2020-02-27,-46,-30,-48,-44,-29,14
MN,Mongolia,Ulaanbaatar,,,MN-1,,2020-02-28,-41,-29,-48,-43,-25,15
MN,Mongolia,Ulaanbaatar,,,MN-1,,2020-02-29,-37,-27,-35,-38,-19,10
MN,Mongolia,Ulaanbaatar,,,MN-1,,2020-03-01,-38,-26,-33,-42,-14,8
MN,Mongolia,Ulaanbaatar,,,MN-1,,2020-03-02,-29,-21,-34,-32,-12,9
MN,Mongolia,Ulaanbaatar,,,MN-1,,2020-03-03,-22,-6,-32,-20,-12,4
MN,Mongolia,Ulaanbaatar,,,MN-1,,2020-03-04,-18,-6,-24,-15,-6,6
MN,Mongolia,Ulaanbaatar,,,MN-1,,2020-03-05,-14,-1,-19,-15,-6,6
MN,Mongolia,Ulaanbaatar,,,MN-1,,2020-03-06,-12,-1,-16,-16,-5,6
MN,Mongolia,Ulaanbaatar,,,MN-1,,2020-03-07,-7,3,-11,-11,-3,4
MN,Mongolia,Ulaanbaatar,,,MN-1,,2020-03-08,-5,17,-7,-11,-9,2
MN,Mongolia,Ulaanbaatar,,,MN-1,,2020-03-09,-15,-9,-19,-17,-4,6
MN,Mongolia,Ulaanbaatar,,,MN-1,,2020-03-10,-33,7,-46,-24,-15,12
MN,Mongolia,Ulaanbaatar,,,MN-1,,2020-03-11,-51,-27,-53,-44,-31,21
MN,Mongolia,Ulaanbaatar,,,MN-1,,2020-03-12,-54,-29,-53,-44,-35,20
MN,Mongolia,Ulaanbaatar,,,MN-1,,2020-03-13,-53,-26,-52,-42,-33,21
MN,Mongolia,Ulaanbaatar,,,MN-1,,2020-03-14,-52,-27,-32,-39,-32,13
MN,Mongolia,Ulaanbaatar,,,MN-1,,2020-03-15,-51,-25,-22,-38,-29,9
MN,Mongolia,Ulaanbaatar,,,MN-1,,2020-03-16,-15,-2,-26,-13,-12,8
MN,Mongolia,Ulaanbaatar,,,MN-1,,2020-03-17,-18,0,-25,-16,-13,9
MN,Mongolia,Ulaanbaatar,,,MN-1,,2020-03-18,-15,1,-29,-17,-13,9
MN,Mongolia,Ulaanbaatar,,,MN-1,,2020-03-19,-27,-12,-33,-24,-16,11
MN,Mongolia,Ulaanbaatar,,,MN-1,,2020-03-20,-24,-5,-31,-22,-13,11
MN,Mongolia,Ulaanbaatar,,,MN-1,,2020-03-21,-20,-4,-13,-16,-8,6
MN,Mongolia,Ulaanbaatar,,,MN-1,,2020-03-22,-19,-4,12,-16,-8,2
MN,Mongolia,Ulaanbaatar,,,MN-1,,2020-03-23,-17,-4,-5,-14,-10,6
MN,Mongolia,Ulaanbaatar,,,MN-1,,2020-03-24,-20,-4,-17,-17,-11,7
MN,Mongolia,Ulaanbaatar,,,MN-1,,2020-03-25,-23,-8,-31,-22,-10,9
MN,Mongolia,Ulaanbaatar,,,MN-1,,2020-03-26,-22,-6,-29,-22,-12,9
MN,Mongolia,Ulaanbaatar,,,MN-1,,2020-03-27,-22,-5,-31,-20,-10,9
MN,Mongolia,Ulaanbaatar,,,MN-1,,2020-03-28,-20,-5,-10,-16,-6,5
MN,Mongolia,Ulaanbaatar,,,MN-1,,2020-03-29,-19,-1,6,-16,-5,2
MN,Mongolia,Ulaanbaatar,,,MN-1,,2020-03-30,-20,-7,-17,-16,-7,7
MN,Mongolia,Ulaanbaatar,,,MN-1,,2020-03-31,-18,-2,-18,-16,-7,6
MN,Mongolia,Ulaanbaatar,,,MN-1,,2020-04-01,-12,4,-1,-10,-7,5
MN,Mongolia,Ulaanbaatar,,,MN-1,,2020-04-02,-13,4,-5,-12,-8,5
MN,Mongolia,Ulaanbaatar,,,MN-1,,2020-04-03,-14,5,-4,-12,-7,6
MN,Mongolia,Ulaanbaatar,,,MN-1,,2020-04-04,-13,8,23,-6,-7,0
MN,Mongolia,Ulaanbaatar,,,MN-1,,2020-04-05,-15,6,26,-10,-5,-1
MN,Mongolia,Ulaanbaatar,,,MN-1,,2020-04-06,-15,0,-14,-14,-6,5
MN,Mongolia,Ulaanbaatar,,,MN-1,,2020-04-07,-14,3,-17,-12,-7,5
MN,Mongolia,Ulaanbaatar,,,MN-1,,2020-04-08,-11,4,0,-8,-5,5
MN,Mongolia,Ulaanbaatar,,,MN-1,,2020-04-09,-14,4,-3,-14,-7,5
MN,Mongolia,Ulaanbaatar,,,MN-1,,2020-04-10,-13,7,-7,-12,-6,5
MN,Mongolia,Ulaanbaatar,,,MN-1,,2020-04-11,-10,10,14,-5,-4,1
MN,Mongolia,Ulaanbaatar,,,MN-1,,2020-04-12,-15,7,8,-7,-1,0
MN,Mongolia,Ulaanbaatar,,,MN-1,,2020-04-13,-13,0,-6,-9,-4,4
MN,Mongolia,Ulaanbaatar,,,MN-1,,2020-04-14,-19,3,-20,-14,-5,5
MN,Mongolia,Ulaanbaatar,,,MN-1,,2020-04-15,-18,3,-25,-13,-7,8
MN,Mongolia,Ulaanbaatar,,,MN-1,,2020-04-16,-12,6,-8,-9,-5,5
MN,Mongolia,Ulaanbaatar,,,MN-1,,2020-04-17,-12,10,-8,-8,-5,5
MN,Mongolia,Ulaanbaatar,,,MN-1,,2020-04-18,-12,5,2,-5,1,2
MN,Mongolia,Ulaanbaatar,,,MN-1,,2020-04-19,-19,-2,-23,-16,1,3
MN,Mongolia,Ulaanbaatar,,,MN-1,,2020-04-20,-8,5,-14,-7,-2,4
MN,Mongolia,Ulaanbaatar,,,MN-1,,2020-04-21,-9,9,-16,-9,-4,5
MN,Mongolia,Ulaanbaatar,,,MN-1,,2020-04-22,-11,4,-14,-14,-3,6
MN,Mongolia,Ulaanbaatar,,,MN-1,,2020-04-23,-10,4,-1,-14,-4,5
MN,Mongolia,Ulaanbaatar,,,MN-1,,2020-04-24,-11,5,-4,-14,-2,6
MN,Mongolia,Ulaanbaatar,,,MN-1,,2020-04-25,-7,15,15,2,6,-1
MN,Mongolia,Ulaanbaatar,,,MN-1,,2020-04-26,-6,16,46,0,6,-4
MN,Mongolia,Ulaanbaatar,,,MN-1,,2020-04-27,-5,9,19,-1,-1,2
MN,Mongolia,Ulaanbaatar,,,MN-1,,2020-04-28,-5,14,24,-3,-2,1
MN,Mongolia,Ulaanbaatar,,,MN-1,,2020-04-29,-5,12,16,-2,0,1
MN,Mongolia,Ulaanbaatar,,,MN-1,,2020-04-30,-2,19,25,-1,-1,0
MN,Mongolia,Ulaanbaatar,,,MN-1,,2020-05-01,-2,25,16,3,-1,0
MN,Mongolia,Ulaanbaatar,,,MN-1,,2020-05-02,-1,19,7,3,6,-1
MN,Mongolia,Ulaanbaatar,,,MN-1,,2020-05-03,1,26,43,12,8,-5
MN,Mongolia,Ulaanbaatar,,,MN-1,,2020-05-04,1,18,19,3,1,0
MN,Mongolia,Ulaanbaatar,,,MN-1,,2020-05-05,3,24,27,6,2,0
MN,Mongolia,Ulaanbaatar,,,MN-1,,2020-05-06,2,26,6,7,1,1
MN,Mongolia,Ulaanbaatar,,,MN-1,,2020-05-07,-5,23,8,4,-10,4
MN,Mongolia,Ulaanbaatar,,,MN-1,,2020-05-08,2,27,7,9,1,1
MN,Mongolia,Ulaanbaatar,,,MN-1,,2020-05-09,-2,15,-8,3,5,1
MN,Mongolia,Ulaanbaatar,,,MN-1,,2020-05-10,1,23,10,9,10,-2
MN,Mongolia,Ulaanbaatar,,,MN-1,,2020-05-11,3,22,20,8,5,1
MN,Mongolia,Ulaanbaatar,,,MN-1,,2020-05-12,7,30,37,12,5,-1
MN,Mongolia,Ulaanbaatar,,,MN-1,,2020-05-13,5,28,41,12,4,0
MN,Mongolia,Ulaanbaatar,,,MN-1,,2020-05-14,2,27,33,7,4,-2
MN,Mongolia,Ulaanbaatar,,,MN-1,,2020-05-15,-8,14,-13,-3,2,4
MN,Mongolia,Ulaanbaatar,,,MN-1,,2020-05-16,-4,13,-14,1,7,4
MN,Mongolia,Ulaanbaatar,,,MN-1,,2020-05-17,8,27,35,12,15,-1
MN,Mongolia,Ulaanbaatar,,,MN-1,,2020-05-18,8,27,45,16,5,-1
MN,Mongolia,Ulaanbaatar,,,MN-1,,2020-05-19,7,30,45,15,5,-2
MN,Mongolia,Ulaanbaatar,,,MN-1,,2020-05-20,7,30,32,14,4,0
MN,Mongolia,Ulaanbaatar,,,MN-1,,2020-05-21,7,32,27,12,3,0
MN,Mongolia,Ulaanbaatar,,,MN-1,,2020-05-22,3,29,15,10,4,0
MN,Mongolia,Ulaanbaatar,,,MN-1,,2020-05-23,7,29,37,18,11,-4
MN,Mongolia,Ulaanbaatar,,,MN-1,,2020-05-24,7,35,48,13,12,-7
MN,Mongolia,Ulaanbaatar,,,MN-1,,2020-05-25,7,31,28,16,0,-4
MN,Mongolia,Ulaanbaatar,,,MN-1,,2020-05-26,5,29,33,9,6,-2
MN,Mongolia,Ulaanbaatar,,,MN-1,,2020-05-27,9,31,47,12,6,-3
MN,Mongolia,Ulaanbaatar,,,MN-1,,2020-05-28,4,27,26,9,5,-2
MN,Mongolia,Ulaanbaatar,,,MN-1,,2020-05-29,5,30,17,12,3,1
MN,Mongolia,Ulaanbaatar,,,MN-1,,2020-05-30,14,36,19,20,17,-4
MN,Mongolia,Ulaanbaatar,,,MN-1,,2020-05-31,22,56,47,28,20,-10
MN,Mongolia,Ulaanbaatar,,,MN-1,,2020-06-01,-15,37,30,-2,-60,3
MN,Mongolia,Ulaanbaatar,,,MN-1,,2020-06-02,4,30,20,12,5,-4
MN,Mongolia,Ulaanbaatar,,,MN-1,,2020-06-03,8,31,37,16,6,-3
MN,Mongolia,Ulaanbaatar,,,MN-1,,2020-06-04,11,40,51,18,4,-5
MN,Mongolia,Ulaanbaatar,,,MN-1,,2020-06-05,-14,30,1,4,-41,3
MN,Mongolia,Ulaanbaatar,,,MN-1,,2020-06-06,0,25,47,13,6,-8
MN,Mongolia,Ulaanbaatar,,,MN-1,,2020-06-07,6,31,45,16,17,-10
MN,Mongolia,Ulaanbaatar,,,MN-1,,2020-06-08,5,29,30,17,6,-4
MN,Mongolia,Ulaanbaatar,,,MN-1,,2020-06-09,9,35,24,19,6,-4
MN,Mongolia,Ulaanbaatar,,,MN-1,,2020-06-10,12,39,41,21,7,-5
MN,Mongolia,Ulaanbaatar,,,MN-1,,2020-06-11,9,35,33,17,5,-5
MN,Mongolia,Ulaanbaatar,,,MN-1,,2020-06-12,4,33,12,13,3,-3
MN,Mongolia,Ulaanbaatar,,,MN-1,,2020-06-13,7,37,41,19,15,-9
MN,Mongolia,Ulaanbaatar,,,MN-1,,2020-06-14,7,38,63,18,20,-12
MN,Mongolia,Ulaanbaatar,,,MN-1,,2020-06-15,9,33,43,17,5,-7
MN,Mongolia,Ulaanbaatar,,,MN-1,,2020-06-16,11,41,60,18,4,-6
MN,Mongolia,Ulaanbaatar,,,MN-1,,2020-06-17,12,40,59,24,5,-6
MN,Mongolia,Ulaanbaatar,,,MN-1,,2020-06-18,9,35,58,16,3,-7
MN,Mongolia,Ulaanbaatar,,,MN-1,,2020-06-19,5,36,29,14,1,-6
MN,Mongolia,Ulaanbaatar,,,MN-1,,2020-06-20,6,34,69,17,16,-11
MN,Mongolia,Ulaanbaatar,,,MN-1,,2020-06-21,6,31,42,16,18,-10
MN,Mongolia,Ulaanbaatar,,,MN-1,,2020-06-22,13,35,62,25,1,-7
MN,Mongolia,Ulaanbaatar,,,MN-1,,2020-06-23,14,44,38,25,-1,-6
MN,Mongolia,Ulaanbaatar,,,MN-1,,2020-06-24,-12,29,2,14,-53,5
MN,Mongolia,Ulaanbaatar,,,MN-1,,2020-06-25,7,35,44,13,-2,-4
MN,Mongolia,Ulaanbaatar,,,MN-1,,2020-06-26,11,44,56,17,-2,-5
MN,Mongolia,Ulaanbaatar,,,MN-1,,2020-06-27,6,39,84,16,5,-10
MN,Mongolia,Ulaanbaatar,,,MN-1,,2020-06-28,7,38,88,12,8,-13
MN,Mongolia,Ulaanbaatar,,,MN-1,,2020-06-29,11,34,78,18,-2,-7
MN,Mongolia,Ulaanbaatar,,,MN-1,,2020-06-30,15,48,76,20,-2,-7
MN,Mongolia,Ulaanbaatar,,,MN-1,,2020-07-01,18,50,86,26,-3,-7
MN,Mongolia,Ulaanbaatar,,,MN-1,,2020-07-02,18,53,81,21,-5,-7
MN,Mongolia,Ulaanbaatar,,,MN-1,,2020-07-03,15,51,66,22,-6,-7
MN,Mongolia,Ulaanbaatar,,,MN-1,,2020-07-04,15,45,74,24,6,-11
MN,Mongolia,Ulaanbaatar,,,MN-1,,2020-07-05,16,49,82,23,9,-13
MN,Mongolia,Ulaanbaatar,,,MN-1,,2020-07-06,22,47,68,27,-7,-8
MN,Mongolia,Ulaanbaatar,,,MN-1,,2020-07-07,26,62,69,28,-8,-9
MN,Mongolia,Ulaanbaatar,,,MN-1,,2020-07-08,28,62,71,32,-8,-9
MN,Mongolia,Ulaanbaatar,,,MN-1,,2020-07-09,29,76,75,40,-12,-10
MN,Mongolia,Ulaanbaatar,,,MN-1,,2020-07-10,25,89,13,37,-23,-9
MN,Mongolia,Ulaanbaatar,,,MN-1,,2020-07-11,-41,16,38,-17,-54,-12
MN,Mongolia,Ulaanbaatar,,,MN-1,,2020-07-12,-47,0,52,-33,-49,-16
MN,Mongolia,Ulaanbaatar,,,MN-1,,2020-07-13,-51,-11,16,-41,-76,-5
MN,Mongolia,Ulaanbaatar,,,MN-1,,2020-07-14,-44,-5,0,-35,-72,-3
MN,Mongolia,Ulaanbaatar,,,MN-1,,2020-07-15,-31,3,14,-21,-65,0
MN,Mongolia,Ulaanbaatar,,,MN-1,,2020-07-16,-10,21,-9,-3,-28,-3
MN,Mongolia,Ulaanbaatar,,,MN-1,,2020-07-17,-1,31,4,2,-24,-2
MN,Mongolia,Ulaanbaatar,,,MN-1,,2020-07-18,1,28,38,6,-7,-7
MN,Mongolia,Ulaanbaatar,,,MN-1,,2020-07-19,7,36,54,11,0,-10
MN,Mongolia,Ulaanbaatar,,,MN-1,,2020-07-20,16,41,46,19,-13,-6
MN,Mongolia,Ulaanbaatar,,,MN-1,,2020-07-21,19,57,53,23,-14,-7
MN,Mongolia,Ulaanbaatar,,,MN-1,,2020-07-22,14,47,45,19,-13,-7
MN,Mongolia,Ulaanbaatar,,,MN-1,,2020-07-23,11,42,45,12,-13,-6
MN,Mongolia,Ulaanbaatar,,,MN-1,,2020-07-24,12,44,41,12,-14,-6
MN,Mongolia,Ulaanbaatar,,,MN-1,,2020-07-25,6,29,7,11,-7,-7
MN,Mongolia,Ulaanbaatar,,,MN-1,,2020-07-26,17,43,73,18,-2,-10
MN,Mongolia,Ulaanbaatar,,,MN-1,,2020-07-27,17,35,51,19,-15,-5
MN,Mongolia,Ulaanbaatar,,,MN-1,,2020-07-28,15,48,64,20,-14,-5
MN,Mongolia,Ulaanbaatar,,,MN-1,,2020-07-29,15,41,52,18,-13,-5
MN,Mongolia,Ulaanbaatar,,,MN-1,,2020-07-30,14,44,52,15,-13,-6
MN,Mongolia,Ulaanbaatar,,,MN-1,,2020-07-31,9,45,24,15,-14,-5
MN,Mongolia,Ulaanbaatar,,,MN-1,,2020-08-01,14,45,48,20,-5,-8
MN,Mongolia,Ulaanbaatar,,,MN-1,,2020-08-02,18,52,51,25,0,-9
MN,Mongolia,Ulaanbaatar,,,MN-1,,2020-08-03,24,45,58,30,-13,-6
MN,Mongolia,Ulaanbaatar,,,MN-1,,2020-08-04,23,56,68,30,-13,-6
MN,Mongolia,Ulaanbaatar,,,MN-1,,2020-08-05,24,54,61,29,-12,-6
MN,Mongolia,Ulaanbaatar,,,MN-1,,2020-08-06,19,51,56,26,-12,-6
MN,Mongolia,Ulaanbaatar,,,MN-1,,2020-08-07,19,54,52,24,-14,-6
MN,Mongolia,Ulaanbaatar,,,MN-1,,2020-08-08,14,44,67,20,-6,-10
MN,Mongolia,Ulaanbaatar,,,MN-1,,2020-08-09,18,50,54,21,-1,-11
MN,Mongolia,Ulaanbaatar,,,MN-1,,2020-08-10,29,45,75,30,-11,-6
MN,Mongolia,Ulaanbaatar,,,MN-1,,2020-08-11,29,61,77,31,-11,-6
MN,Mongolia,Ulaanbaatar,,,MN-1,,2020-08-12,26,56,57,31,-8,-5
MN,Mongolia,Ulaanbaatar,,,MN-1,,2020-08-13,24,54,62,26,-11,-5
MN,Mongolia,Ulaanbaatar,,,MN-1,,2020-08-14,22,57,58,29,-12,-6
MN,Mongolia,Ulaanbaatar,,,MN-1,,2020-08-15,20,52,87,29,-2,-11
MN,Mongolia,Ulaanbaatar,,,MN-1,,2020-08-16,20,54,61,29,-1,-11
MN,Mongolia,Ulaanbaatar,,,MN-1,,2020-08-17,,,,,-10,-5
MN,Mongolia,Ulaanbaatar,,,MN-1,,2020-08-18,,,,,-7,-6
MN,Mongolia,Ulaanbaatar,,,MN-1,,2020-08-19,,,,,-6,-5
MN,Mongolia,Ulaanbaatar,,,MN-1,,2020-08-20,,,,,-8,-8
MN,Mongolia,Ulaanbaatar,,,MN-1,,2020-08-21,,,,,-11,-7
MN,Mongolia,Ulaanbaatar,,,MN-1,,2020-08-22,,,,,-3,-10
MN,Mongolia,Ulaanbaatar,,,MN-1,,2020-08-23,,,,,3,-13
MN,Mongolia,Ulaanbaatar,,,MN-1,,2020-08-24,,,,,-6,-7
MN,Mongolia,Ulaanbaatar,,,MN-1,,2020-08-25,,,,,-7,-6
MN,Mongolia,Ulaanbaatar,,,MN-1,,2020-08-26,,,,,-3,-5
MN,Mongolia,Ulaanbaatar,,,MN-1,,2020-08-27,,,,,-4,-5
MN,Mongolia,Ulaanbaatar,,,MN-1,,2020-08-28,,,,,-5,-4
MN,Mongolia,Ulaanbaatar,,,MN-1,,2020-08-29,,,,,3,-7
MN,Mongolia,Ulaanbaatar,,,MN-1,,2020-08-30,,,,,5,-7
MN,Mongolia,Ulaanbaatar,,,MN-1,,2020-08-31,,,,,-3,-4
MN,Mongolia,Ulaanbaatar,,,MN-1,,2020-09-01,,,,,-4,-5
MN,Mongolia,Ulaanbaatar,,,MN-1,,2020-09-02,,,,,0,-6
MN,Mongolia,Ulaanbaatar,,,MN-1,,2020-09-03,,,,,-1,-5
MN,Mongolia,Ulaanbaatar,,,MN-1,,2020-09-04,,,,,-2,-7
MN,Mongolia,Ulaanbaatar,,,MN-1,,2020-09-05,,,,,-3,-7
MN,Mongolia,Ulaanbaatar,,,MN-1,,2020-09-06,,,,,2,-9
MN,Mongolia,Ulaanbaatar,,,MN-1,,2020-09-07,,,,,-1,-6
MN,Mongolia,Ulaanbaatar,,,MN-1,,2020-09-08,,,,,-2,-6
MN,Mongolia,Ulaanbaatar,,,MN-1,,2020-09-09,,,,,1,-6
MN,Mongolia,Ulaanbaatar,,,MN-1,,2020-09-10,,,,,-1,-6
MN,Mongolia,Ulaanbaatar,,,MN-1,,2020-09-11,,,,,-2,-5
MN,Mongolia,Ulaanbaatar,,,MN-1,,2020-09-12,,,,,-2,-4
MN,Mongolia,Ulaanbaatar,,,MN-1,,2020-09-13,,,,,2,-5
MN,Mongolia,Ulaanbaatar,,,MN-1,,2020-09-14,,,,,8,-4
MN,Mongolia,Ulaanbaatar,,,MN-1,,2020-09-15,,,,,9,-3
MN,Mongolia,Ulaanbaatar,,,MN-1,,2020-09-16,,,,,8,-4
MN,Mongolia,Ulaanbaatar,,,MN-1,,2020-09-17,,,,,6,-5
MN,Mongolia,Ulaanbaatar,,,MN-1,,2020-09-18,,,,,4,-5
MN,Mongolia,Ulaanbaatar,,,MN-1,,2020-09-19,,,,,1,-8
MN,Mongolia,Ulaanbaatar,,,MN-1,,2020-09-20,,,,,5,-8
MN,Mongolia,Ulaanbaatar,,,MN-1,,2020-09-21,,,,,6,-7
