country_region_code,country_region,sub_region_1,sub_region_2,metro_area,iso_3166_2_code,census_fips_code,date,retail_and_recreation_percent_change_from_baseline,grocery_and_pharmacy_percent_change_from_baseline,parks_percent_change_from_baseline,transit_stations_percent_change_from_baseline,workplaces_percent_change_from_baseline,residential_percent_change_from_baseline
NP,Nepal,,,,,,2020-02-15,3,4,3,2,2,0
NP,Nepal,,,,,,2020-02-16,4,4,4,5,8,0
NP,Nepal,,,,,,2020-02-17,4,3,6,6,5,0
NP,Nepal,,,,,,2020-02-18,4,4,5,5,7,0
NP,Nepal,,,,,,2020-02-19,4,4,3,4,6,0
NP,Nepal,,,,,,2020-02-20,7,8,8,7,10,-2
NP,Nepal,,,,,,2020-02-21,-7,-2,2,-5,-35,5
NP,Nepal,,,,,,2020-02-22,4,6,0,1,2,0
NP,Nepal,,,,,,2020-02-23,6,8,3,7,10,0
NP,Nepal,,,,,,2020-02-24,3,5,0,4,6,0
NP,Nepal,,,,,,2020-02-25,1,0,-3,2,5,0
NP,Nepal,,,,,,2020-02-26,1,1,-5,2,-6,1
NP,Nepal,,,,,,2020-02-27,6,6,3,6,7,0
NP,Nepal,,,,,,2020-02-28,4,6,4,8,8,-1
NP,Nepal,,,,,,2020-02-29,6,5,3,4,6,0
NP,Nepal,,,,,,2020-03-01,6,7,1,7,11,0
NP,Nepal,,,,,,2020-03-02,4,4,0,6,6,0
NP,Nepal,,,,,,2020-03-03,4,3,1,2,6,0
NP,Nepal,,,,,,2020-03-04,4,9,1,5,5,0
NP,Nepal,,,,,,2020-03-05,5,13,2,7,12,0
NP,Nepal,,,,,,2020-03-06,5,10,1,10,9,-1
NP,Nepal,,,,,,2020-03-07,-3,2,-9,-2,4,2
NP,Nepal,,,,,,2020-03-08,7,11,8,5,-16,2
NP,Nepal,,,,,,2020-03-09,-12,-11,14,-6,-43,7
NP,Nepal,,,,,,2020-03-10,-3,0,5,-5,-17,2
NP,Nepal,,,,,,2020-03-11,2,4,1,2,-3,0
NP,Nepal,,,,,,2020-03-12,2,5,1,2,8,0
NP,Nepal,,,,,,2020-03-13,-4,0,-6,-2,8,2
NP,Nepal,,,,,,2020-03-14,-7,0,-6,-5,12,3
NP,Nepal,,,,,,2020-03-15,0,5,-2,0,11,2
NP,Nepal,,,,,,2020-03-16,0,5,-2,0,8,1
NP,Nepal,,,,,,2020-03-17,-2,3,-2,-2,6,2
NP,Nepal,,,,,,2020-03-18,1,9,-2,2,5,1
NP,Nepal,,,,,,2020-03-19,0,14,1,4,4,3
NP,Nepal,,,,,,2020-03-20,-5,11,-4,3,-3,4
NP,Nepal,,,,,,2020-03-21,-18,4,-14,-2,0,4
NP,Nepal,,,,,,2020-03-22,-20,-4,-14,-8,-14,6
NP,Nepal,,,,,,2020-03-23,-33,-10,-19,-25,-30,9
NP,Nepal,,,,,,2020-03-24,-71,-61,-47,-63,-70,22
NP,Nepal,,,,,,2020-03-25,-76,-66,-52,-70,-74,25
NP,Nepal,,,,,,2020-03-26,-77,-68,-52,-73,-74,27
NP,Nepal,,,,,,2020-03-27,-78,-68,-54,-73,-74,28
NP,Nepal,,,,,,2020-03-28,-77,-69,-55,-72,-54,22
NP,Nepal,,,,,,2020-03-29,-78,-69,-55,-74,-72,28
NP,Nepal,,,,,,2020-03-30,-77,-68,-53,-73,-74,26
NP,Nepal,,,,,,2020-03-31,-77,-69,-52,-73,-74,26
NP,Nepal,,,,,,2020-04-01,-77,-68,-53,-72,-73,25
NP,Nepal,,,,,,2020-04-02,-77,-69,-52,-73,-72,26
NP,Nepal,,,,,,2020-04-03,-77,-67,-52,-72,-71,27
NP,Nepal,,,,,,2020-04-04,-75,-67,-55,-71,-50,21
NP,Nepal,,,,,,2020-04-05,-76,-68,-54,-73,-69,27
NP,Nepal,,,,,,2020-04-06,-76,-67,-52,-72,-72,26
NP,Nepal,,,,,,2020-04-07,-76,-65,-51,-71,-71,26
NP,Nepal,,,,,,2020-04-08,-77,-66,-52,-71,-71,25
NP,Nepal,,,,,,2020-04-09,-77,-66,-51,-71,-70,25
NP,Nepal,,,,,,2020-04-10,-77,-66,-52,-70,-68,26
NP,Nepal,,,,,,2020-04-11,-77,-68,-55,-71,-50,21
NP,Nepal,,,,,,2020-04-12,-74,-63,-51,-69,-65,24
NP,Nepal,,,,,,2020-04-13,-75,-64,-47,-69,-72,24
NP,Nepal,,,,,,2020-04-14,-77,-68,-52,-72,-71,24
NP,Nepal,,,,,,2020-04-15,-78,-68,-52,-72,-71,23
NP,Nepal,,,,,,2020-04-16,-78,-68,-52,-73,-70,26
NP,Nepal,,,,,,2020-04-17,-79,-66,-52,-72,-69,26
NP,Nepal,,,,,,2020-04-18,-79,-70,-57,-74,-52,20
NP,Nepal,,,,,,2020-04-19,-79,-67,-56,-73,-68,25
NP,Nepal,,,,,,2020-04-20,-78,-66,-52,-71,-70,25
NP,Nepal,,,,,,2020-04-21,-79,-68,-53,-73,-71,23
NP,Nepal,,,,,,2020-04-22,-76,-62,-50,-68,-68,22
NP,Nepal,,,,,,2020-04-23,-75,-62,-49,-67,-65,22
NP,Nepal,,,,,,2020-04-24,-77,-64,-50,-70,-66,24
NP,Nepal,,,,,,2020-04-25,-77,-66,-55,-71,-47,20
NP,Nepal,,,,,,2020-04-26,-75,-62,-51,-69,-63,24
NP,Nepal,,,,,,2020-04-27,-75,-61,-49,-68,-65,23
NP,Nepal,,,,,,2020-04-28,-74,-60,-47,-67,-64,22
NP,Nepal,,,,,,2020-04-29,-73,-59,-45,-65,-63,22
NP,Nepal,,,,,,2020-04-30,-73,-59,-45,-65,-61,23
NP,Nepal,,,,,,2020-05-01,-77,-64,-50,-69,-67,24
NP,Nepal,,,,,,2020-05-02,-74,-62,-50,-67,-42,18
NP,Nepal,,,,,,2020-05-03,-73,-59,-47,-66,-58,22
NP,Nepal,,,,,,2020-05-04,-74,-61,-47,-67,-62,21
NP,Nepal,,,,,,2020-05-05,-73,-60,-47,-66,-62,21
NP,Nepal,,,,,,2020-05-06,-70,-55,-44,-61,-60,21
NP,Nepal,,,,,,2020-05-07,-72,-58,-43,-63,-65,21
NP,Nepal,,,,,,2020-05-08,-68,-50,-41,-57,-54,21
NP,Nepal,,,,,,2020-05-09,-67,-52,-44,-58,-35,17
NP,Nepal,,,,,,2020-05-10,-65,-48,-42,-57,-49,19
NP,Nepal,,,,,,2020-05-11,-62,-44,-37,-53,-50,18
NP,Nepal,,,,,,2020-05-12,-62,-43,-36,-52,-50,18
NP,Nepal,,,,,,2020-05-13,-66,-48,-41,-57,-55,19
NP,Nepal,,,,,,2020-05-14,-71,-56,-44,-63,-59,22
NP,Nepal,,,,,,2020-05-15,-72,-56,-45,-63,-59,23
NP,Nepal,,,,,,2020-05-16,-73,-60,-49,-65,-40,19
NP,Nepal,,,,,,2020-05-17,-73,-59,-49,-66,-59,23
NP,Nepal,,,,,,2020-05-18,-72,-58,-46,-65,-62,23
NP,Nepal,,,,,,2020-05-19,-72,-58,-46,-65,-62,22
NP,Nepal,,,,,,2020-05-20,-71,-57,-46,-63,-61,22
NP,Nepal,,,,,,2020-05-21,-70,-53,-44,-63,-58,23
NP,Nepal,,,,,,2020-05-22,-71,-53,-46,-62,-58,23
NP,Nepal,,,,,,2020-05-23,-70,-55,-49,-63,-36,18
NP,Nepal,,,,,,2020-05-24,-69,-52,-45,-62,-55,21
NP,Nepal,,,,,,2020-05-25,-70,-55,-44,-62,-62,20
NP,Nepal,,,,,,2020-05-26,-68,-54,-44,-61,-57,18
NP,Nepal,,,,,,2020-05-27,-68,-53,-44,-60,-57,18
NP,Nepal,,,,,,2020-05-28,-65,-48,-39,-58,-52,20
NP,Nepal,,,,,,2020-05-29,-67,-49,-41,-58,-52,21
NP,Nepal,,,,,,2020-05-30,-66,-50,-44,-59,-29,16
NP,Nepal,,,,,,2020-05-31,-63,-46,-40,-57,-48,19
NP,Nepal,,,,,,2020-06-01,-63,-45,-37,-55,-51,19
NP,Nepal,,,,,,2020-06-02,-62,-42,-35,-54,-49,18
NP,Nepal,,,,,,2020-06-03,-61,-42,-36,-53,-49,18
NP,Nepal,,,,,,2020-06-04,-60,-41,-35,-52,-45,18
NP,Nepal,,,,,,2020-06-05,-66,-49,-43,-60,-49,21
NP,Nepal,,,,,,2020-06-06,-63,-46,-42,-57,-24,16
NP,Nepal,,,,,,2020-06-07,-55,-34,-32,-48,-39,17
NP,Nepal,,,,,,2020-06-08,-55,-34,-32,-48,-41,16
NP,Nepal,,,,,,2020-06-09,-57,-37,-32,-50,-42,16
NP,Nepal,,,,,,2020-06-10,-56,-37,-33,-49,-43,15
NP,Nepal,,,,,,2020-06-11,-52,-32,-29,-48,-38,16
NP,Nepal,,,,,,2020-06-12,-51,-30,-29,-46,-37,16
NP,Nepal,,,,,,2020-06-13,-53,-32,-33,-48,-15,12
NP,Nepal,,,,,,2020-06-14,-45,-25,-27,-44,-32,14
NP,Nepal,,,,,,2020-06-15,-45,-25,-28,-44,-33,13
NP,Nepal,,,,,,2020-06-16,-44,-26,-28,-44,-35,13
NP,Nepal,,,,,,2020-06-17,-41,-21,-25,-39,-34,12
NP,Nepal,,,,,,2020-06-18,-44,-26,-28,-43,-32,13
NP,Nepal,,,,,,2020-06-19,-44,-24,-28,-41,-32,13
NP,Nepal,,,,,,2020-06-20,-49,-31,-35,-47,-14,11
NP,Nepal,,,,,,2020-06-21,-46,-31,-32,-46,-34,15
NP,Nepal,,,,,,2020-06-22,-40,-21,-28,-41,-34,13
NP,Nepal,,,,,,2020-06-23,-35,-17,-21,-36,-34,11
NP,Nepal,,,,,,2020-06-24,-37,-18,-25,-36,-32,11
NP,Nepal,,,,,,2020-06-25,-42,-25,-27,-42,-31,13
NP,Nepal,,,,,,2020-06-26,-39,-19,-25,-38,-29,13
NP,Nepal,,,,,,2020-06-27,-42,-23,-28,-39,-11,10
NP,Nepal,,,,,,2020-06-28,-38,-24,-28,-41,-26,12
NP,Nepal,,,,,,2020-06-29,-35,-17,-24,-36,-28,11
NP,Nepal,,,,,,2020-06-30,-32,-16,-21,-35,-29,11
NP,Nepal,,,,,,2020-07-01,-35,-19,-23,-36,-29,10
NP,Nepal,,,,,,2020-07-02,-34,-19,-21,-36,-26,11
NP,Nepal,,,,,,2020-07-03,-35,-15,-23,-35,-26,12
NP,Nepal,,,,,,2020-07-04,-39,-22,-26,-39,-8,10
NP,Nepal,,,,,,2020-07-05,-30,-14,-20,-33,-23,10
NP,Nepal,,,,,,2020-07-06,-32,-16,-23,-34,-27,10
NP,Nepal,,,,,,2020-07-07,-32,-17,-23,-34,-28,11
NP,Nepal,,,,,,2020-07-08,-33,-17,-23,-34,-27,10
NP,Nepal,,,,,,2020-07-09,-36,-23,-27,-38,-24,11
NP,Nepal,,,,,,2020-07-10,-38,-22,-29,-39,-26,13
NP,Nepal,,,,,,2020-07-11,-39,-24,-30,-40,-6,10
NP,Nepal,,,,,,2020-07-12,-31,-16,-24,-34,-21,11
NP,Nepal,,,,,,2020-07-13,-29,-13,-22,-32,-24,10
NP,Nepal,,,,,,2020-07-14,-30,-15,-22,-33,-25,10
NP,Nepal,,,,,,2020-07-15,-28,-14,-23,-30,-24,9
NP,Nepal,,,,,,2020-07-16,-29,-14,-21,-33,-21,10
NP,Nepal,,,,,,2020-07-17,-28,-11,-21,-30,-21,11
NP,Nepal,,,,,,2020-07-18,-34,-17,-27,-35,-7,10
NP,Nepal,,,,,,2020-07-19,-33,-19,-28,-37,-21,12
NP,Nepal,,,,,,2020-07-20,-37,-25,-29,-40,-27,12
NP,Nepal,,,,,,2020-07-21,-30,-17,-23,-36,-27,11
NP,Nepal,,,,,,2020-07-22,-24,-10,-21,-28,-22,9
NP,Nepal,,,,,,2020-07-23,-28,-14,-23,-31,-19,11
NP,Nepal,,,,,,2020-07-24,-25,-7,-20,-27,-19,11
NP,Nepal,,,,,,2020-07-25,-27,-11,-16,-29,-7,9
NP,Nepal,,,,,,2020-07-26,-21,-6,-15,-25,-18,9
NP,Nepal,,,,,,2020-07-27,-24,-9,-16,-26,-23,10
NP,Nepal,,,,,,2020-07-28,-28,-15,-21,-31,-25,11
NP,Nepal,,,,,,2020-07-29,-23,-9,-18,-24,-25,9
NP,Nepal,,,,,,2020-07-30,-24,-10,-17,-27,-21,10
NP,Nepal,,,,,,2020-07-31,-22,-5,-16,-24,-21,10
NP,Nepal,,,,,,2020-08-01,-29,-12,-20,-29,-9,9
NP,Nepal,,,,,,2020-08-02,-21,-4,-15,-25,-20,10
NP,Nepal,,,,,,2020-08-03,-26,-11,-10,-26,-35,10
NP,Nepal,,,,,,2020-08-04,-27,-14,-13,-29,-34,10
NP,Nepal,,,,,,2020-08-05,-27,-13,-21,-28,-26,9
NP,Nepal,,,,,,2020-08-06,-30,-17,-22,-30,-24,11
NP,Nepal,,,,,,2020-08-07,-33,-18,-22,-32,-23,12
NP,Nepal,,,,,,2020-08-08,-39,-24,-27,-37,-11,11
NP,Nepal,,,,,,2020-08-09,-36,-24,-28,-37,-24,13
NP,Nepal,,,,,,2020-08-10,-33,-20,-22,-34,-28,13
NP,Nepal,,,,,,2020-08-11,-39,-27,-28,-39,-32,13
NP,Nepal,,,,,,2020-08-12,-37,-23,-27,-37,-32,13
NP,Nepal,,,,,,2020-08-13,-37,-21,-25,-37,-28,14
NP,Nepal,,,,,,2020-08-14,-43,-25,-30,-39,-30,15
NP,Nepal,,,,,,2020-08-15,-48,-30,-33,-45,-18,13
NP,Nepal,,,,,,2020-08-16,-43,-27,-29,-43,-30,15
NP,Nepal,,,,,,2020-08-17,,,,,-36,16
NP,Nepal,,,,,,2020-08-18,,,,,-37,16
NP,Nepal,,,,,,2020-08-19,,,,,-38,13
NP,Nepal,,,,,,2020-08-20,,,,,-56,20
NP,Nepal,,,,,,2020-08-21,,,,,-60,22
NP,Nepal,,,,,,2020-08-22,,,,,-38,18
NP,Nepal,,,,,,2020-08-23,,,,,-55,22
NP,Nepal,,,,,,2020-08-24,,,,,-56,22
NP,Nepal,,,,,,2020-08-25,,,,,-57,22
NP,Nepal,,,,,,2020-08-26,,,,,-56,21
NP,Nepal,,,,,,2020-08-27,,,,,-53,21
NP,Nepal,,,,,,2020-08-28,,,,,-53,22
NP,Nepal,,,,,,2020-08-29,,,,,-33,18
NP,Nepal,,,,,,2020-08-30,,,,,-48,21
NP,Nepal,,,,,,2020-08-31,,,,,-51,20
NP,Nepal,,,,,,2020-09-01,,,,,-54,20
NP,Nepal,,,,,,2020-09-02,,,,,-51,19
NP,Nepal,,,,,,2020-09-03,,,,,-47,19
NP,Nepal,,,,,,2020-09-04,,,,,-49,20
NP,Nepal,,,,,,2020-09-05,,,,,-29,16
NP,Nepal,,,,,,2020-09-06,,,,,-42,18
NP,Nepal,,,,,,2020-09-07,,,,,-44,17
NP,Nepal,,,,,,2020-09-08,,,,,-45,17
NP,Nepal,,,,,,2020-09-09,,,,,-44,15
NP,Nepal,,,,,,2020-09-10,,,,,-35,14
NP,Nepal,,,,,,2020-09-11,,,,,-34,14
NP,Nepal,,,,,,2020-09-12,,,,,-18,10
NP,Nepal,,,,,,2020-09-13,,,,,-29,12
NP,Nepal,,,,,,2020-09-14,,,,,-30,12
NP,Nepal,,,,,,2020-09-15,,,,,-31,13
NP,Nepal,,,,,,2020-09-16,,,,,-31,12
NP,Nepal,,,,,,2020-09-17,,,,,-28,12
NP,Nepal,,,,,,2020-09-18,,,,,-28,13
NP,Nepal,,,,,,2020-09-19,,,,,-14,10
NP,Nepal,,,,,,2020-09-20,,,,,-23,11
NP,Nepal,,,,,,2020-09-21,,,,,-28,11
