codigo_uf;nome;ocupados;informalidade
11;Rondônia;  809258,3;0,5260365
12;Acre;  293479,5;0,5890578
13;Amazonas; 1636580,4;0,6416556
14;Roraima;  212658,8;0,5291547
15;Pará; 3468884,6;0,6693461
16;Amapá;  322010,2;0,6020206
17;Tocantins;  639667,7;0,5807955
21;Maranhão; 2211380,6;0,6721021
22;Piauí; 1231769,2;0,6659515
23;Ceará; 3609319,6;0,5959164
24;Rio Grande do Norte; 1303143,4;0,5418291
25;Paraíba; 1428005,7;0,5993358
26;Pernambuco; 3487712,2;0,5413148
27;Alagoas; 1004169,1;0,5517044
28;Sergipe;  905933,9;0,5644083
29;Bahia; 5699959,8;0,5970601
31;Minas Gerais; 9861905,7;0,4635432
32;Espírito Santo; 1898356,6;0,5060626
33;Rio de Janeiro; 7526072,5;0,4437011
35;São Paulo;22264035,1;0,3806487
41;Paraná; 5523645,0;0,4059297
42;Santa Catarina; 3595156,6;0,3519094
43;Rio Grande do Sul; 5579460,1;0,4394257
50;Mato Grosso do Sul; 1292438,1;0,4629493
51;Mato Grosso; 1678789,8;0,4743740
52;Goiás; 3311232,6;0,4706697
53;Distrito Federal; 1428370,5;0,3573211
